{"results": [{"id": "2601", "name": "Th\u00e9lem assurances"}, {"id": "2602", "name": "Banque Palatine"}, {"id": "2603", "name": "DomusVi"}, {"id": "2604", "name": "AXA"}, {"id": "2605", "name": "MONTPELLIER-HERAULT SC SASP"}, {"id": "2606", "name": "Finsbury Shoes"}, {"id": "2607", "name": "Agence Evolve"}, {"id": "2608", "name": "Beaba"}, {"id": "2609", "name": "LeCab"}, {"id": "2610", "name": "PROFILSOFT"}, {"id": "2611", "name": "DEVENSON"}, {"id": "2612", "name": "Connectwise"}, {"id": "2613", "name": "Spartoo"}, {"id": "2614", "name": "Cr\u00e9dit Agricole Anjou Maine"}, {"id": "2615", "name": "DPAM"}, {"id": "2616", "name": "sopragroup"}, {"id": "2617", "name": "ECOCEA"}, {"id": "2618", "name": "Pro-Recruitment Group"}, {"id": "2619", "name": "Groupe Promotrans"}, {"id": "2620", "name": "HEI"}, {"id": "2621", "name": "The Brendoncare Foundation"}, {"id": "2622", "name": "Kingston Maurward College"}, {"id": "2623", "name": "GECI CAVAVIN"}, {"id": "2624", "name": "VIR TRANSPORT"}, {"id": "2625", "name": "Actalians"}, {"id": "2626", "name": "Reliance Precision Limited"}, {"id": "2627", "name": "Advantage Resourcing"}, {"id": "2628", "name": "LISI AEROSPACE"}, {"id": "2629", "name": "Hudson"}, {"id": "2630", "name": "Lefebvre Sarrut"}, {"id": "2631", "name": "TLC Marketing UK Ltd"}, {"id": "2632", "name": "Opera National de Lyon"}, {"id": "2633", "name": "Alphabet Belgium Long Term Rental nv"}, {"id": "2634", "name": "Cr\u00e9dit Agricole"}, {"id": "2635", "name": "SAMSUNG"}, {"id": "2636", "name": "SETEC"}, {"id": "2637", "name": "ONET S.A."}, {"id": "2638", "name": "Insign"}, {"id": "2639", "name": "Bluestar Silicones"}, {"id": "2640", "name": "StaffPoint Oy"}, {"id": "2641", "name": "Cr\u00e9dit Mutuel Ark\u00e9a"}, {"id": "2642", "name": "Evernex"}, {"id": "2643", "name": "Parella"}, {"id": "2644", "name": "Labatt"}, {"id": "2645", "name": "ADEO"}, {"id": "2646", "name": "Mettler-Toledo International"}, {"id": "2647", "name": "Interforum S.A."}, {"id": "2648", "name": "Strategir"}, {"id": "2649", "name": "UFF"}, {"id": "2650", "name": "pyramide-conseils.fr"}, {"id": "2651", "name": "shell"}, {"id": "2652", "name": "HKA"}, {"id": "2653", "name": "Freshpigment"}, {"id": "2654", "name": "Jobmania"}, {"id": "2655", "name": "CREDIT AGRICOLE"}, {"id": "2656", "name": "Deutsche Telekom"}, {"id": "2657", "name": "Ozitem"}, {"id": "2658", "name": "Reezocar"}, {"id": "2659", "name": "merlane"}, {"id": "2660", "name": "David Brown Santasalo"}, {"id": "2661", "name": "Agriconomie.com"}, {"id": "2662", "name": "Olswang"}, {"id": "2663", "name": "Enactus"}, {"id": "2664", "name": "Biogen"}, {"id": "2665", "name": "Taleo Corp."}, {"id": "2666", "name": "Rexel"}, {"id": "2667", "name": "nextProtein"}, {"id": "2668", "name": "Amatsigroup"}, {"id": "2669", "name": "Stryng (videodesk)"}, {"id": "2670", "name": "Cr\u00e9dit Agricole"}, {"id": "2671", "name": "BuyBox"}, {"id": "2672", "name": "Talentys"}, {"id": "2673", "name": "Pfeiffer Vacuum GmbH"}, {"id": "2674", "name": "itelligence"}, {"id": "2675", "name": "ADEME"}, {"id": "2676", "name": "T\u00e9l\u00e9com ParisTech"}, {"id": "2677", "name": "Babolat"}, {"id": "2678", "name": "RAJA"}, {"id": "2679", "name": "Abbeal"}, {"id": "2680", "name": "Forsee Power"}, {"id": "2681", "name": "Corallis"}, {"id": "2682", "name": "EPC FRANCE"}, {"id": "2683", "name": "Croydon Council"}, {"id": "2684", "name": "CIPHR Limited"}, {"id": "2685", "name": "PLES Convergence"}, {"id": "2686", "name": "Thermo Fisher Scientific"}, {"id": "2687", "name": "Quintiq"}, {"id": "2688", "name": "Oodrive"}, {"id": "2689", "name": "LAVOIX"}, {"id": "2690", "name": "BATEG - VINCI Construction France"}, {"id": "2691", "name": "GROUPE ADF"}, {"id": "2692", "name": "Mappy"}, {"id": "2693", "name": "X-treme Video"}, {"id": "2694", "name": "French National Institute for Agricultural Research"}, {"id": "2695", "name": "Mairie de Paris"}, {"id": "2696", "name": "OpenClassrooms"}, {"id": "2697", "name": "Vinci Construction"}, {"id": "2698", "name": "Brocelia"}, {"id": "2699", "name": "FullSIX"}, {"id": "2700", "name": "Netscout"}], "page": 27, "has_more": true, "count": 8677}