{"results": [{"id": "1401", "name": "Synthesio"}, {"id": "1402", "name": "SQS"}, {"id": "1403", "name": "4 people"}, {"id": "1404", "name": "Solly Azar Assurances"}, {"id": "1405", "name": "Aimia Inc."}, {"id": "1406", "name": "Gide Loyrette Nouel"}, {"id": "1407", "name": "GeoPost Group"}, {"id": "1408", "name": "UBP - Union Bancaire Priv\u00e9e"}, {"id": "1409", "name": "Psa Peugeot Citroen"}, {"id": "1410", "name": "Cromwell Group (Holdings) Ltd"}, {"id": "1411", "name": "AREVA NC"}, {"id": "1412", "name": "AFORMAC"}, {"id": "1413", "name": "ENA Care Group Ltd."}, {"id": "1414", "name": "Owlient (Groupe Ubisoft)"}, {"id": "1415", "name": "OLIVERWYMAN"}, {"id": "1416", "name": "FRANCETV"}, {"id": "1417", "name": "Narvar"}, {"id": "1418", "name": "Meetic"}, {"id": "1419", "name": "ISC Paris"}, {"id": "1420", "name": "David InterContinental Tel Aviv"}, {"id": "1421", "name": "Lebara"}, {"id": "1422", "name": "psgdover"}, {"id": "1423", "name": "Fives"}, {"id": "1424", "name": "Carrefour"}, {"id": "1425", "name": "Forsitec-Cisif"}, {"id": "1426", "name": "DOMITYS"}, {"id": "1427", "name": "fusion-interim.fr"}, {"id": "1428", "name": "Mobiyo"}, {"id": "1429", "name": "Reseau Def"}, {"id": "1430", "name": "Plan International Uk"}, {"id": "1431", "name": "Toit et Joie"}, {"id": "1432", "name": "Villeroy & Boch"}, {"id": "1433", "name": "Adloox"}, {"id": "1434", "name": "Newell Brands"}, {"id": "1435", "name": "JPB SYSTEME"}, {"id": "1436", "name": "The Hut Group"}, {"id": "1437", "name": "tui france"}, {"id": "1438", "name": "MASTERS CONSULTANTS"}, {"id": "1439", "name": "Cowboy"}, {"id": "1440", "name": "Cr\u00e9dit Agricole Centre France"}, {"id": "1441", "name": "CCIMarseilleProvence"}, {"id": "1442", "name": "isatech"}, {"id": "1443", "name": "PRYNCEPS"}, {"id": "1444", "name": "D\u00e9partement du Calvados"}, {"id": "1445", "name": "FAB-Group"}, {"id": "1446", "name": "Cegid"}, {"id": "1447", "name": "Lagard\u00e8re Travel Retail"}, {"id": "1448", "name": "KPMG Poland"}, {"id": "1449", "name": "Hutten"}, {"id": "1450", "name": "The IC Space"}, {"id": "1451", "name": "Atom bank"}, {"id": "1452", "name": "Schindler"}, {"id": "1453", "name": "Caf\u00e9 de l'Homme"}, {"id": "1454", "name": "Octo  Finances"}, {"id": "1455", "name": "La Marque U"}, {"id": "1456", "name": "Paddle"}, {"id": "1457", "name": "Lucid"}, {"id": "1458", "name": "simplon.co"}, {"id": "1459", "name": "AXA"}, {"id": "1460", "name": "CMR Group"}, {"id": "1461", "name": "ORCOM"}, {"id": "1462", "name": "Eram"}, {"id": "1463", "name": "Chimex"}, {"id": "1464", "name": "GROUPE AGIR \u00e0 dom "}, {"id": "1465", "name": "PACK Solutions"}, {"id": "1466", "name": "Val-de-Marne"}, {"id": "1467", "name": "DECATHLON"}, {"id": "1468", "name": "Brighton i360 Ltd"}, {"id": "1469", "name": "Aubade Paris"}, {"id": "1470", "name": "Cr\u00e9dit Mutuel Nord Europe"}, {"id": "1471", "name": "Clouder"}, {"id": "1472", "name": "Cr\u00e9dit Agricole du Finist\u00e8re"}, {"id": "1473", "name": "Evok H\u00f4tels Collection"}, {"id": "1474", "name": "Mismo Informatique"}, {"id": "1475", "name": "groupeadequat.net"}, {"id": "1476", "name": "Otto Group"}, {"id": "1477", "name": "Sinteo"}, {"id": "1478", "name": "DESK Paris devient KODEN"}, {"id": "1479", "name": "Jet2.com"}, {"id": "1480", "name": "MCG Managers"}, {"id": "1481", "name": "Leroy Merlin"}, {"id": "1482", "name": "Kynapse"}, {"id": "1483", "name": "Renault Trucks"}, {"id": "1484", "name": "StoriesOut"}, {"id": "1485", "name": "E.Leclerc"}, {"id": "1486", "name": "Persuaders RH"}, {"id": "1487", "name": "SOMEFLU - Corrosion resistant centrifugal pumps"}, {"id": "1488", "name": "Outfittery"}, {"id": "1489", "name": "FAMOCO"}, {"id": "1490", "name": "Side"}, {"id": "1491", "name": "CSTB"}, {"id": "1492", "name": "Dejbox"}, {"id": "1493", "name": "TMP Worldwide"}, {"id": "1494", "name": "Aparthotels Adagio"}, {"id": "1495", "name": "BDOM"}, {"id": "1496", "name": "Northumberland College"}, {"id": "1497", "name": "Wizaplace"}, {"id": "1498", "name": "Uber"}, {"id": "1499", "name": "Aigle Azur"}, {"id": "1500", "name": "KONE"}], "page": 15, "has_more": true, "count": 8677}