{"results": [{"id": "6701", "name": "Orkeis"}, {"id": "6702", "name": "Lalique"}, {"id": "6703", "name": "Intercom, Inc."}, {"id": "6704", "name": "Soufflet Group"}, {"id": "6705", "name": "FATTON"}, {"id": "6706", "name": "Amphenol Socapex"}, {"id": "6707", "name": "Transports Caillot"}, {"id": "6708", "name": "CHEVAL FRERES"}, {"id": "6709", "name": "KIMO"}, {"id": "6710", "name": "Birdz"}, {"id": "6711", "name": "Apsia"}, {"id": "6712", "name": "Vapiano"}, {"id": "6713", "name": "Roquette"}, {"id": "6714", "name": "Castorama"}, {"id": "6715", "name": "poltronesof\u00e0"}, {"id": "6716", "name": "Dalloz Creations"}, {"id": "6717", "name": "IDC"}, {"id": "6718", "name": "Hussor"}, {"id": "6719", "name": "St Michel"}, {"id": "6720", "name": "Haute Autorit\u00e9 de Sant\u00e9"}, {"id": "6721", "name": "LogemLoiret"}, {"id": "6722", "name": "Alfa3a"}, {"id": "6723", "name": "Predictis"}, {"id": "6724", "name": "Groupe Brangeon"}, {"id": "6725", "name": "Peaks"}, {"id": "6726", "name": "Bjorg Bonneterre et Compagnie"}, {"id": "6727", "name": "Sofyne"}, {"id": "6728", "name": "Jahia"}, {"id": "6729", "name": "Firalp"}, {"id": "6730", "name": "Go Sport France"}, {"id": "6731", "name": "Logteam"}, {"id": "6732", "name": "Helvetia France"}, {"id": "6733", "name": "Groupe le du"}, {"id": "6734", "name": "Ozitem"}, {"id": "6735", "name": "OFI ASSET MANAGEMENT"}, {"id": "6736", "name": "Vulcain Ing\u00e9nierie"}, {"id": "6737", "name": "Mention"}, {"id": "6738", "name": "Hub One"}, {"id": "6739", "name": "ComptaCom"}, {"id": "6740", "name": "Too Good To Go FR"}, {"id": "6741", "name": "Fraikin"}, {"id": "6742", "name": "Sixth June"}, {"id": "6743", "name": "Daunat"}, {"id": "6744", "name": "CANDIA (Coop\u00e9rative Sodiaal)"}, {"id": "6745", "name": "RIOU Glass"}, {"id": "6746", "name": "1Stdibs.com"}, {"id": "6747", "name": "Soci\u00e9t\u00e9 G\u00e9n\u00e9rale"}, {"id": "6748", "name": "BNP PARIBAS REAL ESTATE"}, {"id": "6749", "name": "SWISS LIFE FRANCE"}, {"id": "6750", "name": "MARSH"}, {"id": "6751", "name": "AVIVA"}, {"id": "6752", "name": "GROUPE ADP"}, {"id": "6753", "name": "AG2R"}, {"id": "6754", "name": "GROUPAMA"}, {"id": "6755", "name": "VEOLIA FRANCE"}, {"id": "6756", "name": "CAISSE D'EPARGNE NORMANDIE"}, {"id": "6757", "name": "LACTALIS GROUP"}, {"id": "6758", "name": "AIR FRANCE INDUSTRIES"}, {"id": "6759", "name": "INGENICO GROUP"}, {"id": "6760", "name": "GROUPE PSA"}, {"id": "6761", "name": "CR\u00c9DIT AGRICOLE"}, {"id": "6762", "name": "VINCI CONSTRUCTION"}, {"id": "6763", "name": "CELIO"}, {"id": "6764", "name": "BNP PARIBAS SUISSE"}, {"id": "6765", "name": "KIABI"}, {"id": "6766", "name": "NEXITY"}, {"id": "6767", "name": "LEROY MERLIN"}, {"id": "6768", "name": "SCHMIDT GROUPE"}, {"id": "6769", "name": "cr\u00e9dit-agricole-charente-maritime-deux-s\u00e8vres"}, {"id": "6770", "name": "Zurich"}, {"id": "6771", "name": "LOUIS VUITTON"}, {"id": "6772", "name": "BNPP Personal finance"}, {"id": "6773", "name": "APICIL"}, {"id": "6774", "name": "Margo"}, {"id": "6775", "name": "BNP PARIBAS CARDIF"}, {"id": "6776", "name": "BONDUELLE"}, {"id": "6777", "name": "FLUNCH"}, {"id": "6778", "name": "ADIDAS FRANCE SARL"}, {"id": "6779", "name": "CHANEL"}, {"id": "6780", "name": "INSERM"}, {"id": "6781", "name": "Societe G\u00e9n\u00e9rale UK"}, {"id": "6782", "name": "Mango"}, {"id": "6783", "name": "WAVESTONE"}, {"id": "6784", "name": "FONCIA"}, {"id": "6785", "name": "UNIBAIL-RODAMCO-WESTFIELD"}, {"id": "6786", "name": "QUATREM"}, {"id": "6787", "name": "Philip Morris International"}, {"id": "6788", "name": "Randstad"}, {"id": "6789", "name": "MY CONNECTING"}, {"id": "6790", "name": "IN EXTENSO"}, {"id": "6791", "name": "BANQUE POPULAIRE"}, {"id": "6792", "name": "LVMH"}, {"id": "6793", "name": "CR\u00c9DIT AGRICOLE ASSURANCES"}, {"id": "6794", "name": "Coty Inc."}, {"id": "6795", "name": "L'OR\u00c9AL"}, {"id": "6796", "name": "KPMG FRANCE"}, {"id": "6797", "name": "SIEMENS BT"}, {"id": "6798", "name": "CR\u00c9DIT AGRICOLE LOIRE HAUTE LOIRE"}, {"id": "6799", "name": "UNIVERSIT\u00c9 DE GEN\u00c8VE"}, {"id": "6800", "name": "CIGAC"}], "page": 68, "has_more": true, "count": 8677}