{"results": [{"id": "5201", "name": "Intercom, Inc."}, {"id": "5202", "name": "OCP SA"}, {"id": "5203", "name": "TOTAL SA"}, {"id": "5204", "name": "postnl"}, {"id": "5205", "name": "Labonal"}, {"id": "5206", "name": "Flatchr"}, {"id": "5207", "name": "amec foster wheeler"}, {"id": "5208", "name": "Rizing"}, {"id": "5209", "name": "Aspire"}, {"id": "5210", "name": "INRIA - Institut National de Recherche en Informatique et en Automatique"}, {"id": "5211", "name": "SD Worx"}, {"id": "5212", "name": "Cemex"}, {"id": "5213", "name": "MEDIAPOST"}, {"id": "5214", "name": "Undiz"}, {"id": "5215", "name": "South Place Hotel"}, {"id": "5216", "name": "Cr\u00e9dit Agricole Loire Haute-Loire"}, {"id": "5217", "name": "OpenSourcing"}, {"id": "5218", "name": "citycruises"}, {"id": "5219", "name": "Conseil R\u00e9gional Languedoc Roussillon"}, {"id": "5220", "name": "Sunderland College"}, {"id": "5221", "name": "P\u00f4le Emploi 88"}, {"id": "5222", "name": "NEOMA BUSINESS SCHOOL"}, {"id": "5223", "name": "Hickory's Smokehouse"}, {"id": "5224", "name": "Taboola"}, {"id": "5225", "name": "KAM RH"}, {"id": "5226", "name": "primark"}, {"id": "5227", "name": "CSC"}, {"id": "5228", "name": "CA Normandie"}, {"id": "5229", "name": "Le Monde Apr\u00e8s"}, {"id": "5230", "name": "StaffPoint"}, {"id": "5231", "name": "Eiffage"}, {"id": "5232", "name": "CAISSE D'EPARGNE"}, {"id": "5233", "name": "Peakon"}, {"id": "5234", "name": "DECOCERAM"}, {"id": "5235", "name": "London Business School"}, {"id": "5236", "name": "Phildar"}, {"id": "5237", "name": "VEHCO AB"}, {"id": "5238", "name": "LA RESERVE PARIS HOTEL & SPA"}, {"id": "5239", "name": "Lotus Bakeries"}, {"id": "5240", "name": "Kelly Ltd"}, {"id": "5241", "name": "ABC SYSTEMES"}, {"id": "5242", "name": "The Rooflight Company"}, {"id": "5243", "name": "Cache Cache"}, {"id": "5244", "name": "Ebiquity Plc"}, {"id": "5245", "name": "Chr"}, {"id": "5246", "name": "JM Bruneau SA"}, {"id": "5247", "name": "Linc Cymru"}, {"id": "5248", "name": "R-kioski Oy"}, {"id": "5249", "name": "GOV.UK"}, {"id": "5250", "name": "SPC CONSULTANTS"}, {"id": "5251", "name": "Banque Populaire"}, {"id": "5252", "name": "M\u00c9TROPOLE EUROP\u00c9ENNE DE LILLE"}, {"id": "5253", "name": "ICF"}, {"id": "5254", "name": "AUCHAN FRANCE"}, {"id": "5255", "name": "Rexel Germany"}, {"id": "5256", "name": "grenoble-habitat.fr"}, {"id": "5257", "name": "AXEREAL"}, {"id": "5258", "name": "Big Lottery Fund"}, {"id": "5259", "name": "Wabtec Corp."}, {"id": "5260", "name": "Bupa"}, {"id": "5261", "name": "Dejbox"}, {"id": "5262", "name": "VINCI Immobilier"}, {"id": "5263", "name": "Minitubes SA"}, {"id": "5264", "name": "TERRENA"}, {"id": "5265", "name": "JADE SERVICES"}, {"id": "5266", "name": "Transatel"}, {"id": "5267", "name": "ECONOCOM"}, {"id": "5268", "name": "Groupe Fed"}, {"id": "5269", "name": "Acast"}, {"id": "5270", "name": "SimCorp"}, {"id": "5271", "name": "relais-accueil.org"}, {"id": "5272", "name": "CARMEUSE"}, {"id": "5273", "name": "HARLEY-DAVIDSON"}, {"id": "5274", "name": "INTERSEARCH France"}, {"id": "5275", "name": "Schlumberger"}, {"id": "5276", "name": "Medelse"}, {"id": "5277", "name": "Pivotal Software"}, {"id": "5278", "name": "Ritz-Carlton Montreal"}, {"id": "5279", "name": "Ixapack Global"}, {"id": "5280", "name": "SACI Industries"}, {"id": "5281", "name": "Azenco Groupe"}, {"id": "5282", "name": "Flatchr"}, {"id": "5283", "name": "Contentsquare"}, {"id": "5284", "name": "eFounders"}, {"id": "5285", "name": "Worldia"}, {"id": "5286", "name": "Spendesk"}, {"id": "5287", "name": "InVision"}, {"id": "5288", "name": "Lydia"}, {"id": "5289", "name": "Golden Bees"}, {"id": "5290", "name": "Partech Ventures"}, {"id": "5291", "name": "Sharethrough Inc."}, {"id": "5292", "name": "WeScale"}, {"id": "5293", "name": "HubSpot"}, {"id": "5294", "name": "booxup"}, {"id": "5295", "name": "Audacy\u2728Designers d'innovations digitales"}, {"id": "5296", "name": "Intercom, Inc."}, {"id": "5297", "name": "ManoMano"}, {"id": "5298", "name": "Axioma"}, {"id": "5299", "name": "Wedoogift"}, {"id": "5300", "name": "AXA"}], "page": 53, "has_more": true, "count": 8677}