{"results": [{"id": "1801", "name": "Rogers Capital"}, {"id": "1802", "name": "Keria Luminaires"}, {"id": "1803", "name": "Groupe Ad\u00e9quat"}, {"id": "1804", "name": "Descours & Cabaud"}, {"id": "1805", "name": "SOS Oxygene"}, {"id": "1806", "name": "CHANTAL BAUDRON SAS"}, {"id": "1807", "name": "Perform Group"}, {"id": "1808", "name": "Cuisine Plus"}, {"id": "1809", "name": "ARTERRIS"}, {"id": "1810", "name": "Dell EMC ScaleIO"}, {"id": "1811", "name": "Groupama immobilier"}, {"id": "1812", "name": "Regus"}, {"id": "1813", "name": "ALGAIA"}, {"id": "1814", "name": "Bcha"}, {"id": "1815", "name": "Uniformation"}, {"id": "1816", "name": "Urban Massage"}, {"id": "1817", "name": "Nexter Group"}, {"id": "1818", "name": "ESSEC Business School"}, {"id": "1819", "name": "Dhatim"}, {"id": "1820", "name": "Mazeberry"}, {"id": "1821", "name": "The Binding Site"}, {"id": "1822", "name": "OVH"}, {"id": "1823", "name": "Addict Mobile"}, {"id": "1824", "name": "Vivarte"}, {"id": "1825", "name": "AP-HP"}, {"id": "1826", "name": "MAN Truck and Bus"}, {"id": "1827", "name": "IFOP"}, {"id": "1828", "name": "ANOTECH ENERGY"}, {"id": "1829", "name": "OVH LTD"}, {"id": "1830", "name": "Galibelum"}, {"id": "1831", "name": "Banque Populaire"}, {"id": "1832", "name": "DARVA"}, {"id": "1833", "name": "Banque Priv\u00e9e Espirito Santo SA"}, {"id": "1834", "name": "Waterman Aspen"}, {"id": "1835", "name": "EIGHT ADVISORY"}, {"id": "1836", "name": "Co-op"}, {"id": "1837", "name": "Cov\u00e9a"}, {"id": "1838", "name": "Actemium Nederland"}, {"id": "1839", "name": "Le Point"}, {"id": "1840", "name": "Capio France"}, {"id": "1841", "name": "Valora Holding AG"}, {"id": "1842", "name": "Phone R\u00e9gie"}, {"id": "1843", "name": "GAC Group (France)"}, {"id": "1844", "name": "Voyages-sncf.com"}, {"id": "1845", "name": "International Marine Services (IMS)"}, {"id": "1846", "name": "Caramail S.A."}, {"id": "1847", "name": "OVH LTD"}, {"id": "1848", "name": "OVH LTD"}, {"id": "1849", "name": "De Montfort University (DMU)"}, {"id": "1850", "name": "Bpifrance"}, {"id": "1851", "name": "Carrefour Property"}, {"id": "1852", "name": "University of Perpignan, France"}, {"id": "1853", "name": "Cavotec"}, {"id": "1854", "name": "Axione"}, {"id": "1855", "name": "Bimba Y Lola"}, {"id": "1856", "name": "Factiva"}, {"id": "1857", "name": "Cedexis"}, {"id": "1858", "name": "Leo Burnett S.A."}, {"id": "1859", "name": "ATOL SA"}, {"id": "1860", "name": "Groupon"}, {"id": "1861", "name": "gapas.org"}, {"id": "1862", "name": "ALTAVIA"}, {"id": "1863", "name": "Phoenix Contact"}, {"id": "1864", "name": "NTT SECURITY"}, {"id": "1865", "name": "Groupe MTA"}, {"id": "1866", "name": "Orlane"}, {"id": "1867", "name": "Audiens"}, {"id": "1868", "name": "Engie"}, {"id": "1869", "name": "OFAJ/DFJW"}, {"id": "1870", "name": "WW International, Inc."}, {"id": "1871", "name": "Wesleyan"}, {"id": "1872", "name": "Development Dimensions International"}, {"id": "1873", "name": "Frazer Jones"}, {"id": "1874", "name": "L'Or\u00e9al"}, {"id": "1875", "name": "ifpa-formation.com"}, {"id": "1876", "name": "QinetiQ"}, {"id": "1877", "name": "addmedica"}, {"id": "1878", "name": "Real Staffing"}, {"id": "1879", "name": "Linkt"}, {"id": "1880", "name": "Credit Agricole Du Centre Ouest"}, {"id": "1881", "name": "SaleCycle"}, {"id": "1882", "name": "S&P GLOBAL LTD."}, {"id": "1883", "name": "Bureau Veritas"}, {"id": "1884", "name": "Production Resource Group"}, {"id": "1885", "name": "DeVinci Fablab"}, {"id": "1886", "name": "PRO BTP Groupe"}, {"id": "1887", "name": "PALO IT"}, {"id": "1888", "name": "Inditex"}, {"id": "1889", "name": "Cleany"}, {"id": "1890", "name": "GROUPAMA"}, {"id": "1891", "name": "WeWork"}, {"id": "1892", "name": "leaderstrip.fr"}, {"id": "1893", "name": "SHEPHERD NEAME LTD."}, {"id": "1894", "name": "Handicap International"}, {"id": "1895", "name": "Alcatel-Lucent Enterprise"}, {"id": "1896", "name": "Bayard Presse SA"}, {"id": "1897", "name": "RATP"}, {"id": "1898", "name": "Retail Shop"}, {"id": "1899", "name": "Malherbe Paris"}, {"id": "1900", "name": "INEAT Group"}], "page": 19, "has_more": true, "count": 8677}