{"results": [{"id": "4001", "name": "Cr\u00e9dit Agricole Aquitaine"}, {"id": "4002", "name": "Viamedis"}, {"id": "4003", "name": "LeasePlan france"}, {"id": "4004", "name": "Netfective Technology"}, {"id": "4005", "name": "Hopps Group"}, {"id": "4006", "name": "Kaliop Interactive Media"}, {"id": "4007", "name": "BNP Paribas REIM"}, {"id": "4008", "name": "Keyrus management"}, {"id": "4009", "name": "smabtp"}, {"id": "4010", "name": "Inbenta"}, {"id": "4011", "name": "BNP Paribas Leasing Solutions"}, {"id": "4012", "name": "Covidien"}, {"id": "4013", "name": "Atalian"}, {"id": "4014", "name": "Gan Patrimoine"}, {"id": "4015", "name": "Edifixio"}, {"id": "4016", "name": "Mutex"}, {"id": "4017", "name": "Daytona"}, {"id": "4018", "name": "Isg"}, {"id": "4019", "name": "Bilendi"}, {"id": "4020", "name": "VENTE-UNIQUE.COM"}, {"id": "4021", "name": "Hitachi Vantara France"}, {"id": "4022", "name": "Maison kitsune"}, {"id": "4023", "name": "effektiv-rh"}, {"id": "4024", "name": "CLEVEOR"}, {"id": "4025", "name": "Etam"}, {"id": "4026", "name": "Cr\u00e9dit Agricole Alpes Provence"}, {"id": "4027", "name": "Sighor"}, {"id": "4028", "name": "Kedge business school"}, {"id": "4029", "name": "Attijariwafa Bank Europe"}, {"id": "4030", "name": "Forcity"}, {"id": "4031", "name": "Echosens"}, {"id": "4032", "name": "Aso"}, {"id": "4033", "name": "In Extenso"}, {"id": "4034", "name": "Early Stage"}, {"id": "4035", "name": "Huxley Banking & Financial Services"}, {"id": "4036", "name": "Metso"}, {"id": "4037", "name": "EMBISPHERE"}, {"id": "4038", "name": "Laboratoires Mundipharma"}, {"id": "4039", "name": "CMA CGM"}, {"id": "4040", "name": "Slimpay"}, {"id": "4041", "name": "CMD"}, {"id": "4042", "name": "Lagard\u00e8re Travel Retail"}, {"id": "4043", "name": "DS AVOCAT"}, {"id": "4044", "name": "Arte"}, {"id": "4045", "name": "AlixPartners"}, {"id": "4046", "name": "Minist\u00e8re de l'Europe et des Affaires \u00e9trang\u00e8res"}, {"id": "4047", "name": "Iguanesolutions"}, {"id": "4048", "name": "Afec"}, {"id": "4049", "name": "Europhone"}, {"id": "4050", "name": "Kylia-Immo"}, {"id": "4051", "name": "l'acc\u00e9l\u00e9rateur"}, {"id": "4052", "name": "Cis-Catering"}, {"id": "4053", "name": "Day Use"}, {"id": "4054", "name": "Experteam Corp"}, {"id": "4055", "name": "Institut Laue Langevin"}, {"id": "4056", "name": "HelloWork"}, {"id": "4057", "name": "Altereo"}, {"id": "4058", "name": "Insep"}, {"id": "4059", "name": "Norton Rose Fulbright"}, {"id": "4060", "name": "ATECNA"}, {"id": "4061", "name": "Monsanto company"}, {"id": "4062", "name": "General Mills"}, {"id": "4063", "name": "D2SI"}, {"id": "4064", "name": "Voyages SNCF"}, {"id": "4065", "name": "Norgine Pharma"}, {"id": "4066", "name": "Kion Group"}, {"id": "4067", "name": "Axess Groupe"}, {"id": "4068", "name": "France 5"}, {"id": "4069", "name": "Ligatus"}, {"id": "4070", "name": "Aperam Alloys"}, {"id": "4071", "name": "Didier Guerin Sas"}, {"id": "4072", "name": "ESCE"}, {"id": "4073", "name": "Octapharma"}, {"id": "4074", "name": "Lactalis nestle ultra frais"}, {"id": "4075", "name": "FRANCAISE DES JEUX"}, {"id": "4076", "name": "CONTENTIA"}, {"id": "4077", "name": "Carglass"}, {"id": "4078", "name": "Stx Europe"}, {"id": "4079", "name": "Bombardier"}, {"id": "4080", "name": "Flightsafety"}, {"id": "4081", "name": "Fticonsulting"}, {"id": "4082", "name": "Altrad"}, {"id": "4083", "name": "AXA"}, {"id": "4084", "name": "Outscale"}, {"id": "4085", "name": "Comit\u00e9o"}, {"id": "4086", "name": "Seekube"}, {"id": "4087", "name": "Faculte des metiers de l'essonne"}, {"id": "4088", "name": "Pulsalys"}, {"id": "4089", "name": "Savills"}, {"id": "4090", "name": "DSO Interactive"}, {"id": "4091", "name": "Jean-Delatour"}, {"id": "4092", "name": "B&B Hotel"}, {"id": "4093", "name": "Cr\u00e9dit Agricole"}, {"id": "4094", "name": "Banque Populaire Rives De Paris"}, {"id": "4095", "name": "QUICK"}, {"id": "4096", "name": "Avisia"}, {"id": "4097", "name": "Dupont restauration"}, {"id": "4098", "name": "Bouygues Telecom"}, {"id": "4099", "name": "Ulule"}, {"id": "4100", "name": "Nexter Group"}], "page": 41, "has_more": true, "count": 8677}