{"results": [{"id": "5701", "name": "ASICS America Corporation"}, {"id": "5702", "name": "Carrefour Belgium"}, {"id": "5703", "name": "comma"}, {"id": "5704", "name": "Splio Spain"}, {"id": "5705", "name": "Akeneo"}, {"id": "5706", "name": "La Halle"}, {"id": "5707", "name": "Deichmann UK"}, {"id": "5708", "name": "Agent Provocateur"}, {"id": "5709", "name": "Johnson & Johnson Services, Inc."}, {"id": "5710", "name": "Orange"}, {"id": "5711", "name": "Caisse d'Epargne Midi Pyr\u00e9n\u00e9es"}, {"id": "5712", "name": "Lacoste Retail Germany GmbH"}, {"id": "5713", "name": "Le Bon March\u00e9 Rive Gauche"}, {"id": "5714", "name": "afrimarketgroup.com"}, {"id": "5715", "name": "Brasseries Kronenbourg"}, {"id": "5716", "name": "SCC"}, {"id": "5717", "name": "MACSF"}, {"id": "5718", "name": "EXPLORE"}, {"id": "5719", "name": "B\u00c9ABA"}, {"id": "5720", "name": "Captain Contrat"}, {"id": "5721", "name": "Orsay GmbH"}, {"id": "5722", "name": "MAKE UP FOR EVER"}, {"id": "5723", "name": "Mercedes Benz Retail UK"}, {"id": "5724", "name": "CREDIT AGRICOLE TOULOUSE 31"}, {"id": "5725", "name": "Carrefour France"}, {"id": "5726", "name": "Eni GERMANY"}, {"id": "5727", "name": "Cr\u00e9dit Agricole International"}, {"id": "5728", "name": "Chronopost"}, {"id": "5729", "name": "CNP Assurances"}, {"id": "5730", "name": "ECF"}, {"id": "5731", "name": "M comme mutuelle"}, {"id": "5732", "name": "Sushi Shop"}, {"id": "5733", "name": "ERAL"}, {"id": "5734", "name": "Gartner, Inc."}, {"id": "5735", "name": "ASSU2000"}, {"id": "5736", "name": "Outbrain Inc."}, {"id": "5737", "name": "BNP Paribas Corporate Services"}, {"id": "5738", "name": "TAG Heuer"}, {"id": "5739", "name": "Demeco SA"}, {"id": "5740", "name": "Direct Energie"}, {"id": "5741", "name": "Sunrise Communications AG"}, {"id": "5742", "name": "Orange"}, {"id": "5743", "name": "OVH LTD"}, {"id": "5744", "name": "Salomon"}, {"id": "5745", "name": "Groupe PSA"}, {"id": "5746", "name": "Carrefour Voyages"}, {"id": "5747", "name": "Darty"}, {"id": "5748", "name": "TRIGANO Jardin"}, {"id": "5749", "name": "AAA DATA"}, {"id": "5750", "name": "Elbee"}, {"id": "5751", "name": "La Ruche qui dit Oui"}, {"id": "5752", "name": "Hubspot, Inc."}, {"id": "5753", "name": "Kantar Media"}, {"id": "5754", "name": "Garage Lalieux, Lalieux J."}, {"id": "5755", "name": "Digitick"}, {"id": "5756", "name": "Agendize"}, {"id": "5757", "name": "AXA Group"}, {"id": "5758", "name": "Herm\u00e8s"}, {"id": "5759", "name": "Orange Business Services UK"}, {"id": "5760", "name": "scaouest"}, {"id": "5761", "name": "Verspieren"}, {"id": "5762", "name": "MapR Technologies"}, {"id": "5763", "name": "OVH LTD"}, {"id": "5764", "name": "TOUTADOM Groupe Star's Service"}, {"id": "5765", "name": "Zapa, S.A."}, {"id": "5766", "name": "Groupe Le Duff"}, {"id": "5767", "name": "Havas media group"}, {"id": "5768", "name": "Meetic Group"}, {"id": "5769", "name": "H & M France"}, {"id": "5770", "name": "Porsche"}, {"id": "5771", "name": "Kingfisher PLC"}, {"id": "5772", "name": "Adopt'"}, {"id": "5773", "name": "Aviva France"}, {"id": "5774", "name": "DEVIALET"}, {"id": "5775", "name": "Barclays"}, {"id": "5776", "name": "Optical Center"}, {"id": "5777", "name": "Salamander"}, {"id": "5778", "name": "Oscaro"}, {"id": "5779", "name": "Publishing Factory SA"}, {"id": "5780", "name": "Swatch Group France"}, {"id": "5781", "name": "Gfi Informatique"}, {"id": "5782", "name": "Sofrecom"}, {"id": "5783", "name": "SURICATS Consulting"}, {"id": "5784", "name": "L'Express"}, {"id": "5785", "name": "Immochan International S.A.S."}, {"id": "5786", "name": "Euralis"}, {"id": "5787", "name": "Wel com"}, {"id": "5788", "name": "Business france"}, {"id": "5789", "name": "Banque Populaire Auvergne Rhone Alpes"}, {"id": "5790", "name": "Sidel"}, {"id": "5791", "name": "L'Etudiant"}, {"id": "5792", "name": "Centrakor"}, {"id": "5793", "name": "ARTEFACT"}, {"id": "5794", "name": "Electrolux"}, {"id": "5795", "name": "Kronenbourg"}, {"id": "5796", "name": "sacem"}, {"id": "5797", "name": "nomade-com.fr"}, {"id": "5798", "name": "Colissimo - La Poste"}, {"id": "5799", "name": "Proximus plc"}, {"id": "5800", "name": "Emma & Chlo\u00e9"}], "page": 58, "has_more": true, "count": 8677}