{"results": [{"id": "8201", "name": "BELAMBRA"}, {"id": "8202", "name": "Servicios Financieros Carrefour"}, {"id": "8203", "name": "Dassault Syst\u00e8mes"}, {"id": "8204", "name": "DEVIALET"}, {"id": "8205", "name": "SNCF MOBILITES"}, {"id": "8206", "name": "VOYAGE PRIV\u00c9"}, {"id": "8207", "name": "NEXTRADIOTV"}, {"id": "8208", "name": "ORANGE"}, {"id": "8209", "name": "ERIC BOMPARD"}, {"id": "8210", "name": "BNP PARIBAS"}, {"id": "8211", "name": "THALES"}, {"id": "8212", "name": "Ubisoft"}, {"id": "8213", "name": "El Corte Ingl\u00e9s"}, {"id": "8214", "name": "AIR LIQUIDE"}, {"id": "8215", "name": "PICWIC"}, {"id": "8216", "name": "Airbus"}, {"id": "8217", "name": "GOOGLE FRANCE"}, {"id": "8218", "name": "CEMOI"}, {"id": "8219", "name": "SNCF"}, {"id": "8220", "name": "SOLOCAL GROUP"}, {"id": "8221", "name": "MACIF"}, {"id": "8222", "name": "GROUPE ERAM"}, {"id": "8223", "name": "Bimba Y Lola"}, {"id": "8224", "name": "LACOSTE"}, {"id": "8225", "name": "NOCIB\u00c9"}, {"id": "8226", "name": "ENGIE"}, {"id": "8227", "name": "ONEY BANK"}, {"id": "8228", "name": "Groupe Pvcp - Pierre & Vacances - Center Parcs"}, {"id": "8229", "name": "LVMH HOTEL MANAGEMENT"}, {"id": "8230", "name": "CGI FRANCE"}, {"id": "8231", "name": "BNP Paribas - BDDF (ma Banque)"}, {"id": "8232", "name": "Ouest France Multimedia"}, {"id": "8233", "name": "TOP OFFICE"}, {"id": "8234", "name": "L'OR\u00c9AL"}, {"id": "8235", "name": "CASTORAMA"}, {"id": "8236", "name": "LVMH"}, {"id": "8237", "name": "Jaguar Land Rover AT"}, {"id": "8238", "name": "AXA"}, {"id": "8239", "name": "GROUPE BPCE"}, {"id": "8240", "name": "GROUPE RICHEMONT"}, {"id": "8241", "name": "Made.Com"}, {"id": "8242", "name": "ACCORHOTELS"}, {"id": "8243", "name": "IRSEA"}, {"id": "8244", "name": "LEBONCOIN"}, {"id": "8245", "name": "RAKUTEN"}, {"id": "8246", "name": "Inditex"}, {"id": "8247", "name": "Groupe Total"}, {"id": "8248", "name": "GOOGLE FRANCE"}, {"id": "8249", "name": "Pernod Ricard ES"}, {"id": "8250", "name": "Meilleurs Agents"}, {"id": "8251", "name": "AG2R LA MONDIALE"}, {"id": "8252", "name": "LVMH"}, {"id": "8253", "name": "AIR CORSICA"}, {"id": "8254", "name": "SNCF"}, {"id": "8255", "name": "GLOVO"}, {"id": "8256", "name": "L'OREAL PRODUITS GRAND PUBLIC"}, {"id": "8257", "name": "Groupe Seb"}, {"id": "8258", "name": "Mediarithmics"}, {"id": "8259", "name": "EDF"}, {"id": "8260", "name": "L'OR\u00c9AL"}, {"id": "8261", "name": "MACIF AVANTAGES"}, {"id": "8262", "name": "DISNEYLAND PARIS"}, {"id": "8263", "name": "NATIXIS"}, {"id": "8264", "name": "SFR - ALTICE"}, {"id": "8265", "name": "Pepsico"}, {"id": "8266", "name": "SWISS LIFE"}, {"id": "8267", "name": "SCHNEIDER ELECTRIC"}, {"id": "8268", "name": "Reed Midem"}, {"id": "8269", "name": "ATS Euromaster"}, {"id": "8270", "name": "GROUPE BPCE"}, {"id": "8271", "name": "FORTUNEO (ARKEA DIRECT BANK)"}, {"id": "8272", "name": "Generali Pl"}, {"id": "8273", "name": "Groupe Pichet"}, {"id": "8274", "name": "BNP PARIBAS"}, {"id": "8275", "name": "Christofle France"}, {"id": "8276", "name": "RAKUTEN"}, {"id": "8277", "name": "Groupe Carrefour"}, {"id": "8278", "name": "Point P"}, {"id": "8279", "name": "Altice France"}, {"id": "8280", "name": "Genius Sports"}, {"id": "8281", "name": "Cr\u00e9dit Agricole | Centre Ouest"}, {"id": "8282", "name": "Metanext"}, {"id": "8283", "name": "Groupe RC Concept"}, {"id": "8284", "name": "DMF Recrutement"}, {"id": "8285", "name": "Minist\u00e8re de l'Int\u00e9rieur"}, {"id": "8286", "name": "NOT SHY"}, {"id": "8287", "name": "Amazon France"}, {"id": "8288", "name": "SABRE"}, {"id": "8289", "name": "Shilton"}, {"id": "8290", "name": "NEWMAN"}, {"id": "8291", "name": "Galeries Lafayette"}, {"id": "8292", "name": "indi&cold"}, {"id": "8293", "name": "GAP"}, {"id": "8294", "name": "Derhy"}, {"id": "8295", "name": "Tie Rack"}, {"id": "8296", "name": "Slowlution"}, {"id": "8297", "name": "Nature & Decouvertes"}, {"id": "8298", "name": "DUNLOPILLO"}, {"id": "8299", "name": "See u soon"}, {"id": "8300", "name": "Blanc d'ivoire / Mathilde M / Orval Cr\u00e9ations"}], "page": 83, "has_more": true, "count": 8677}