{"results": [{"id": "6501", "name": "SMOBY"}, {"id": "6502", "name": "Frans Bonhomme"}, {"id": "6503", "name": "Forch"}, {"id": "6504", "name": "CCM Benchmark"}, {"id": "6505", "name": "Korian"}, {"id": "6506", "name": "AFE (Audit Finance Expert)"}, {"id": "6507", "name": "Pro BTP Groupe"}, {"id": "6508", "name": "Groupe Marck"}, {"id": "6509", "name": "Champagne MUMM"}, {"id": "6510", "name": "H\u00f4pital de Houdan"}, {"id": "6511", "name": "Feeligo"}, {"id": "6512", "name": "VALOREM"}, {"id": "6513", "name": "AMD Consulting"}, {"id": "6514", "name": "TVH Consulting"}, {"id": "6515", "name": "Ch\u00e2teauform"}, {"id": "6516", "name": "L\u00c9A NATURE"}, {"id": "6517", "name": "Havas"}, {"id": "6518", "name": "DALLOYAU"}, {"id": "6519", "name": "STILL GmbH"}, {"id": "6520", "name": "Videlio"}, {"id": "6521", "name": "Jeff de Bruges"}, {"id": "6522", "name": "OVH LTD"}, {"id": "6523", "name": "Laboratoire Aguettant"}, {"id": "6524", "name": "APRIL"}, {"id": "6525", "name": "AB-Habitat"}, {"id": "6526", "name": "Albingia"}, {"id": "6527", "name": "Astek"}, {"id": "6528", "name": "pierre herme"}, {"id": "6529", "name": "Dunkerque Port"}, {"id": "6530", "name": "AXODYN"}, {"id": "6531", "name": "Citel"}, {"id": "6532", "name": "MGS Sales & Marketing"}, {"id": "6533", "name": "Athlon France"}, {"id": "6534", "name": "Exponens"}, {"id": "6535", "name": "Le Calvez"}, {"id": "6536", "name": "BARNES"}, {"id": "6537", "name": "LeasePlan Corporation"}, {"id": "6538", "name": "AUDIKA"}, {"id": "6539", "name": "FRAM SAS"}, {"id": "6540", "name": "Groupe BOVIS"}, {"id": "6541", "name": "Five guys"}, {"id": "6542", "name": "CMG Sports Club"}, {"id": "6543", "name": "Maisons Pierre"}, {"id": "6544", "name": "CHD Groupe"}, {"id": "6545", "name": "Study Technologies"}, {"id": "6546", "name": "Zenika"}, {"id": "6547", "name": "Rh\u00f4n'TELECOM"}, {"id": "6548", "name": "AGEFOS PME"}, {"id": "6549", "name": "CPAGE"}, {"id": "6550", "name": "Ovive"}, {"id": "6551", "name": "Central Autos"}, {"id": "6552", "name": "Adelius"}, {"id": "6553", "name": "Orange Cyberdefense"}, {"id": "6554", "name": "Aldes"}, {"id": "6555", "name": "LOUIS DREYFUS ARMATEURS"}, {"id": "6556", "name": "Artsper"}, {"id": "6557", "name": "Antartic"}, {"id": "6558", "name": "Reworld Media"}, {"id": "6559", "name": "CELAD"}, {"id": "6560", "name": "Team Inside"}, {"id": "6561", "name": "Amorino USA"}, {"id": "6562", "name": "Cr\u00e9dit Mutuel Ark\u00e9a"}, {"id": "6563", "name": "NetNames Limited"}, {"id": "6564", "name": "ATALIAN"}, {"id": "6565", "name": "Up France"}, {"id": "6566", "name": "NTICO Technology"}, {"id": "6567", "name": "Sciences Po"}, {"id": "6568", "name": "ZooParc de Beauval"}, {"id": "6569", "name": "MOZAIK RH"}, {"id": "6570", "name": "Oxatis"}, {"id": "6571", "name": "fare.asso.fr"}, {"id": "6572", "name": "ecov"}, {"id": "6573", "name": "M\u00e9dias France"}, {"id": "6574", "name": "Dalisys"}, {"id": "6575", "name": "CD SUD"}, {"id": "6576", "name": "Open"}, {"id": "6577", "name": "Lyf Pay"}, {"id": "6578", "name": "Paris 2024"}, {"id": "6579", "name": "GRAIN DE MALICE"}, {"id": "6580", "name": "Axeal Consultant"}, {"id": "6581", "name": "Groupe Atlantic"}, {"id": "6582", "name": "Ardian"}, {"id": "6583", "name": "Chaussea"}, {"id": "6584", "name": "cityone"}, {"id": "6585", "name": "Economat Des Arm\u00e9es"}, {"id": "6586", "name": "Odity"}, {"id": "6587", "name": "SFR"}, {"id": "6588", "name": "GSVI-Services VI- DAF Trucks and Used trucks all brand"}, {"id": "6589", "name": "NEURONES"}, {"id": "6590", "name": "Babilou"}, {"id": "6591", "name": "les Niveoles"}, {"id": "6592", "name": "Attila"}, {"id": "6593", "name": "Naturex"}, {"id": "6594", "name": "Devoteam"}, {"id": "6595", "name": "SELHA Group"}, {"id": "6596", "name": "Service Innovation Group"}, {"id": "6597", "name": "Airbus S.A.S."}, {"id": "6598", "name": "Fiducial"}, {"id": "6599", "name": "Nacarat"}, {"id": "6600", "name": "STEPHANE PLAZA IMMOBILIER - PARIS 5"}], "page": 66, "has_more": true, "count": 8677}