{"results": [{"id": "8001", "name": "ACCENTURE"}, {"id": "8002", "name": "Micromania"}, {"id": "8003", "name": "Amex (American Express)"}, {"id": "8004", "name": "Le T\u00e9l\u00e9gramme"}, {"id": "8005", "name": "Microsoft"}, {"id": "8006", "name": "L'Oreal ES"}, {"id": "8007", "name": "Carrefour Alimentaci\u00f3n"}, {"id": "8008", "name": "BUREAU VERITAS FRANCE"}, {"id": "8009", "name": "FIGARO MEDIAS"}, {"id": "8010", "name": "FIAT CHRYSLER AUTOMOBILES FCA"}, {"id": "8011", "name": "VOLKSWAGEN GROUP FRANCE"}, {"id": "8012", "name": "FRANCE 2"}, {"id": "8013", "name": "Oui.sncf"}, {"id": "8014", "name": "Zara.Com (Espa\u00f1a)"}, {"id": "8015", "name": "Macif Assurances Niort"}, {"id": "8016", "name": "L\u2019OREAL LUXE France"}, {"id": "8017", "name": "ACCENTURE"}, {"id": "8018", "name": "Orange Sa"}, {"id": "8019", "name": "Orange Business Services"}, {"id": "8020", "name": "TRUFFAUT"}, {"id": "8021", "name": "CORIOLIS TELECOM"}, {"id": "8022", "name": "AUCHAN RETAIL FRANCE"}, {"id": "8023", "name": "MUTUELLE G\u00c9N\u00c9RALE DE L'EDUCATION NATIONALE"}, {"id": "8024", "name": "GREENWEEZ"}, {"id": "8025", "name": "Bonpoint"}, {"id": "8026", "name": "DANONE"}, {"id": "8027", "name": "Schneider Electric"}, {"id": "8028", "name": "EL CORTE INGLES"}, {"id": "8029", "name": "Finsbury"}, {"id": "8030", "name": "LA BANQUE POSTALE"}, {"id": "8031", "name": "MICROSOFT FRANCE"}, {"id": "8032", "name": "LG ELECTRONICS ESPA\u00d1A"}, {"id": "8033", "name": "Easy Voyage"}, {"id": "8034", "name": "GRDF"}, {"id": "8035", "name": "Cartier"}, {"id": "8036", "name": "Sfr Groupe"}, {"id": "8037", "name": "LIB\u00c9RATION"}, {"id": "8038", "name": "Groupe AXA"}, {"id": "8039", "name": "LVMH HOTEL MANAGEMENT"}, {"id": "8040", "name": "Team Media"}, {"id": "8041", "name": "Wonderbox"}, {"id": "8042", "name": "PEUGEOT"}, {"id": "8043", "name": "LVMH"}, {"id": "8044", "name": "KAPTEN"}, {"id": "8045", "name": "SOCIETE GENERALE"}, {"id": "8046", "name": "La Poste"}, {"id": "8047", "name": "Rexel"}, {"id": "8048", "name": "LVMH"}, {"id": "8049", "name": "Spartoo"}, {"id": "8050", "name": "KIDILIZ GROUP"}, {"id": "8051", "name": "KINGFISHER FRANCE"}, {"id": "8052", "name": "Johnson Johnson Sante Beaute France"}, {"id": "8053", "name": "Norauto"}, {"id": "8054", "name": "GROUPE CAISSE DES D\u00c9P\u00d4TS"}, {"id": "8055", "name": "LVMH HOTEL MANAGEMENT"}, {"id": "8056", "name": "CR\u00c9DIT AGRICOLE"}, {"id": "8057", "name": "AUCHAN RETAIL FRANCE"}, {"id": "8058", "name": "Valeo"}, {"id": "8059", "name": "VAN CLEEF & ARPELS FRANCE"}, {"id": "8060", "name": "EASYVOYAGE"}, {"id": "8061", "name": "Euromaster Services Et Management"}, {"id": "8062", "name": "Banque Bcp"}, {"id": "8063", "name": "OUEST-FRANCE"}, {"id": "8064", "name": "GROUPE AXA"}, {"id": "8065", "name": "GOOGLE FRANCE"}, {"id": "8066", "name": "Np6 - Smart Cloud Marketing"}, {"id": "8067", "name": "Brandalley"}, {"id": "8068", "name": "AT INTERNET"}, {"id": "8069", "name": "GROUPE CARREFOUR"}, {"id": "8070", "name": "IKEA FRANCE"}, {"id": "8071", "name": "The Kooples"}, {"id": "8072", "name": "GROUPE FIGARO-CCM BENCHMARK"}, {"id": "8073", "name": "LULLI SUR LA TOILE"}, {"id": "8074", "name": "L'Oreal ES"}, {"id": "8075", "name": "Sncf"}, {"id": "8076", "name": "CHRISTIAN DIOR"}, {"id": "8077", "name": "C&A FRANCE"}, {"id": "8078", "name": "L'OREAL PRODUITS GRAND PUBLIC"}, {"id": "8079", "name": "SODEXO"}, {"id": "8080", "name": "BOULANGER"}, {"id": "8081", "name": "CHRISTIAN DIOR PARFUMS"}, {"id": "8082", "name": "OVH GROUP"}, {"id": "8083", "name": "Accor"}, {"id": "8084", "name": "GROUPE CARREFOUR"}, {"id": "8085", "name": "ACCENTURE"}, {"id": "8086", "name": "Endesa Twenergy"}, {"id": "8087", "name": "GOOGLE FRANCE"}, {"id": "8088", "name": "LA REDOUTE"}, {"id": "8089", "name": "OUI.SNCF"}, {"id": "8090", "name": "Groupe Bernard"}, {"id": "8091", "name": "PRINTEMPS"}, {"id": "8092", "name": "SNCF MOBILITES"}, {"id": "8093", "name": "MANO MANO"}, {"id": "8094", "name": "PETIT BATEAU"}, {"id": "8095", "name": "Natixis Inter\u00e9pargnes"}, {"id": "8096", "name": "ENEDIS"}, {"id": "8097", "name": "LVMH MOET HENNESSY LOUIS VUITTON"}, {"id": "8098", "name": "Ikea Uk & Ie"}, {"id": "8099", "name": "MICROSOFT FRANCE"}, {"id": "8100", "name": "Point P"}], "page": 81, "has_more": true, "count": 8677}