{"results": [{"id": "801", "name": "Octoly"}, {"id": "802", "name": "Swansea University"}, {"id": "803", "name": "Redcats"}, {"id": "804", "name": "Lyf Pay"}, {"id": "805", "name": "Groupe SEB"}, {"id": "806", "name": "AZENN"}, {"id": "807", "name": "Alb\u00e9a"}, {"id": "808", "name": "Interiman S.A."}, {"id": "809", "name": "ogury"}, {"id": "810", "name": "PCM S.A."}, {"id": "811", "name": "deloitte.be"}, {"id": "812", "name": "D\u00e9marche, Soci\u00e9t\u00e9 Coop\u00e9rative"}, {"id": "813", "name": "BDO"}, {"id": "814", "name": "Infotel"}, {"id": "815", "name": "ACTIA Group"}, {"id": "816", "name": "FINALCAD"}, {"id": "817", "name": "National Instruments"}, {"id": "818", "name": "Schoolab"}, {"id": "819", "name": "Salomon"}, {"id": "820", "name": "Deloitte"}, {"id": "821", "name": "Logmatic.io"}, {"id": "822", "name": "Factofrance"}, {"id": "823", "name": "Corsair International"}, {"id": "824", "name": "Fullcar Services By Feedback"}, {"id": "825", "name": "Direction g\u00e9n\u00e9rale de la coh\u00e9sion sociale"}, {"id": "826", "name": "Business & Decision"}, {"id": "827", "name": "LGI Consulting"}, {"id": "828", "name": "Acces Industrie"}, {"id": "829", "name": "TMP Worldwide"}, {"id": "830", "name": "Travaux.com"}, {"id": "831", "name": "FMS Wertmanagement Service GmbH"}, {"id": "832", "name": "Ecole Polytechnique"}, {"id": "833", "name": "Soprasteria"}, {"id": "834", "name": "harwell management"}, {"id": "835", "name": "Herv\u00e9 thermique"}, {"id": "836", "name": "Approach People Recruitment Ltd"}, {"id": "837", "name": "Eptica"}, {"id": "838", "name": "IMS Health Incorporated"}, {"id": "839", "name": "Qualiac SA"}, {"id": "840", "name": "Mapvision"}, {"id": "841", "name": "Vi Technology Mycronic"}, {"id": "842", "name": "L\u00c9A NATURE"}, {"id": "843", "name": "eFounders"}, {"id": "844", "name": "Manoir Industries"}, {"id": "845", "name": "SoftBank Robotics"}, {"id": "846", "name": "PwC"}, {"id": "847", "name": "Oxford Brookes University"}, {"id": "848", "name": "My Webspot"}, {"id": "849", "name": "Sens\u00e9e"}, {"id": "850", "name": "Universit\u00e9 Jean Moulin Lyon 3"}, {"id": "851", "name": "Nice - National Institute For Health And Care Excellence"}, {"id": "852", "name": "Saba Software"}, {"id": "853", "name": "G\u00e9n\u00e9raledesServices"}, {"id": "854", "name": "Minelli"}, {"id": "855", "name": "Adyen"}, {"id": "856", "name": "michael page"}, {"id": "857", "name": "Ezakus"}, {"id": "858", "name": "Del Arte"}, {"id": "859", "name": "AMFINE your RegTech Partner"}, {"id": "860", "name": "The Hoxton"}, {"id": "861", "name": "ACCIONA"}, {"id": "862", "name": "Sitel"}, {"id": "863", "name": "Coty Inc."}, {"id": "864", "name": "DIABOLOCOM"}, {"id": "865", "name": "Weishaupt SAS"}, {"id": "866", "name": "Renewable Energy Systems Ltd."}, {"id": "867", "name": "Yorkshire Building Society"}, {"id": "868", "name": "Gan"}, {"id": "869", "name": "Luxembourg Institute of Science and Technology (LIST)"}, {"id": "870", "name": "TBWA Paris"}, {"id": "871", "name": "SONOCO"}, {"id": "872", "name": "Dechert LLP"}, {"id": "873", "name": "TALLY WEiJL"}, {"id": "874", "name": "Malherbe Paris"}, {"id": "875", "name": "FONCIA"}, {"id": "876", "name": "L'Or\u00e9al"}, {"id": "877", "name": "Allergy Therapeutics"}, {"id": "878", "name": "Creditsafe Business Solutions Ltd."}, {"id": "879", "name": "Decoded"}, {"id": "880", "name": "Jules"}, {"id": "881", "name": "Quable"}, {"id": "882", "name": "Hovis Ltd"}, {"id": "883", "name": "Q-Park France"}, {"id": "884", "name": "sciences-po.org"}, {"id": "885", "name": "Trafford Metropolitan Borough Council"}, {"id": "886", "name": "SFR"}, {"id": "887", "name": "Marriott International Inc."}, {"id": "888", "name": "Siderlog"}, {"id": "889", "name": "Beauty Bay Ltd"}, {"id": "890", "name": "Zcomme"}, {"id": "891", "name": "Sadec Akelys"}, {"id": "892", "name": "Club Identicar"}, {"id": "893", "name": "VINCI Immobilier"}, {"id": "894", "name": "Olympic Delivery Authority (ODA)"}, {"id": "895", "name": "Clark Contracts"}, {"id": "896", "name": "Rother District Council"}, {"id": "897", "name": "Sfeir Benelux"}, {"id": "898", "name": "ACCENTURE"}, {"id": "899", "name": "Adecco"}, {"id": "900", "name": "Softwareone"}], "page": 9, "has_more": true, "count": 8677}