{"results": [{"id": "1", "name": "Dupont Caf\u00e9 (parent)"}, {"id": "2", "name": "Heiko Bordeaux"}, {"id": "3", "name": "Temp\u00eate sous un cr\u00e2ne"}, {"id": "4", "name": "LA PIZZA DU DIMANCHE SOIR"}, {"id": "5", "name": "Planet Sushi Pyr\u00e9n\u00e9es"}, {"id": "6", "name": "Mum Dim Sum (Parent)"}, {"id": "7", "name": "LA CHOPE DAGUERRE"}, {"id": "8", "name": "Planet Sushi Versailles"}, {"id": "9", "name": "PAPA RAFFAELE"}, {"id": "10", "name": "TOT OU TARD"}, {"id": "11", "name": "LES ATELIERS"}, {"id": "12", "name": "L'Ekinoxe"}, {"id": "13", "name": "FRIIDAY"}, {"id": "14", "name": "Guama Caf\u00e9"}, {"id": "15", "name": "Le patacrepe N\u00eemes"}, {"id": "16", "name": "Nest Paris"}, {"id": "17", "name": "Bercy Caf\u00e9"}, {"id": "18", "name": "SUSHI JULIETTE"}, {"id": "19", "name": "La Dolce VIta"}, {"id": "20", "name": "Stevenot Cadet"}, {"id": "21", "name": "La pierrade"}, {"id": "22", "name": "Planet Sushi Levallois"}, {"id": "23", "name": "AU 35"}, {"id": "24", "name": "Yogurt Factory La D\u00e9fense"}, {"id": "25", "name": "LES POLISSONS"}, {"id": "26", "name": "DEL ARTE  ALEN\u00c7ON"}, {"id": "27", "name": "BOAZ CONCEPT"}, {"id": "28", "name": "Le Progr\u00e8s"}, {"id": "29", "name": "RICE TROTTERS Colis\u00e9e"}, {"id": "30", "name": "Bagelstein Pyramides"}, {"id": "31", "name": "Biltoki"}, {"id": "32", "name": "ZOE BOUILLON"}, {"id": "33", "name": "Planet Sushi Monge"}, {"id": "34", "name": "CUCUZZA"}, {"id": "35", "name": "Relais christine"}, {"id": "36", "name": "Gallika Cadet"}, {"id": "37", "name": "DEL ARTE PARLY 2"}, {"id": "38", "name": "Les Amis de Messina (PARENT)"}, {"id": "39", "name": "SUSHI SHOP Charles de Gaulle"}, {"id": "40", "name": "O Charolais"}, {"id": "41", "name": "Planet Sushi Doumer"}, {"id": "42", "name": "Bistrot Colette"}, {"id": "43", "name": "BISTROT M"}, {"id": "44", "name": "VINS DES PYRENEES"}, {"id": "45", "name": "TRUST"}, {"id": "46", "name": "Sept cinq"}, {"id": "47", "name": "Noura Op\u00e9ra"}, {"id": "48", "name": "Baprod Massieux"}, {"id": "49", "name": "THE BOOTLAGERS"}, {"id": "50", "name": "ICE TO ICE (ARTISAN DU BURGER)"}, {"id": "51", "name": "La Boutarde"}, {"id": "52", "name": "Au bout du bar"}, {"id": "53", "name": "Marlette BHV"}, {"id": "54", "name": "Planet Sushi Pereire"}, {"id": "55", "name": "Sogepar"}, {"id": "56", "name": "Timhotel Groupe"}, {"id": "57", "name": "Francis la butte"}, {"id": "58", "name": "PARIS ROME"}, {"id": "59", "name": "SAS LE PERY"}, {"id": "60", "name": "Boulangerie Feuillette"}, {"id": "61", "name": "DEL ARTE MONT-DEL-MARSAN SAINT-PIERRE-DU-MONT"}, {"id": "62", "name": "LES PETITES ASSIETTES"}, {"id": "63", "name": "PATRIZIA"}, {"id": "64", "name": "Ten Belles Bread (Parent)"}, {"id": "65", "name": "Radisson Blue Bordeaux"}, {"id": "66", "name": "L\u00e9on de B Filiales (Parent)"}, {"id": "67", "name": "L'assiette aux fromages"}, {"id": "68", "name": "Doctolib"}, {"id": "69", "name": "Eataly Salle"}, {"id": "70", "name": "IL GIGOLO"}, {"id": "71", "name": "Planet Sushi Kl\u00e9ber"}, {"id": "72", "name": "POKEBAR"}, {"id": "73", "name": "Planet Sushi Saint Mand\u00e9"}, {"id": "74", "name": "Le patacrepe Echirolles"}, {"id": "75", "name": "La Cuisine du Ptit Lu"}, {"id": "76", "name": "Coco de Mer"}, {"id": "77", "name": "Fresh burritos Lille"}, {"id": "78", "name": "Le Bourg'bon Mouzda"}, {"id": "79", "name": "Groupe Sighor - Leo Resto & Ace Hotel"}, {"id": "80", "name": "Veng Hour"}, {"id": "81", "name": "Maison Malesherbes SAS"}, {"id": "82", "name": "Double Dragon"}, {"id": "83", "name": "Falstaff"}, {"id": "84", "name": "L'Apollo"}, {"id": "85", "name": "TECHSell"}, {"id": "86", "name": "FRESH BURRITOS DUNKERQUE"}, {"id": "87", "name": "SAS Villert - MOUSSE TOUCH"}, {"id": "88", "name": "L'Apibo"}, {"id": "89", "name": "LES FRANGINS"}, {"id": "90", "name": "LE FER A CHEVAL"}, {"id": "91", "name": "LA PLAGE"}, {"id": "92", "name": "Au Port Du Salut"}, {"id": "93", "name": "LE PATACREPE"}, {"id": "94", "name": "Hamler's burgery"}, {"id": "95", "name": "Le Ballu"}, {"id": "96", "name": "Columbus Cafe  (Parent)"}, {"id": "97", "name": "Planet Sushi Voltaire"}, {"id": "98", "name": "La Ferme De Charles"}, {"id": "99", "name": "Bar a caf"}, {"id": "100", "name": "SmartHab"}], "page": 1, "has_more": true, "count": 8677}