{"results": [{"id": "601", "name": "Burgeap (Groupe)"}, {"id": "602", "name": "Zazzle"}, {"id": "603", "name": "SAP"}, {"id": "604", "name": "WILMINGTON PLC"}, {"id": "605", "name": "Adthink"}, {"id": "606", "name": "University of Poitiers"}, {"id": "607", "name": "Alpha Card Merchant Services SCRL"}, {"id": "608", "name": "Societe Generale"}, {"id": "609", "name": "Ongo"}, {"id": "610", "name": "Expert Line"}, {"id": "611", "name": "Netapsys"}, {"id": "612", "name": "McGee Group Limited"}, {"id": "613", "name": "MEDIAMETRIE"}, {"id": "614", "name": "PGS Group"}, {"id": "615", "name": "agn\u00e8s b."}, {"id": "616", "name": "Business France (Export)"}, {"id": "617", "name": "Friday"}, {"id": "618", "name": "Talentsoft"}, {"id": "619", "name": "Akbank"}, {"id": "620", "name": "ESSCA"}, {"id": "621", "name": "Ecole Centrale Nantes"}, {"id": "622", "name": "EXKi"}, {"id": "623", "name": "Bouygues"}, {"id": "624", "name": "MEOTEC"}, {"id": "625", "name": "ELECTROCOMPONENTS PLC"}, {"id": "626", "name": "The Ascott"}, {"id": "627", "name": "FeetMe"}, {"id": "628", "name": "LAT\u00c9COeRE"}, {"id": "629", "name": "Eurotoll"}, {"id": "630", "name": "Arkema"}, {"id": "631", "name": "Biborg"}, {"id": "632", "name": "Vacalians"}, {"id": "633", "name": "Daimler AG"}, {"id": "634", "name": "Cilgere Action Logement"}, {"id": "635", "name": "MedinCell"}, {"id": "636", "name": "Inra"}, {"id": "637", "name": "Groupe Crit"}, {"id": "638", "name": "Groupe GR International"}, {"id": "639", "name": "Migros"}, {"id": "640", "name": "Le Kiosk"}, {"id": "641", "name": "Adami"}, {"id": "642", "name": "General Cable Corporation"}, {"id": "643", "name": "SAVOYE"}, {"id": "644", "name": "IDELUX"}, {"id": "645", "name": "Compagnie Europ\u00e9enne des Bains"}, {"id": "646", "name": "AEW Europe"}, {"id": "647", "name": "BRIDGESTONE FRANCE"}, {"id": "648", "name": "Cimlec Industrie"}, {"id": "649", "name": "Abalone Group"}, {"id": "650", "name": "Arquus"}, {"id": "651", "name": "MarketInvoice"}, {"id": "652", "name": "mymoneybank.com"}, {"id": "653", "name": "Laboratoire Cooper"}, {"id": "654", "name": "J.P. COLONNA"}, {"id": "655", "name": "CGI FINANCE"}, {"id": "656", "name": "DRV Accountants & Adviseurs"}, {"id": "657", "name": "Absys Cyborg"}, {"id": "658", "name": "Novancia Business School Paris"}, {"id": "659", "name": "Maxxing"}, {"id": "660", "name": "Monster France"}, {"id": "661", "name": "AP-HP"}, {"id": "662", "name": "SFR Business"}, {"id": "663", "name": "Universal Medica Group"}, {"id": "664", "name": "Artdesk"}, {"id": "665", "name": "thebigword"}, {"id": "666", "name": "Continental"}, {"id": "667", "name": "Groupe Lactalis"}, {"id": "668", "name": "ABCARRIERES"}, {"id": "669", "name": "ID2"}, {"id": "670", "name": "MCNICHOLAS CONSTRUCTION LTD"}, {"id": "671", "name": "Smach - Digital Business Studio"}, {"id": "672", "name": "ABB"}, {"id": "673", "name": "Groupe Caisse d'Epargne"}, {"id": "674", "name": "Kroll"}, {"id": "675", "name": "Eilakaisla"}, {"id": "676", "name": "Chubb"}, {"id": "677", "name": "ista Danmark"}, {"id": "678", "name": "Digital Virgo"}, {"id": "679", "name": "Allsaints"}, {"id": "680", "name": "ITalent"}, {"id": "681", "name": "jobWings Careers"}, {"id": "682", "name": "Christian Dior Couture"}, {"id": "683", "name": "APE ETIQUETTES"}, {"id": "684", "name": "Asmodee Sas"}, {"id": "685", "name": "ba&sh"}, {"id": "686", "name": "Groupe Le Duff"}, {"id": "687", "name": "Cooltech Applications"}, {"id": "688", "name": "Reed Business Information"}, {"id": "689", "name": "Rubika"}, {"id": "690", "name": "SOCOTEC"}, {"id": "691", "name": "Orangemarine"}, {"id": "692", "name": "Tangerine Confectionery"}, {"id": "693", "name": "Loews Hotels & Co"}, {"id": "694", "name": "Deloitte Finland"}, {"id": "695", "name": "UNICANCER"}, {"id": "696", "name": "Ville de Roubaix"}, {"id": "697", "name": "Bruker"}, {"id": "698", "name": "SCOR SE"}, {"id": "699", "name": "Office Depot France SNC"}, {"id": "700", "name": "Altarea Cogedim"}], "page": 7, "has_more": true, "count": 8677}