{"results": [{"id": "3601", "name": "OPTICAL CENTER"}, {"id": "3602", "name": "GROUPE RICHEMONT"}, {"id": "3603", "name": "FIFTY-FIVE (55)"}, {"id": "3604", "name": "BARRY CALLEBAUT"}, {"id": "3605", "name": "L'OREAL PRODUITS GRAND PUBLIC"}, {"id": "3606", "name": "AMER SPORTS"}, {"id": "3607", "name": "STAR'S SERVICE"}, {"id": "3608", "name": "KALIOP"}, {"id": "3609", "name": "PRISMA MEDIA"}, {"id": "3610", "name": "LONGCHAMP"}, {"id": "3611", "name": "DAMARTEX"}, {"id": "3612", "name": "PIAGET"}, {"id": "3613", "name": "M6 DIGITAL SERVICES"}, {"id": "3614", "name": "ARAMIS AUTO"}, {"id": "3615", "name": "CONTENT SQUARE"}, {"id": "3616", "name": "MOVING"}, {"id": "3617", "name": "LE COQ SPORTIF"}, {"id": "3618", "name": "TALLY WEIJL"}, {"id": "3619", "name": "BIMBO Y LOLA"}, {"id": "3620", "name": "ALINEA"}, {"id": "3621", "name": "PUIG"}, {"id": "3622", "name": "HOOTSUITE"}, {"id": "3623", "name": "CARVING LABS"}, {"id": "3624", "name": "BMW FRANCE"}, {"id": "3625", "name": "CAMPER"}, {"id": "3626", "name": "PITNEY BOWES"}, {"id": "3627", "name": "ABITARE"}, {"id": "3628", "name": "PECHEUR.COM"}, {"id": "3629", "name": "CAPGEMINI TECHNOLOGY SERVICES"}, {"id": "3630", "name": "ROUGEGORGE LINGERIE"}, {"id": "3631", "name": "SAP FRANCE"}, {"id": "3632", "name": "MACWAY"}, {"id": "3633", "name": "ST DUPONT"}, {"id": "3634", "name": "ANIMALBOX"}, {"id": "3635", "name": "VVF VILLAGE"}, {"id": "3636", "name": "SALESFORCE.COM"}, {"id": "3637", "name": "FEDERATION FRANCAISE DE FOOTBALL"}, {"id": "3638", "name": "SCA PETROLE ET DERIVES"}, {"id": "3639", "name": "STRADIVARIUS"}, {"id": "3640", "name": "WEIGHT WATCHERS FRANCE"}, {"id": "3641", "name": "GEOPOST"}, {"id": "3642", "name": "CHEERZ"}, {"id": "3643", "name": "NIKE FRANCE"}, {"id": "3644", "name": "SWATCH GROUP"}, {"id": "3645", "name": "GROUPE PSA"}, {"id": "3646", "name": "EUROMASTER"}, {"id": "3647", "name": "SANOFI"}, {"id": "3648", "name": "CHRISTINE LAURE"}, {"id": "3649", "name": "SANT\u00c9VET"}, {"id": "3650", "name": "FEDEX EXPRESS FRANCE"}, {"id": "3651", "name": "VIAJES EL CORTE INGLES S.A."}, {"id": "3652", "name": "SPIE"}, {"id": "3653", "name": "AUBADE"}, {"id": "3654", "name": "PEUGEOT"}, {"id": "3655", "name": "PHILIP MORRIS"}, {"id": "3656", "name": "GROUPE HOLDER"}, {"id": "3657", "name": "SNCF TRANSILIEN"}, {"id": "3658", "name": "BOURSORAMA"}, {"id": "3659", "name": "MATMUT"}, {"id": "3660", "name": "OPEL FRANCE"}, {"id": "3661", "name": "IXINA"}, {"id": "3662", "name": "YVES PONROY"}, {"id": "3663", "name": "JONAK"}, {"id": "3664", "name": "BT"}, {"id": "3665", "name": "APICIL"}, {"id": "3666", "name": "UNIBAIL-RODAMCO-WESTFIELD"}, {"id": "3667", "name": "SHOPINVEST"}, {"id": "3668", "name": "AZETONE"}, {"id": "3669", "name": "NESPRESSO FRANCE"}, {"id": "3670", "name": "DOMES PHARMA"}, {"id": "3671", "name": "VANESSA BRUNO"}, {"id": "3672", "name": "MELLER"}, {"id": "3673", "name": "VENTADIS"}, {"id": "3674", "name": "T\u00c9L\u00c9SHOPPING"}, {"id": "3675", "name": "GROUPE G7"}, {"id": "3676", "name": "BPIFRANCE"}, {"id": "3677", "name": "SAMSE"}, {"id": "3678", "name": "THE WALT DISNEY COMPANY"}, {"id": "3679", "name": "HSBC FRANCE"}, {"id": "3680", "name": "BIRCHBOX ESPA\u00d1A"}, {"id": "3681", "name": "PONANT"}, {"id": "3682", "name": "ADYEN N.V"}, {"id": "3683", "name": "PATEK PHILIPPE"}, {"id": "3684", "name": "FIGARO CLASSIFIEDS"}, {"id": "3685", "name": "UVINUM"}, {"id": "3686", "name": "ACUITIS"}, {"id": "3687", "name": "NICOLAS"}, {"id": "3688", "name": "UNILEVER"}, {"id": "3689", "name": "MOSKITOS"}, {"id": "3690", "name": "LOCASUN"}, {"id": "3691", "name": "ANIMALIS"}, {"id": "3692", "name": "BNP PARIBAS"}, {"id": "3693", "name": "MONTBLANC FRANCE"}, {"id": "3694", "name": "LAFOURCHETTE"}, {"id": "3695", "name": "EMIRATES"}, {"id": "3696", "name": "WHIRLPOOL"}, {"id": "3697", "name": "LAFARGE HOLCIM"}, {"id": "3698", "name": "SKIS ROSSIGNOL"}, {"id": "3699", "name": "RALPH LAUREN"}, {"id": "3700", "name": "LAFUMA"}], "page": 37, "has_more": true, "count": 8677}