{"results": [{"id": "4301", "name": "VOLVO CONSTRUCTION EQUIPMENT EUROPE"}, {"id": "4302", "name": "Aubay"}, {"id": "4303", "name": "Cecaz Caisse d'Epargne"}, {"id": "4304", "name": "Euler Herm\u00e8s"}, {"id": "4305", "name": "AUBADE"}, {"id": "4306", "name": "Toucan Toco"}, {"id": "4307", "name": "Jenj"}, {"id": "4308", "name": "Alphabet"}, {"id": "4309", "name": "Groupe Carso"}, {"id": "4310", "name": "Groupe PVCP"}, {"id": "4311", "name": "GROUPE SADAS (VERT BAUDET CYRILLUS SOMEWHERE)"}, {"id": "4312", "name": "Heytens"}, {"id": "4313", "name": "Dachser"}, {"id": "4314", "name": "Numberly"}, {"id": "4315", "name": "Zeiss"}, {"id": "4316", "name": "Scansource"}, {"id": "4317", "name": "Essilor"}, {"id": "4318", "name": "Discovery"}, {"id": "4319", "name": "Lagardere"}, {"id": "4320", "name": "Fournier-Habitat"}, {"id": "4321", "name": "Readspeaker"}, {"id": "4322", "name": "Ametra Ingenieris"}, {"id": "4323", "name": "GROUPE SARBEC"}, {"id": "4324", "name": "Adisseo"}, {"id": "4325", "name": "CARREFOUR MARKET"}, {"id": "4326", "name": "Ginger Cebtp"}, {"id": "4327", "name": "Banque Palatine"}, {"id": "4328", "name": "Salesforce France"}, {"id": "4329", "name": "Hager"}, {"id": "4330", "name": "Andr\ufffd"}, {"id": "4331", "name": "Cubyn"}, {"id": "4332", "name": "Lenotre"}, {"id": "4333", "name": "Biogaran"}, {"id": "4334", "name": "The Moneytizer"}, {"id": "4335", "name": "Visconti"}, {"id": "4336", "name": "Brenntag"}, {"id": "4337", "name": "Bureau Veritas"}, {"id": "4338", "name": "Christian Dior"}, {"id": "4339", "name": "Euridis Ecole"}, {"id": "4340", "name": "Epitech Recrutement"}, {"id": "4341", "name": "Diebold Nixdorf France"}, {"id": "4342", "name": "Royal Canin"}, {"id": "4343", "name": "Acorus"}, {"id": "4344", "name": "Ogif"}, {"id": "4345", "name": "Bostik Sa"}, {"id": "4346", "name": "Coh\u00e9ris"}, {"id": "4347", "name": "Lagardere Pub"}, {"id": "4348", "name": "Vectura"}, {"id": "4349", "name": "Yves Saint Laurent"}, {"id": "4350", "name": "Intercom, Inc."}, {"id": "4351", "name": "Ministere De L'economie Et Des Finances"}, {"id": "4352", "name": "PeopleSpheres"}, {"id": "4353", "name": "Go Concept"}, {"id": "4354", "name": "Thelem assurances"}, {"id": "4355", "name": "ALTESSE"}, {"id": "4356", "name": "ibm"}, {"id": "4357", "name": "AP-HP"}, {"id": "4358", "name": "Provepharm"}, {"id": "4359", "name": "Fiducial"}, {"id": "4360", "name": "Solocal"}, {"id": "4361", "name": "ogerinternational.fr"}, {"id": "4362", "name": "EF Education First"}, {"id": "4363", "name": "Cityway"}, {"id": "4364", "name": "Dudley Metropolitan Borough Council"}, {"id": "4365", "name": "Finsbury Food Group"}, {"id": "4366", "name": "Nufarm Limited"}, {"id": "4367", "name": "NetPay"}, {"id": "4368", "name": "Community Outpatients Ltd"}, {"id": "4369", "name": "KUEHNE + NAGEL"}, {"id": "4370", "name": "Tesco Bank"}, {"id": "4371", "name": "Sanofi"}, {"id": "4372", "name": "NEXIALOG Consulting"}, {"id": "4373", "name": "Sapient"}, {"id": "4374", "name": "AVON"}, {"id": "4375", "name": "Ferrari"}, {"id": "4376", "name": "AUTOVISION"}, {"id": "4377", "name": "Thales Alenia Space"}, {"id": "4378", "name": "HUMAN SEARCH Paris"}, {"id": "4379", "name": "Csm"}, {"id": "4380", "name": "IMPACT Sales Marketi"}, {"id": "4381", "name": "FRAIKIN FRANCE"}, {"id": "4382", "name": "Amazon"}, {"id": "4383", "name": "RH FOR BUSINESS"}, {"id": "4384", "name": "Ernst & Young"}, {"id": "4385", "name": "OVH LTD"}, {"id": "4386", "name": "Deloitte LLP"}, {"id": "4387", "name": "Neptune"}, {"id": "4388", "name": "ENSEA"}, {"id": "4389", "name": "Travel Technology Interactive"}, {"id": "4390", "name": "London Executive Offices Ltd"}, {"id": "4391", "name": "Aneo"}, {"id": "4392", "name": "Oxford Instruments"}, {"id": "4393", "name": "Grupo Pefaco"}, {"id": "4394", "name": "Algolia"}, {"id": "4395", "name": "ASTRE COMMERCIAL"}, {"id": "4396", "name": "Ferrero"}, {"id": "4397", "name": "Bitly Inc."}, {"id": "4398", "name": "TOTAL Belgium"}, {"id": "4399", "name": "Eudonet"}, {"id": "4400", "name": "SOUTH POLE"}], "page": 44, "has_more": true, "count": 8677}