{"results": [{"id": "201", "name": "Dorlet"}, {"id": "202", "name": "Leaders League"}, {"id": "203", "name": "Kalray"}, {"id": "204", "name": "SEMANTIWEB"}, {"id": "205", "name": "URBAN LINKER"}, {"id": "206", "name": "Net Reviews"}, {"id": "207", "name": "Armis"}, {"id": "208", "name": "Zapa, S.A."}, {"id": "209", "name": "Spinergie"}, {"id": "210", "name": "Equancy"}, {"id": "211", "name": "OpenDataSoft"}, {"id": "212", "name": "CanalCloud"}, {"id": "213", "name": "HAProxy Technologies, LLC"}, {"id": "214", "name": "VeryChic"}, {"id": "215", "name": "Eiffage"}, {"id": "216", "name": "STORE AND SUPPLY"}, {"id": "217", "name": "Wallix"}, {"id": "218", "name": "Teedji"}, {"id": "219", "name": "RIZZE"}, {"id": "220", "name": "Inventy"}, {"id": "221", "name": "MULTICULTURAL NETWORK CORPORATION Terms & Conditions Mentions l\u00e9gales"}, {"id": "222", "name": "Headoo"}, {"id": "223", "name": "Shopmium, a Quotient brand"}, {"id": "224", "name": "sandro"}, {"id": "225", "name": "ESV Digital"}, {"id": "226", "name": "cello.fr"}, {"id": "227", "name": "Mutieg"}, {"id": "228", "name": "SILICOM SAS"}, {"id": "229", "name": "62 degr\u00e9s"}, {"id": "230", "name": "Adloox"}, {"id": "231", "name": "Merci"}, {"id": "232", "name": "RoomChecking"}, {"id": "233", "name": "EKYOG"}, {"id": "234", "name": "D\u00e9l\u00e9gation Catholique pour la Coop\u00e9ration"}, {"id": "235", "name": "Brainsonic"}, {"id": "236", "name": "YXIME SA"}, {"id": "237", "name": "Quantmetry"}, {"id": "238", "name": "Goomeo"}, {"id": "239", "name": "LPA-CGR avocats"}, {"id": "240", "name": "IK Investment Partners"}, {"id": "241", "name": "aerium"}, {"id": "242", "name": "Applidium"}, {"id": "243", "name": "PERFORMANCE & INFLUENCE"}, {"id": "244", "name": "Cyanide"}, {"id": "245", "name": "Brevalex"}, {"id": "246", "name": "Easyflyer"}, {"id": "247", "name": "tbwa-corporate"}, {"id": "248", "name": "Airbus Helicopters"}, {"id": "249", "name": "Doctrine"}, {"id": "250", "name": "Molotov"}, {"id": "251", "name": "Shapr"}, {"id": "252", "name": "Paris Val de Marne"}, {"id": "253", "name": "Archos"}, {"id": "254", "name": "Pampa Paris"}, {"id": "255", "name": "Continental Search Alliance"}, {"id": "256", "name": "STid, your RFID partner !"}, {"id": "257", "name": "Schoolab"}, {"id": "258", "name": "GARDEN PRICE"}, {"id": "259", "name": "tequilarapido"}, {"id": "260", "name": "Waycom"}, {"id": "261", "name": "Perfect Memory"}, {"id": "262", "name": "Evea Group"}, {"id": "263", "name": "Meetic"}, {"id": "264", "name": "nam.R"}, {"id": "265", "name": "NFrance"}, {"id": "266", "name": "AntVoice"}, {"id": "267", "name": "Altran"}, {"id": "268", "name": "Coll\u00e8ge des Bernardins"}, {"id": "269", "name": "Bearstech"}, {"id": "270", "name": "Strapi"}, {"id": "271", "name": "Data Solutions Fr"}, {"id": "272", "name": "Cov\u00e9a Finance"}, {"id": "273", "name": "Boost.rs"}, {"id": "274", "name": "Skillup.co"}, {"id": "275", "name": "Architizer"}, {"id": "276", "name": "Anjali MVP"}, {"id": "277", "name": "PickAsso"}, {"id": "278", "name": "DONTNOD Entertainment"}, {"id": "279", "name": "PrestaShop -"}, {"id": "280", "name": "AuxiVia"}, {"id": "281", "name": "Les CCE Allemagne"}, {"id": "282", "name": "comScore, Inc."}, {"id": "283", "name": "Kylia France"}, {"id": "284", "name": "Groupe DFM"}, {"id": "285", "name": "Seenk"}, {"id": "286", "name": "TTC - Testing Training and Consulting"}, {"id": "287", "name": "Alkemics"}, {"id": "288", "name": "ZenProspect"}, {"id": "289", "name": "NES SARL"}, {"id": "290", "name": "COTE OUEST"}, {"id": "291", "name": "France Digitale"}, {"id": "292", "name": "Synthetron N.V."}, {"id": "293", "name": "Brand and Celebrities"}, {"id": "294", "name": "Pulpix, Inc."}, {"id": "295", "name": "EXCILYS"}, {"id": "296", "name": "orchestra"}, {"id": "297", "name": "VideoProfile Group"}, {"id": "298", "name": "J. Walter Thompson U.S.A., LLC"}, {"id": "299", "name": "Netino"}, {"id": "300", "name": "Affine"}], "page": 3, "has_more": true, "count": 8677}