{"results": [{"id": "6001", "name": "Syst\u00e8me U"}, {"id": "6002", "name": "darty"}, {"id": "6003", "name": "Exprimm'iT"}, {"id": "6004", "name": "Ouest-France"}, {"id": "6005", "name": "Generix Group"}, {"id": "6006", "name": "DHL"}, {"id": "6007", "name": "CrossKnowledge"}, {"id": "6008", "name": "SMAVoile"}, {"id": "6009", "name": "Capgemini"}, {"id": "6010", "name": "PRO BTP Groupe"}, {"id": "6011", "name": "KREAXI"}, {"id": "6012", "name": "Bouygues Telecom"}, {"id": "6013", "name": "AXA Banque"}, {"id": "6014", "name": "Croix-Rouge fran\u00e7aise"}, {"id": "6015", "name": "France Digitale"}, {"id": "6016", "name": "Sport 2000"}, {"id": "6017", "name": "Eiffage"}, {"id": "6018", "name": "ca-idf.fr"}, {"id": "6019", "name": "D\u00e9partement des Hauts-de-Seine"}, {"id": "6020", "name": "Virbac"}, {"id": "6021", "name": "Jennyfer"}, {"id": "6022", "name": "Docaposte"}, {"id": "6023", "name": "Cr\u00e9dit Agricole | Brie Picardie"}, {"id": "6024", "name": "Spring France"}, {"id": "6025", "name": "MSD"}, {"id": "6026", "name": "Groupe AGRICA"}, {"id": "6027", "name": "Teads"}, {"id": "6028", "name": "Inra"}, {"id": "6029", "name": "The Adecco Group"}, {"id": "6030", "name": "Ambroise Par\u00e9"}, {"id": "6031", "name": "Synergie"}, {"id": "6032", "name": "Inria"}, {"id": "6033", "name": "Enedis"}, {"id": "6034", "name": "GUERLAIN"}, {"id": "6035", "name": "Mattel, Inc."}, {"id": "6036", "name": "LeasePlan Corporation"}, {"id": "6037", "name": "Stago"}, {"id": "6038", "name": "Macopharma"}, {"id": "6039", "name": "Engie"}, {"id": "6040", "name": "Swatch Group"}, {"id": "6041", "name": "Groupe KILOUTOU"}, {"id": "6042", "name": "BNP Paribas"}, {"id": "6043", "name": "Johnson & Johnson"}, {"id": "6044", "name": "Solvay"}, {"id": "6045", "name": "OMS SYNERGIE"}, {"id": "6046", "name": "L'Argus de la presse"}, {"id": "6047", "name": "MAIF"}, {"id": "6048", "name": "Caisse des D\u00e9p\u00f4ts"}, {"id": "6049", "name": "Groupama"}, {"id": "6050", "name": "Aubay SA"}, {"id": "6051", "name": "dassault-falcon.com"}, {"id": "6052", "name": "Hachette Livre"}, {"id": "6053", "name": "LFB"}, {"id": "6054", "name": "MANUTAN"}, {"id": "6055", "name": "PMU"}, {"id": "6056", "name": "sandro"}, {"id": "6057", "name": "Deloitte"}, {"id": "6058", "name": "Clarins"}, {"id": "6059", "name": "Atos"}, {"id": "6060", "name": "Banque Casino"}, {"id": "6061", "name": "Macron"}, {"id": "6062", "name": "Lagard\u00e8re"}, {"id": "6063", "name": "Le Valentin"}, {"id": "6064", "name": "Intermarch\u00e9 Saint-Florentin"}, {"id": "6065", "name": "Philip Morris International (ARCHIVE)"}, {"id": "6066", "name": "Nike Belux"}, {"id": "6067", "name": "Groupe Seb"}, {"id": "6068", "name": "BNP Paribas FR"}, {"id": "6069", "name": "Groupama"}, {"id": "6070", "name": "L'Or\u00e9al Belgilux"}, {"id": "6071", "name": "Baume & Mercier"}, {"id": "6072", "name": "SAINT-GOBAIN GLASS"}, {"id": "6073", "name": "Celio*"}, {"id": "6074", "name": "Gartner"}, {"id": "6075", "name": "ADP"}, {"id": "6076", "name": "SOLVAY SA"}, {"id": "6077", "name": "Samsonite Europe"}, {"id": "6078", "name": "AUCHAN"}, {"id": "6079", "name": "TF1"}, {"id": "6080", "name": "SPLIO"}, {"id": "6081", "name": "Lampiris"}, {"id": "6082", "name": "Top Brands - Pizza Hut"}, {"id": "6083", "name": "Est\u00e9e Lauder - Belgique"}, {"id": "6084", "name": "Docapost"}, {"id": "6085", "name": "microsoft"}, {"id": "6086", "name": "Ralph Lauren Watch & Jewelry Co"}, {"id": "6087", "name": "Kronenbourg"}, {"id": "6088", "name": "CapHorn invest"}, {"id": "6089", "name": "Courir"}, {"id": "6090", "name": "STADE TOULOUSAIN"}, {"id": "6091", "name": "Intersport France SA"}, {"id": "6092", "name": "Manor"}, {"id": "6093", "name": "Fivory"}, {"id": "6094", "name": "JC Decaux"}, {"id": "6095", "name": "Citroen - FR"}, {"id": "6096", "name": "Samsung Electronics France"}, {"id": "6097", "name": "Delsey"}, {"id": "6098", "name": "LEROY MERLIN"}, {"id": "6099", "name": "Hunkem\u00f6ller"}, {"id": "6100", "name": "Mondadori"}], "page": 61, "has_more": true, "count": 8677}