{"results": [{"id": "3701", "name": "PANDORA"}, {"id": "3702", "name": "LA BANQUE POSTALE"}, {"id": "3703", "name": "SOCIETE GENERALE"}, {"id": "3704", "name": "GROUPE BEL"}, {"id": "3705", "name": "CARGLASS"}, {"id": "3706", "name": "AIR FRANCE"}, {"id": "3707", "name": "PRO BTP"}, {"id": "3708", "name": "PURESSENTIEL FRANCE"}, {"id": "3709", "name": "DIA GROUP"}, {"id": "3710", "name": "PROCTER & GAMBLE"}, {"id": "3711", "name": "SCHNEIDER ELECTRIC"}, {"id": "3712", "name": "KING JOUET"}, {"id": "3713", "name": "EDREAMS ODIGEO"}, {"id": "3714", "name": "CEWE"}, {"id": "3715", "name": "L'OREAL TRAVEL RETAIL"}, {"id": "3716", "name": "4 MURS"}, {"id": "3717", "name": "KELEY CONSULTING"}, {"id": "3718", "name": "CHRISTOFLE"}, {"id": "3719", "name": "PURIFICACION GARCIA (TEXTIL LONIA)"}, {"id": "3720", "name": "Postiche"}, {"id": "3721", "name": "Sensas - Gen\u00e8ve"}, {"id": "3722", "name": "John Viande"}, {"id": "3723", "name": "Neo Bento"}, {"id": "3724", "name": "Les Tantes Jeanne"}, {"id": "3725", "name": "Le Bistro Gourmand"}, {"id": "3726", "name": "Ten Belles Bread - Paris 6"}, {"id": "3727", "name": "Fermier Gourmet"}, {"id": "3728", "name": "O Charolais SAS"}, {"id": "3729", "name": "Ibis Hotel"}, {"id": "3730", "name": "Baguett's caf\u00e9"}, {"id": "3731", "name": "Cubana Caf\u00e9"}, {"id": "3732", "name": "Le comptoir la table"}, {"id": "3733", "name": "Les amis de Messina"}, {"id": "3734", "name": "Bene Kitchen"}, {"id": "3735", "name": "l'alsacien"}, {"id": "3736", "name": "Le Comptoir Moderne"}, {"id": "3737", "name": "Il Gallo Nero"}, {"id": "3738", "name": "Bio Burger"}, {"id": "3739", "name": "Cheyma Bourguiba"}, {"id": "3740", "name": "FRUISY HPB"}, {"id": "3741", "name": "Au Loup"}, {"id": "3742", "name": "Maestro Dunkerque"}, {"id": "3743", "name": "Neighbours"}, {"id": "3744", "name": "L envue cafe restaurant"}, {"id": "3745", "name": "La boucherie"}, {"id": "3746", "name": "Daroco"}, {"id": "3747", "name": "P\u00e8re et fish"}, {"id": "3748", "name": "Le troquet des glaces"}, {"id": "3749", "name": "Sacr\u00e9 Frenchy !"}, {"id": "3750", "name": "Jais"}, {"id": "3751", "name": "La Mansarde"}, {"id": "3752", "name": "San Francisco"}, {"id": "3753", "name": "RISI E BISI"}, {"id": "3754", "name": "Gabylou"}, {"id": "3755", "name": "Britney"}, {"id": "3756", "name": "Caf\u00e9 Piquet"}, {"id": "3757", "name": "Djawa Republik"}, {"id": "3758", "name": "Vinoos"}, {"id": "3759", "name": "Bonvivant"}, {"id": "3760", "name": "Terrasse sainte Catherine"}, {"id": "3761", "name": "Hotel Kyriad"}, {"id": "3762", "name": "Le Balsamo"}, {"id": "3763", "name": "Victoires"}, {"id": "3764", "name": "LA CHOPPE DAGUERRE"}, {"id": "3765", "name": "Restaurant le Bellevue"}, {"id": "3766", "name": "Les Artistes"}, {"id": "3767", "name": "Passarito"}, {"id": "3768", "name": "Le valentin"}, {"id": "3769", "name": "Financiere BCL"}, {"id": "3770", "name": "Umami"}, {"id": "3771", "name": "Buggy Burger"}, {"id": "3772", "name": "Jean Burger Le Restau"}, {"id": "3773", "name": "Snl arci boetie"}, {"id": "3774", "name": "Bistrot de l'universit\u00e9"}, {"id": "3775", "name": "Les Princes"}, {"id": "3776", "name": "Le t\u00f4t ou tard"}, {"id": "3777", "name": "Planet Sushi"}, {"id": "3778", "name": "Le bistrot des Anges"}, {"id": "3779", "name": "Caf\u00e9 Joseph"}, {"id": "3780", "name": "schrotter"}, {"id": "3781", "name": "pinocchio"}, {"id": "3782", "name": "Caf\u00e9 M\u00e9nilmontant"}, {"id": "3783", "name": "hon"}, {"id": "3784", "name": "O'Sullivans"}, {"id": "3785", "name": "Le Caminito Cabaret"}, {"id": "3786", "name": "Le Boeuf sur la Place"}, {"id": "3787", "name": "L\u2019orange bleue"}, {"id": "3788", "name": "Liberty's Burger"}, {"id": "3789", "name": "l'union fait la sauce"}, {"id": "3790", "name": "ALTRAN FRANCE"}, {"id": "3791", "name": "AIR LIQUIDE"}, {"id": "3792", "name": "DOCAPOSTE"}, {"id": "3793", "name": "TOTAL MARKETING & SERVICES"}, {"id": "3794", "name": "BRED BANQUE POPULAIRE"}, {"id": "3795", "name": "BARCLAYS"}, {"id": "3796", "name": "GROUPE CAISSE DES D\u00c9P\u00d4TS"}, {"id": "3797", "name": "Polyclinique Bordeaux Nord Aquitaine"}, {"id": "3798", "name": "Peter Brett Associates"}, {"id": "3799", "name": "River And Mercantile Group"}, {"id": "3800", "name": "AmRest"}], "page": 38, "has_more": true, "count": 8677}