{"results": [{"id": "2701", "name": "VP BANK"}, {"id": "2702", "name": "Edwards Lifesciences Corporation"}, {"id": "2703", "name": "Talkwalker"}, {"id": "2704", "name": "IMPLICITY"}, {"id": "2705", "name": "Metaswitch Networks"}, {"id": "2706", "name": "Nexans"}, {"id": "2707", "name": "Eric Bompard"}, {"id": "2708", "name": "Keepeek"}, {"id": "2709", "name": "Laboratoire SVR"}, {"id": "2710", "name": "PeopleScout Inc"}, {"id": "2711", "name": "Cdiscount"}, {"id": "2712", "name": "AdRoll"}, {"id": "2713", "name": "Brigad"}, {"id": "2714", "name": "Ad's up"}, {"id": "2715", "name": "OVH LTD"}, {"id": "2716", "name": "Ajilon France S.A."}, {"id": "2717", "name": "Directique"}, {"id": "2718", "name": "Nicolas"}, {"id": "2719", "name": "Vivons Sport avec GO Sport"}, {"id": "2720", "name": "ignition-programme.com"}, {"id": "2721", "name": "The School of Life"}, {"id": "2722", "name": "Lyra Network"}, {"id": "2723", "name": "AFTRAL"}, {"id": "2724", "name": "ClicData"}, {"id": "2725", "name": "Cr\u00e9dit Agricole"}, {"id": "2726", "name": "SOAS University of London"}, {"id": "2727", "name": "Stanley Black & Decker, Inc."}, {"id": "2728", "name": "Groupe MENWAY SAS"}, {"id": "2729", "name": "Picard Surgel\u00e9s"}, {"id": "2730", "name": "Club Freelance"}, {"id": "2731", "name": "CAREWAN"}, {"id": "2732", "name": "National Theatre"}, {"id": "2733", "name": "Stootie"}, {"id": "2734", "name": "M\u00e9diane Syst\u00e8me"}, {"id": "2735", "name": "Carlsberg"}, {"id": "2736", "name": "CELAD"}, {"id": "2737", "name": "Dalenys"}, {"id": "2738", "name": "Salins"}, {"id": "2739", "name": "KPMG Sweden"}, {"id": "2740", "name": "Enza Zaden"}, {"id": "2741", "name": "Girard Agediss"}, {"id": "2742", "name": "John Paul"}, {"id": "2743", "name": "Pierre Schmidt"}, {"id": "2744", "name": "H & M Hennes & Mauritz AB"}, {"id": "2745", "name": "Ternois Fermetures"}, {"id": "2746", "name": "Groupe Pichet"}, {"id": "2747", "name": "Leasecom"}, {"id": "2748", "name": "ManpowerGroup"}, {"id": "2749", "name": "Morgan Philips Group"}, {"id": "2750", "name": "Recocash SAS"}, {"id": "2751", "name": "P-Val Conseil"}, {"id": "2752", "name": "TVTY Inc"}, {"id": "2753", "name": "COLITEL"}, {"id": "2754", "name": "Deloitte Switzerland"}, {"id": "2755", "name": "Ted Baker"}, {"id": "2756", "name": "IBA"}, {"id": "2757", "name": "Constellium"}, {"id": "2758", "name": "Exaprobe"}, {"id": "2759", "name": "Axeo Services"}, {"id": "2760", "name": "LVMH"}, {"id": "2761", "name": "Forcepoint"}, {"id": "2762", "name": "Enviro Waste London Limited"}, {"id": "2763", "name": "CAPFOR Mauritius"}, {"id": "2764", "name": "Assystem"}, {"id": "2765", "name": "spie"}, {"id": "2766", "name": "TECHNIDATA"}, {"id": "2767", "name": "lvmh"}, {"id": "2768", "name": "BNP Paribas"}, {"id": "2769", "name": "Daher"}, {"id": "2770", "name": "Edenred France"}, {"id": "2771", "name": "Smartbox Group"}, {"id": "2772", "name": "SNCF"}, {"id": "2773", "name": "GERARD DAREL"}, {"id": "2774", "name": "Frazer-Nash Consultancy"}, {"id": "2775", "name": "TASTE"}, {"id": "2776", "name": "ONERA"}, {"id": "2777", "name": "altares.com"}, {"id": "2778", "name": "ADNEOM"}, {"id": "2779", "name": "Orial"}, {"id": "2780", "name": "Cr\u00e9dit Logement"}, {"id": "2781", "name": "music"}, {"id": "2782", "name": "Botaki"}, {"id": "2783", "name": "Alma scop"}, {"id": "2784", "name": "Ekinops"}, {"id": "2785", "name": "DXC Technology"}, {"id": "2786", "name": "Carac"}, {"id": "2787", "name": "AJ Conseil"}, {"id": "2788", "name": "Median Technologies"}, {"id": "2789", "name": "Account Technologies Limited"}, {"id": "2790", "name": "Travauxlib"}, {"id": "2791", "name": "SOPRA STERIA CONSULTING"}, {"id": "2792", "name": "Aareon France"}, {"id": "2793", "name": "The Other Store - The OZ"}, {"id": "2794", "name": "FIDUEST"}, {"id": "2795", "name": "Natixis"}, {"id": "2796", "name": "Epic Games"}, {"id": "2797", "name": "AREVA"}, {"id": "2798", "name": "Brocante Lab"}, {"id": "2799", "name": "Skilvioo"}, {"id": "2800", "name": "Green Panda Games"}], "page": 28, "has_more": true, "count": 8677}