{"results": [{"id": "5101", "name": "canada"}, {"id": "5102", "name": "A.G. Barr"}, {"id": "5103", "name": "Loughborough University"}, {"id": "5104", "name": "Ravelin Technology Ltd."}, {"id": "5105", "name": "Europ Assistance"}, {"id": "5106", "name": "ibm"}, {"id": "5107", "name": "Avira"}, {"id": "5108", "name": "Velum International"}, {"id": "5109", "name": "VINCI"}, {"id": "5110", "name": "Payoneer Inc."}, {"id": "5111", "name": "Oxfordshire County Council"}, {"id": "5112", "name": "Thames Water Utilities Limited"}, {"id": "5113", "name": "PRINTEMPS HAUSSMANN"}, {"id": "5114", "name": "Boomerang Media Group"}, {"id": "5115", "name": "ibm"}, {"id": "5116", "name": "Edgar People"}, {"id": "5117", "name": "Engie"}, {"id": "5118", "name": "Barri\u00e8re"}, {"id": "5119", "name": "kalidea"}, {"id": "5120", "name": "Trainline"}, {"id": "5121", "name": "Quadra Informatique"}, {"id": "5122", "name": "Kew Green Hotels"}, {"id": "5123", "name": "P-VAL conseil"}, {"id": "5124", "name": "Groupe Beaumanoir"}, {"id": "5125", "name": "Huhtamaki"}, {"id": "5126", "name": "PSI Services LLC"}, {"id": "5127", "name": "ResMed"}, {"id": "5128", "name": "synthomer plc"}, {"id": "5129", "name": "ADELIANCE"}, {"id": "5130", "name": "LYRA Group"}, {"id": "5131", "name": "Toaster"}, {"id": "5132", "name": "Gore"}, {"id": "5133", "name": "B2R CONSULTING"}, {"id": "5134", "name": "Etsy"}, {"id": "5135", "name": "Phastar Ltd."}, {"id": "5136", "name": "G\u00e9mo"}, {"id": "5137", "name": "Hamleys"}, {"id": "5138", "name": "Ambition Institute"}, {"id": "5139", "name": "Calypso Technology"}, {"id": "5140", "name": "Galvin Restaurants"}, {"id": "5141", "name": "American Express Company"}, {"id": "5142", "name": "Precision Medicine Group"}, {"id": "5143", "name": "Virgin Money plc"}, {"id": "5144", "name": "MEDECINS DU MONDE"}, {"id": "5145", "name": "Fayat SA"}, {"id": "5146", "name": "CAISSE D'EPARGNE"}, {"id": "5147", "name": "Docler Holding Luxembourg"}, {"id": "5148", "name": "Wessanen"}, {"id": "5149", "name": "TMP Worldwide"}, {"id": "5150", "name": "HUMAN WEALTH"}, {"id": "5151", "name": "Pels Rijcken"}, {"id": "5152", "name": "logevie"}, {"id": "5153", "name": "Le Chameau"}, {"id": "5154", "name": "Boots"}, {"id": "5155", "name": "Nokia"}, {"id": "5156", "name": "RSM Tenon"}, {"id": "5157", "name": "SCOOP COMMUNICATION"}, {"id": "5158", "name": "Salomon"}, {"id": "5159", "name": "Qualipac Corporation"}, {"id": "5160", "name": "Office of Fair Trading"}, {"id": "5161", "name": "Beckman Coulter, Inc."}, {"id": "5162", "name": "Seroni Talents SAS"}, {"id": "5163", "name": "OVH LTD"}, {"id": "5164", "name": "Stuart"}, {"id": "5165", "name": "State Street Global Advisors, Inc"}, {"id": "5166", "name": "Core Talent Recruitment Ltd"}, {"id": "5167", "name": "IDRAC"}, {"id": "5168", "name": "MullenLowe Group"}, {"id": "5169", "name": "LeasePlan Corporation"}, {"id": "5170", "name": "Primetals Technologies Limited"}, {"id": "5171", "name": "GEODIS"}, {"id": "5172", "name": "HelloFresh"}, {"id": "5173", "name": "INGENICO BUSINESS SUPPORT SAS"}, {"id": "5174", "name": "Inra"}, {"id": "5175", "name": "OutSourcIn"}, {"id": "5176", "name": "B/E Aerospace"}, {"id": "5177", "name": "Newell Brands"}, {"id": "5178", "name": "Mondel\u0113z International"}, {"id": "5179", "name": "NTT Security"}, {"id": "5180", "name": "Raytheon"}, {"id": "5181", "name": "ReKrute"}, {"id": "5182", "name": "Klaxoon"}, {"id": "5183", "name": "Alkion Terminals B.V."}, {"id": "5184", "name": "Guidant Group"}, {"id": "5185", "name": "AssessFirst"}, {"id": "5186", "name": "Gide Loyrette Nouel"}, {"id": "5187", "name": "SERGIC"}, {"id": "5188", "name": "SARP OUEST"}, {"id": "5189", "name": "Sustrans"}, {"id": "5190", "name": "Tanium Inc."}, {"id": "5191", "name": "Awm"}, {"id": "5192", "name": "NETIKA SARL"}, {"id": "5193", "name": "lvmh"}, {"id": "5194", "name": "Middlesbrough FC"}, {"id": "5195", "name": "ALSA TEMPORAIRE"}, {"id": "5196", "name": "Hempsons"}, {"id": "5197", "name": "Congebec inc."}, {"id": "5198", "name": "Formasup NPDC"}, {"id": "5199", "name": "ALLIANZ Group"}, {"id": "5200", "name": "BHS"}], "page": 52, "has_more": true, "count": 8677}