{"results": [{"id": "1001", "name": "Radio Frequency Systems GmbH"}, {"id": "1002", "name": "Fenwick-Linde"}, {"id": "1003", "name": "Scalair"}, {"id": "1004", "name": "BPI group"}, {"id": "1005", "name": "HiQ"}, {"id": "1006", "name": "Cabinet Plasseraud"}, {"id": "1007", "name": "Pierre-Yves Rochon"}, {"id": "1008", "name": "INTERSCIENCE"}, {"id": "1009", "name": "Netika Real Estate Solutions"}, {"id": "1010", "name": "Northern Ireland Electricity Networks (NIE Networks)"}, {"id": "1011", "name": "Rakuten Aquafadas"}, {"id": "1012", "name": "ERDF"}, {"id": "1013", "name": "Euridis Business School"}, {"id": "1014", "name": "Cit\u00e9 internationale universitaire de Paris"}, {"id": "1015", "name": "Scottish Natural Heritage"}, {"id": "1016", "name": "Cylande"}, {"id": "1017", "name": "AlixPartners, LLP"}, {"id": "1018", "name": "Atos It Solutions And Services A S"}, {"id": "1019", "name": "Bpifrance"}, {"id": "1020", "name": "VISEO"}, {"id": "1021", "name": "EAS-Services"}, {"id": "1022", "name": "Baillie Gifford"}, {"id": "1023", "name": "Fed L\u00e9gal"}, {"id": "1024", "name": "Groupe Dupouy"}, {"id": "1025", "name": "Desialis"}, {"id": "1026", "name": "BBOXX LTD"}, {"id": "1027", "name": "Smiggle UK"}, {"id": "1028", "name": "Groupe Butard"}, {"id": "1029", "name": "SAS LOEUL et PIRIOT"}, {"id": "1030", "name": "Cr\u00e9dit Agricole Charente P\u00e9rigord"}, {"id": "1031", "name": "Credit Social Des Fonctionnaires"}, {"id": "1032", "name": "Signify"}, {"id": "1033", "name": "ondulys"}, {"id": "1034", "name": "DLL"}, {"id": "1035", "name": "Teleflex"}, {"id": "1036", "name": "Unofi"}, {"id": "1037", "name": "Randstad France"}, {"id": "1038", "name": "COMEXPOSIUM"}, {"id": "1039", "name": "National Grid"}, {"id": "1040", "name": "Church & Dwight Co., Inc."}, {"id": "1041", "name": "Axeo Services"}, {"id": "1042", "name": "HomeServe France"}, {"id": "1043", "name": "Leboncoin.fr"}, {"id": "1044", "name": "Axminster Tools and Machinery"}, {"id": "1045", "name": "MoovOne"}, {"id": "1046", "name": "O.C. Tanner"}, {"id": "1047", "name": "PassionFroid - Groupe Pomona"}, {"id": "1048", "name": "Octopus Investments"}, {"id": "1049", "name": "Guy Carpenter"}, {"id": "1050", "name": "Elizabeth Arden"}, {"id": "1051", "name": "EFE Management"}, {"id": "1052", "name": "The Car Finance Company (2007) Limited"}, {"id": "1053", "name": "CARIZY"}, {"id": "1054", "name": "Roseraies Meilland Richardier"}, {"id": "1055", "name": "Artsper"}, {"id": "1056", "name": "RATP Dev"}, {"id": "1057", "name": "Iris Capital"}, {"id": "1058", "name": "Planet Hollywood"}, {"id": "1059", "name": "Logica CMG"}, {"id": "1060", "name": "IPSEN"}, {"id": "1061", "name": "mytf1"}, {"id": "1062", "name": "Jardiland"}, {"id": "1063", "name": "habitat76"}, {"id": "1064", "name": "Gfi Informatique"}, {"id": "1065", "name": "Groupama Assurance-cr\u00e9dit & Caution"}, {"id": "1066", "name": "Audacy\u2728Designers d'innovations digitales"}, {"id": "1067", "name": "Publicis Groupe"}, {"id": "1068", "name": "Doubleverify"}, {"id": "1069", "name": "Brooks Automation"}, {"id": "1070", "name": "SITES SAS (France)"}, {"id": "1071", "name": "Publicis Conseil"}, {"id": "1072", "name": "SERIS France"}, {"id": "1073", "name": "Herbalife"}, {"id": "1074", "name": "Mediahuis nv"}, {"id": "1075", "name": "JACOBS DOUWE EGBERTS"}, {"id": "1076", "name": "Photomaton"}, {"id": "1077", "name": "BC Partners"}, {"id": "1078", "name": "APRR"}, {"id": "1079", "name": "ICG Medical"}, {"id": "1080", "name": "Jacquet Brossard"}, {"id": "1081", "name": "Marcel"}, {"id": "1082", "name": "EDF"}, {"id": "1083", "name": "Synchrone technologies"}, {"id": "1084", "name": "La Roue Verte"}, {"id": "1085", "name": "Emerson"}, {"id": "1086", "name": "Cr\u00e9dit Agricole Touraine Poitou"}, {"id": "1087", "name": "Bizon.Solutions"}, {"id": "1088", "name": "Cr\u00e9dit Agricole"}, {"id": "1089", "name": "New England Seafood"}, {"id": "1090", "name": "Technomedia Talent Management"}, {"id": "1091", "name": "S&H Group"}, {"id": "1092", "name": "Chantelle"}, {"id": "1093", "name": "Groupe Bertrand Recrutement"}, {"id": "1094", "name": "SAUR"}, {"id": "1095", "name": "Dayuse.com"}, {"id": "1096", "name": "Bilfinger SE"}, {"id": "1097", "name": "VACHERIN"}, {"id": "1098", "name": "Riversen"}, {"id": "1099", "name": "KPMG Norway"}, {"id": "1100", "name": "West Suffolk College"}], "page": 11, "has_more": true, "count": 8677}