{"results": [{"id": "3101", "name": "Peloton"}, {"id": "3102", "name": "EDHEC Business School"}, {"id": "3103", "name": "Euralis"}, {"id": "3104", "name": "Belambra"}, {"id": "3105", "name": "Groupe ERAM"}, {"id": "3106", "name": "Radius Payment Solutions"}, {"id": "3107", "name": "Integrated Micro-Electronics, Inc."}, {"id": "3108", "name": "Banque Postale"}, {"id": "3109", "name": "Brandalley"}, {"id": "3110", "name": "LSG Lufthansa Service Holding AG"}, {"id": "3111", "name": "Fenwick-Linde"}, {"id": "3112", "name": "SOMFY Group"}, {"id": "3113", "name": "Utilitywise"}, {"id": "3114", "name": "Valpak"}, {"id": "3115", "name": "Petits-fils"}, {"id": "3116", "name": "Verint Systems"}, {"id": "3117", "name": "Olympus France"}, {"id": "3118", "name": "Mettler-Toledo International, Inc"}, {"id": "3119", "name": "KLB Group"}, {"id": "3120", "name": "Nexeo Solutions"}, {"id": "3121", "name": "Volvo Car Group"}, {"id": "3122", "name": "BNP Paribas France"}, {"id": "3123", "name": "Electronic Arts (UK)"}, {"id": "3124", "name": "Accenture"}, {"id": "3125", "name": "VMP Group"}, {"id": "3126", "name": "Amazon.com, Inc."}, {"id": "3127", "name": "Universal Music Group"}, {"id": "3128", "name": "Perth & Kinross Council"}, {"id": "3129", "name": "EY (formerly Ernst & Young LLP)"}, {"id": "3130", "name": "GROUPE ROYER"}, {"id": "3131", "name": "The Adecco Group"}, {"id": "3132", "name": "Staples"}, {"id": "3133", "name": "Tough Mudder"}, {"id": "3134", "name": "Thales"}, {"id": "3135", "name": "Reinsurance Group of America"}, {"id": "3136", "name": "Capgemini France"}, {"id": "3137", "name": "Microsoft (Spain)"}, {"id": "3138", "name": "Google Inc."}, {"id": "3139", "name": "C&A France"}, {"id": "3140", "name": "Globalis media systems"}, {"id": "3141", "name": "Origin Energy"}, {"id": "3142", "name": "ENGIE - GROUPE"}, {"id": "3143", "name": "Dynamic Signal"}, {"id": "3144", "name": "CVO-EUROPE"}, {"id": "3145", "name": "RS2I"}, {"id": "3146", "name": "Hertz Global Holdings, Inc."}, {"id": "3147", "name": "Computer Sciences Corporation"}, {"id": "3148", "name": "NEXITY"}, {"id": "3149", "name": "Bouygues Construction"}, {"id": "3150", "name": "Chevron"}, {"id": "3151", "name": "Bearingpoint"}, {"id": "3152", "name": "Western Express"}, {"id": "3153", "name": "C. R. Bard, Inc."}, {"id": "3154", "name": "Toys R Us"}, {"id": "3155", "name": "Petit Bateau"}, {"id": "3156", "name": "Deloitte (Russia)"}, {"id": "3157", "name": "Dassault Syst\u00e8mes"}, {"id": "3158", "name": "IBM"}, {"id": "3159", "name": "SAP America, Inc."}, {"id": "3160", "name": "DIGIA\ufffd"}, {"id": "3161", "name": "Enterprise Rent-A-Car"}, {"id": "3162", "name": "Happychic"}, {"id": "3163", "name": "Columbia Sportswear Corp."}, {"id": "3164", "name": "Emerson Electric Co."}, {"id": "3165", "name": "Valeo France"}, {"id": "3166", "name": "GROUPE B AND B HOTELS"}, {"id": "3167", "name": "FM Logistic"}, {"id": "3168", "name": "Legrand"}, {"id": "3169", "name": "Flunch France"}, {"id": "3170", "name": "Pentair, Inc."}, {"id": "3171", "name": "AJC Ingenierie, Formation"}, {"id": "3172", "name": "Tangoe Inc."}, {"id": "3173", "name": "The Jones Financial Companies, L.L.L.P."}, {"id": "3174", "name": "Lancel"}, {"id": "3175", "name": "Zodiac Aerospace"}, {"id": "3176", "name": "Adidas Group"}, {"id": "3177", "name": "PeopleScout (Partner Account)"}, {"id": "3178", "name": "Kedge Business School"}, {"id": "3179", "name": "Altima"}, {"id": "3180", "name": "State Street (France)"}, {"id": "3181", "name": "Norauto"}, {"id": "3182", "name": "Varite"}, {"id": "3183", "name": "Aegon"}, {"id": "3184", "name": "CASTORAMA France"}, {"id": "3185", "name": "Virbac"}, {"id": "3186", "name": "Nuxe"}, {"id": "3187", "name": "Paul"}, {"id": "3188", "name": "Teradata"}, {"id": "3189", "name": "Textron Inc."}, {"id": "3190", "name": "PUBLICIS CONSULTANTS"}, {"id": "3191", "name": "BRICO DEPOT"}, {"id": "3192", "name": "Dalenys"}, {"id": "3193", "name": "HSBC ME"}, {"id": "3194", "name": "Airbus Group"}, {"id": "3195", "name": "Cr\u00e9dit Agricole IDF"}, {"id": "3196", "name": "Cielotalent"}, {"id": "3197", "name": "Hospimedia"}, {"id": "3198", "name": "Cr\u00e9dit Agricole Charente Maritime Deux-S\u00e8vres"}, {"id": "3199", "name": "Wind River"}, {"id": "3200", "name": "Veolia Environnement"}], "page": 32, "has_more": true, "count": 8677}