{"results": [{"id": "6801", "name": "DCNS"}, {"id": "6802", "name": "CR\u00c9DIT AGRICOLE ANJOU MAINE"}, {"id": "6803", "name": "CR\u00c9DIT AGRICOLE ALPES PROVENCE"}, {"id": "6804", "name": "CITRO\u00cbN"}, {"id": "6805", "name": "CR\u00c9DIT AGRICOLE DU LANGUEDOC"}, {"id": "6806", "name": "NTN-SNR"}, {"id": "6807", "name": "BULL"}, {"id": "6808", "name": "FENWICK-LINDE"}, {"id": "6809", "name": "Ville de Bruxelles"}, {"id": "6810", "name": "International Criminal Court"}, {"id": "6811", "name": "S\u00c9NAT"}, {"id": "6812", "name": "LES ECHOS GROUP"}, {"id": "6813", "name": "GROUPE BENETEAU"}, {"id": "6814", "name": "GROUPE PONTICELLI FR\u00c8RES"}, {"id": "6815", "name": "CR\u00c9DIT AGRICOLE CENTRE FRANCE"}, {"id": "6816", "name": "TROC DE L'ILE SA"}, {"id": "6817", "name": "Ducasse Paris"}, {"id": "6818", "name": "E*TRADE"}, {"id": "6819", "name": "Groupe The LINKS"}, {"id": "6820", "name": "Alinea"}, {"id": "6821", "name": "Bankin'\u200b"}, {"id": "6822", "name": "JEFF DE BRUGES"}, {"id": "6823", "name": "UCB S.A."}, {"id": "6824", "name": "Lumene Oy"}, {"id": "6825", "name": "Institut Technique Des Gaz et De L'air"}, {"id": "6826", "name": "Badakan"}, {"id": "6827", "name": "Oceanic Airlines"}, {"id": "6828", "name": "Nakatomi Corp."}, {"id": "6829", "name": "DHL"}, {"id": "6830", "name": "Sports Direct Austria"}, {"id": "6831", "name": "CREDIT IMMOBILIER DE FRANCE"}, {"id": "6832", "name": "VALEO POWERTRAIN"}, {"id": "6833", "name": "BNP PARIBAS PERSONAL FINANCE FRANCE"}, {"id": "6834", "name": "VINCI CONCESSIONS"}, {"id": "6835", "name": "SNCF RESEAU"}, {"id": "6836", "name": "MERCK MSD"}, {"id": "6837", "name": "CE C\u00d4TE D'AZUR"}, {"id": "6838", "name": "HARMONIE MUTUELLE"}, {"id": "6839", "name": "CEGID"}, {"id": "6840", "name": "ATOS"}, {"id": "6841", "name": "VEOLIA GROUP"}, {"id": "6842", "name": "BELIEVE DIGITAL"}, {"id": "6843", "name": "SQUARE MANAGEMENT"}, {"id": "6844", "name": "CARTIER JOAILLERIE"}, {"id": "6845", "name": "CANDIA"}, {"id": "6846", "name": "LEON GROSSE"}, {"id": "6847", "name": "ARKEMA"}, {"id": "6848", "name": "BANQUE POPULAIRE AQUITAINE CENTRE ATLANTIQUE"}, {"id": "6849", "name": "PFIZER"}, {"id": "6850", "name": "LEGRAND FRANCE"}, {"id": "6851", "name": "WEBHELP FRANCE"}, {"id": "6852", "name": "GROUPE ERAM"}, {"id": "6853", "name": "ODDO BHF"}, {"id": "6854", "name": "ENGIE CORP"}, {"id": "6855", "name": "SOPRASTERIA"}, {"id": "6856", "name": "EIFFAGE \u00c9NERGIE SYSTEMES"}, {"id": "6857", "name": "AUCHAN RETAIL"}, {"id": "6858", "name": "ALSTOM"}, {"id": "6859", "name": "ORANGE FRANCE"}, {"id": "6860", "name": "CA SUD M\u00c9DITERRAN\u00c9E"}, {"id": "6861", "name": "ENGIE BU FRANCE RENOUVELABLES"}, {"id": "6862", "name": "AG2R LA MONDIALE"}, {"id": "6863", "name": "FIVES ALUMINIUM"}, {"id": "6864", "name": "SOLOCAL GROUP"}, {"id": "6865", "name": "DOCAPOST"}, {"id": "6866", "name": "ECONOCOM"}, {"id": "6867", "name": "BOUYGUES"}, {"id": "6868", "name": "EUROPCAR FRANCE"}, {"id": "6869", "name": "TECHSELL"}, {"id": "6870", "name": "CEA"}, {"id": "6871", "name": "SUEZ"}, {"id": "6872", "name": "LEGRAND"}, {"id": "6873", "name": "APICIL"}, {"id": "6874", "name": "CREDIT FONCIER"}, {"id": "6875", "name": "ALTAREA COGEDIM"}, {"id": "6876", "name": "CARREFOUR GROUPE"}, {"id": "6877", "name": "SCC"}, {"id": "6878", "name": "LAT\u00c9CO\u00c8RE"}, {"id": "6879", "name": "BNP PARIBAS ITP"}, {"id": "6880", "name": "FENWICK LINDE"}, {"id": "6881", "name": "RUE DU COMMERCE"}, {"id": "6882", "name": "BIC WORLD"}, {"id": "6883", "name": "CA LORRAINE"}, {"id": "6884", "name": "XPO LOGISTICS SUPPLY CHAIN"}, {"id": "6885", "name": "M6"}, {"id": "6886", "name": "OMNISERVICES"}, {"id": "6887", "name": "EUROSPORT"}, {"id": "6888", "name": "AKKA TECHNOLOGIES"}, {"id": "6889", "name": "REXEL FRANCE"}, {"id": "6890", "name": "ESSILOR"}, {"id": "6891", "name": "SHISEIDO"}, {"id": "6892", "name": "PRINTEMPS"}, {"id": "6893", "name": "EURIAL"}, {"id": "6894", "name": "GROUPE BNP PARIBAS"}, {"id": "6895", "name": "NATIXIS"}, {"id": "6896", "name": "TOTAL"}, {"id": "6897", "name": "L'OR\u00c9AL GROUP"}, {"id": "6898", "name": "SONEPAR"}, {"id": "6899", "name": "GROUPE KRYS"}, {"id": "6900", "name": "SUEZ RECYCLAGE ET VALORISATION FRANCE"}], "page": 69, "has_more": true, "count": 8677}