{"results": [{"id": "3501", "name": "PARIS SAINT-GERMAIN"}, {"id": "3502", "name": "SAINT-GOBAIN DISTRIBUTION BATIMENT FRANCE"}, {"id": "3503", "name": "CYRILLUS VERTBAUDET GROUP"}, {"id": "3504", "name": "ACOLAD GROUP"}, {"id": "3505", "name": "KERING"}, {"id": "3506", "name": "ADECCO"}, {"id": "3507", "name": "NATURALIA"}, {"id": "3508", "name": "COCA-COLA EUROPEAN PARTNERS FRANCE"}, {"id": "3509", "name": "COMPAGNIE GENERALE DE NAVIGATION"}, {"id": "3510", "name": "MICHELIN"}, {"id": "3511", "name": "LVMH MOET HENNESSY LOUIS VUITTON"}, {"id": "3512", "name": "MUTEX"}, {"id": "3513", "name": "RAJA"}, {"id": "3514", "name": "PROMOD"}, {"id": "3515", "name": "CAPRABO S.A."}, {"id": "3516", "name": "IADVIZE"}, {"id": "3517", "name": "BERSHKA"}, {"id": "3518", "name": "IKEA FRANCE"}, {"id": "3519", "name": "HERTZ"}, {"id": "3520", "name": "ADIDAS"}, {"id": "3521", "name": "AG2R LA MONDIALE"}, {"id": "3522", "name": "DEINDEAL"}, {"id": "3523", "name": "C&A FRANCE"}, {"id": "3524", "name": "CORIOLIS TELECOM"}, {"id": "3525", "name": "ENGIE"}, {"id": "3526", "name": "AUCHAN RETAIL FRANCE"}, {"id": "3527", "name": "DESCOURS & CABAUD"}, {"id": "3528", "name": "TOUS"}, {"id": "3529", "name": "LACOSTE"}, {"id": "3530", "name": "CAMPING&CO"}, {"id": "3531", "name": "MEDIAMARKT IBERIA"}, {"id": "3532", "name": "MAXI TOYS"}, {"id": "3533", "name": "LA COMPAGNIE DU LIT"}, {"id": "3534", "name": "BUREAU VALLEE"}, {"id": "3535", "name": "SODEXO"}, {"id": "3536", "name": "EL CORTE INGLES"}, {"id": "3537", "name": "PRADA FRANCE"}, {"id": "3538", "name": "GRUPO PLANETA"}, {"id": "3539", "name": "GROUPE ARGUS"}, {"id": "3540", "name": "EARLY BIRDS"}, {"id": "3541", "name": "DDB"}, {"id": "3542", "name": "FEU VERT"}, {"id": "3543", "name": "SEZANE"}, {"id": "3544", "name": "LAGARD\u00c8RE ACTIVE"}, {"id": "3545", "name": "BRICO PRIV\u00c9"}, {"id": "3546", "name": "AGROMOUSQUETAIRES"}, {"id": "3547", "name": "CARREFOUR ESPA\u00d1A"}, {"id": "3548", "name": "IBERCAJA"}, {"id": "3549", "name": "GROUPE BPCE"}, {"id": "3550", "name": "LA VIE CLAIRE"}, {"id": "3551", "name": "BHV"}, {"id": "3552", "name": "PIERRE VACANCE & CENTER PARCS"}, {"id": "3553", "name": "LINKFLUENCE"}, {"id": "3554", "name": "BOUYGUES TELECOM"}, {"id": "3555", "name": "NATIXIS ASSURANCES"}, {"id": "3556", "name": "OGC NICE"}, {"id": "3557", "name": "IPPON TECHNOLOGIES"}, {"id": "3558", "name": "GRANDVISION FRANCE"}, {"id": "3559", "name": "FBD INTERNATIONAL"}, {"id": "3560", "name": "SWISS LIFE"}, {"id": "3561", "name": "GROUPE PICHET"}, {"id": "3562", "name": "CHAUSS'EXPO"}, {"id": "3563", "name": "ID KIDS GROUP"}, {"id": "3564", "name": "WAX INTERACTIVE"}, {"id": "3565", "name": "AXA INTERNATIONAL"}, {"id": "3566", "name": "CR\u00c9DIT AGRICOLE"}, {"id": "3567", "name": "ROYAL AIR MAROC"}, {"id": "3568", "name": "CATERPILLAR"}, {"id": "3569", "name": "MYPRM"}, {"id": "3570", "name": "GUERLAIN"}, {"id": "3571", "name": "RENE DERHY"}, {"id": "3572", "name": "BNP PARIBAS PERSONAL FINANCE"}, {"id": "3573", "name": "COMEXPOSIUM"}, {"id": "3574", "name": "BONPOINT"}, {"id": "3575", "name": "BBVA"}, {"id": "3576", "name": "GOOGLE FRANCE"}, {"id": "3577", "name": "BALEARIA"}, {"id": "3578", "name": "VENCA"}, {"id": "3579", "name": "LOUIS VUITTON"}, {"id": "3580", "name": "GAMELOFT"}, {"id": "3581", "name": "T-SYSTEMS"}, {"id": "3582", "name": "BAYER HEALTHCARE"}, {"id": "3583", "name": "COFARES"}, {"id": "3584", "name": "BETC"}, {"id": "3585", "name": "COMPARADISE"}, {"id": "3586", "name": "ALAIN AFFLELOU"}, {"id": "3587", "name": "ZAPA"}, {"id": "3588", "name": "FRANPRIX-LEADER PRICE"}, {"id": "3589", "name": "MAUBOUSSIN"}, {"id": "3590", "name": "CHAUSSEA"}, {"id": "3591", "name": "MILIBOO"}, {"id": "3592", "name": "RADIO FRANCE"}, {"id": "3593", "name": "FORUM SPORT"}, {"id": "3594", "name": "VACHERON"}, {"id": "3595", "name": "MCDONALD'S FRANCE"}, {"id": "3596", "name": "AIR TAHITI NUI"}, {"id": "3597", "name": "PUMA"}, {"id": "3598", "name": "EASYPARAPHARMACIE.COM"}, {"id": "3599", "name": "BABOLAT"}, {"id": "3600", "name": "F\u00c9D\u00c9RATION FRAN\u00c7AISE DE TENNIS"}], "page": 36, "has_more": true, "count": 8677}