{"results": [{"id": "1101", "name": "Euroserum"}, {"id": "1102", "name": "Sublime Skinz"}, {"id": "1103", "name": "AGYLIS"}, {"id": "1104", "name": "Urban Outfitters"}, {"id": "1105", "name": "OVH LTD"}, {"id": "1106", "name": "Basellandschaftliche Kantonalbank"}, {"id": "1107", "name": "Smile This Sound"}, {"id": "1108", "name": "Constantia Flexibles"}, {"id": "1109", "name": "Bouygues B\u00e2timent Ile-de-France"}, {"id": "1110", "name": "Groupe Legendre"}, {"id": "1111", "name": "Framery Acoustics"}, {"id": "1112", "name": "Korn Ferry"}, {"id": "1113", "name": "Medicis"}, {"id": "1114", "name": "TripleLift"}, {"id": "1115", "name": "Groupe RG"}, {"id": "1116", "name": "Kpmg Isle Of Man"}, {"id": "1117", "name": "GEODIS"}, {"id": "1118", "name": "sii.fr"}, {"id": "1119", "name": "ABN AMRO Commercial Finance SA"}, {"id": "1120", "name": "ProwebCE"}, {"id": "1121", "name": "Recast.AI"}, {"id": "1122", "name": "Bollor\u00e9 Logistics"}, {"id": "1123", "name": "Ad'missions"}, {"id": "1124", "name": "Look Voyages, S.A."}, {"id": "1125", "name": "Ministere de l'Environnement"}, {"id": "1126", "name": "Amadeus-Executives"}, {"id": "1127", "name": "Victor & Charles"}, {"id": "1128", "name": "InterQuest Group"}, {"id": "1129", "name": "Alliance Automotive Group UK"}, {"id": "1130", "name": "Oxymetal"}, {"id": "1131", "name": "SOLUTYS Group"}, {"id": "1132", "name": "Sarbec Cosmetics"}, {"id": "1133", "name": "Art Technology Group"}, {"id": "1134", "name": "interdrinks.fr"}, {"id": "1135", "name": "JOBBERRY"}, {"id": "1136", "name": "Acadomia"}, {"id": "1137", "name": "Grant Thornton LLP"}, {"id": "1138", "name": "Freudenberg Home and Cleaning Solutions GmbH"}, {"id": "1139", "name": "InVS"}, {"id": "1140", "name": "Capp"}, {"id": "1141", "name": "VetAgroSup - Campus V\u00e9t\u00e9rinaire de Lyon"}, {"id": "1142", "name": "Yoti Ltd"}, {"id": "1143", "name": "Groupe Randstad France"}, {"id": "1144", "name": "Proximus"}, {"id": "1145", "name": "L'Argus de la presse"}, {"id": "1146", "name": "Xynergy - Comme J'Aime"}, {"id": "1147", "name": "United Technologies Corporation"}, {"id": "1148", "name": "Parkeon"}, {"id": "1149", "name": "Ingersoll Rand"}, {"id": "1150", "name": "Auchan"}, {"id": "1151", "name": "McCann FitzGerald"}, {"id": "1152", "name": "Olympus"}, {"id": "1153", "name": "SAB2i"}, {"id": "1154", "name": "Puma Investments UK"}, {"id": "1155", "name": "BNP Paribas Personal Finance"}, {"id": "1156", "name": "DE SANGOSSE"}, {"id": "1157", "name": "Etisalat"}, {"id": "1158", "name": "Asfored"}, {"id": "1159", "name": "Lafarge"}, {"id": "1160", "name": "Caf\u00e9s Richard"}, {"id": "1161", "name": "CAR'GO"}, {"id": "1162", "name": "Catalys Conseil"}, {"id": "1163", "name": "Elavon, Inc."}, {"id": "1164", "name": "JS-Republic"}, {"id": "1165", "name": "SAS"}, {"id": "1166", "name": "Ellipse Projects SAS"}, {"id": "1167", "name": "Groupe APLITEC"}, {"id": "1168", "name": "A2Dominion"}, {"id": "1169", "name": "COOPTaliS"}, {"id": "1170", "name": "Spring France"}, {"id": "1171", "name": "Educazen"}, {"id": "1172", "name": "KONICA MINOLTA, INC."}, {"id": "1173", "name": "E-Tan"}, {"id": "1174", "name": "The Moneytizer"}, {"id": "1175", "name": "ORC Communications"}, {"id": "1176", "name": "KPMG Norway"}, {"id": "1177", "name": "AP-HP"}, {"id": "1178", "name": "Logirem"}, {"id": "1179", "name": "Banque de France"}, {"id": "1180", "name": "ibm"}, {"id": "1181", "name": "Jagex Ltd"}, {"id": "1182", "name": "THORNTONS LTD."}, {"id": "1183", "name": "Pharminov"}, {"id": "1184", "name": "Wargaming"}, {"id": "1185", "name": "MediaMarktSaturn"}, {"id": "1186", "name": "jaguar land rover"}, {"id": "1187", "name": "METRO Cash and Carry France"}, {"id": "1188", "name": "apicil"}, {"id": "1189", "name": "Airbus Helicopters, Inc."}, {"id": "1190", "name": "Bjorg Bonneterre & Compagnie"}, {"id": "1191", "name": "CGG"}, {"id": "1192", "name": "OVH Limited"}, {"id": "1193", "name": "DELABIE"}, {"id": "1194", "name": "Platform.sh SAS"}, {"id": "1195", "name": "Boulanger"}, {"id": "1196", "name": "Marriott International, Inc."}, {"id": "1197", "name": "North East Lincolnshire Council"}, {"id": "1198", "name": "Groupama Protection Juridique"}, {"id": "1199", "name": "BAE Systems"}, {"id": "1200", "name": "Smiirl"}], "page": 12, "has_more": true, "count": 8677}