{"results": [{"id": "2101", "name": "Cuisines AvivA"}, {"id": "2102", "name": "Dentsu Aegis Network"}, {"id": "2103", "name": "Cotton Traders"}, {"id": "2104", "name": "The Kase"}, {"id": "2105", "name": "The Janssen Pharmaceutical Companies of Johnson & Johnson"}, {"id": "2106", "name": "Apsys Polska"}, {"id": "2107", "name": "Capio"}, {"id": "2108", "name": "Louvre Hotels Group"}, {"id": "2109", "name": "ASICS America Corporation"}, {"id": "2110", "name": "Birkbeck, University Of London"}, {"id": "2111", "name": "BROTHER FRANCE"}, {"id": "2112", "name": "Lane4"}, {"id": "2113", "name": "SKEMA Business School"}, {"id": "2114", "name": "Brandwidth"}, {"id": "2115", "name": "De Neuville"}, {"id": "2116", "name": "Worldline"}, {"id": "2117", "name": "Credit Foncier Immobilier"}, {"id": "2118", "name": "Flexico"}, {"id": "2119", "name": "API Restauration"}, {"id": "2120", "name": "L'Assurance retraite"}, {"id": "2121", "name": "Eurogroup Consulting"}, {"id": "2122", "name": "UNILAD"}, {"id": "2123", "name": "Michel Creuzot"}, {"id": "2124", "name": "Good Go\u00fbt"}, {"id": "2125", "name": "Mydral"}, {"id": "2126", "name": "HSBC"}, {"id": "2127", "name": "CO-EFFICIENCE"}, {"id": "2128", "name": "Alcyon"}, {"id": "2129", "name": "Caisse d'Epargne CEPAC"}, {"id": "2130", "name": "Le Bon March\u00e9 Rive Gauche"}, {"id": "2131", "name": "APIXIT"}, {"id": "2132", "name": "G\u00e9rard Bertrand"}, {"id": "2133", "name": "Enercoop"}, {"id": "2134", "name": "wavy.fr"}, {"id": "2135", "name": "Renault"}, {"id": "2136", "name": "Allianz"}, {"id": "2137", "name": "Oil & Gas UK"}, {"id": "2138", "name": "Otelo"}, {"id": "2139", "name": "World Med Assistance"}, {"id": "2140", "name": "Tharios"}, {"id": "2141", "name": "TVA Conseil"}, {"id": "2142", "name": "EUROCONTROL"}, {"id": "2143", "name": "Collaborative Solutions, LLC"}, {"id": "2144", "name": "Cinaps"}, {"id": "2145", "name": "SanteVet"}, {"id": "2146", "name": "Conserto"}, {"id": "2147", "name": "vfd.fr"}, {"id": "2148", "name": "Wedia SA"}, {"id": "2149", "name": "IPLine"}, {"id": "2150", "name": "sephora"}, {"id": "2151", "name": "ADECCO PME"}, {"id": "2152", "name": "Adenclassifieds"}, {"id": "2153", "name": "Sunrise Communications AG"}, {"id": "2154", "name": "Sercel"}, {"id": "2155", "name": "Arval"}, {"id": "2156", "name": "QuiToque"}, {"id": "2157", "name": "Groupe ADP"}, {"id": "2158", "name": "COHESION INTERNATIONAL Sp\u00e9cialiste de l'Efficience durable"}, {"id": "2159", "name": "Millesima SA"}, {"id": "2160", "name": "SEPHORA"}, {"id": "2161", "name": "KPMG Crimsonwing"}, {"id": "2162", "name": "Brown Brothers Harriman"}, {"id": "2163", "name": "TRAXENS"}, {"id": "2164", "name": "OVH LTD"}, {"id": "2165", "name": "InvenSense Inc."}, {"id": "2166", "name": "Getpro"}, {"id": "2167", "name": "France T\u00e9l\u00e9visions"}, {"id": "2168", "name": "AppScho"}, {"id": "2169", "name": "Air Liquide"}, {"id": "2170", "name": "LANVIN"}, {"id": "2171", "name": "Exton Consulting"}, {"id": "2172", "name": "CCLD Recrutement"}, {"id": "2173", "name": "AntemetA"}, {"id": "2174", "name": "VIPARIS"}, {"id": "2175", "name": "Intercom, Inc."}, {"id": "2176", "name": "OCEALLIANCE"}, {"id": "2177", "name": "Siconet"}, {"id": "2178", "name": "Groupe Caisse d'Epargne"}, {"id": "2179", "name": "THE COCA-COLA COMPANY"}, {"id": "2180", "name": "Companeo SA"}, {"id": "2181", "name": "Cashpad"}, {"id": "2182", "name": "The Adecco Group"}, {"id": "2183", "name": "Gecina"}, {"id": "2184", "name": "ptc"}, {"id": "2185", "name": "Stokomani"}, {"id": "2186", "name": "Infopro Digital"}, {"id": "2187", "name": "Bp Gas Plant"}, {"id": "2188", "name": "Linedata"}, {"id": "2189", "name": "altima"}, {"id": "2190", "name": "CetSI"}, {"id": "2191", "name": "san marina"}, {"id": "2192", "name": "Chlo\u00e9"}, {"id": "2193", "name": "RestoFlash"}, {"id": "2194", "name": "North Midland Construction PLC (NM Group)"}, {"id": "2195", "name": "KPMG Switzerland"}, {"id": "2196", "name": "Etat de Neuch\u00e2tel"}, {"id": "2197", "name": "AIESEC Blanquerna"}, {"id": "2198", "name": "SeaBird"}, {"id": "2199", "name": "LumApps - The Social Intranet recommended by Google"}, {"id": "2200", "name": "TTEC"}], "page": 22, "has_more": true, "count": 8677}