{"results": [{"id": "7201", "name": "hosman.co"}, {"id": "7202", "name": "bigblank.co"}, {"id": "7203", "name": "hec.fr"}, {"id": "7204", "name": "compta-clementine.fr"}, {"id": "7205", "name": "lvmh.fr"}, {"id": "7206", "name": "ringover.com"}, {"id": "7207", "name": "lunc.hr"}, {"id": "7208", "name": "textmaster.com"}, {"id": "7209", "name": "ubble.ai"}, {"id": "7210", "name": "AOS"}, {"id": "7211", "name": "innovorder.fr"}, {"id": "7212", "name": "talent.io"}, {"id": "7213", "name": "groover.co"}, {"id": "7214", "name": "eventmaker.io"}, {"id": "7215", "name": "club-internet.fr"}, {"id": "7216", "name": "fr.360learning.com"}, {"id": "7217", "name": "oyst.com"}, {"id": "7218", "name": "verticalstation.com"}, {"id": "7219", "name": "tech.rocks"}, {"id": "7220", "name": "Kerala Ventures"}, {"id": "7221", "name": "wedoogift.com"}, {"id": "7222", "name": "studio-dot.fr"}, {"id": "7223", "name": "semrush.com"}, {"id": "7224", "name": "hellojam.fr"}, {"id": "7225", "name": "blendy.co"}, {"id": "7226", "name": "labanquepostale.fr"}, {"id": "7227", "name": "BNP PARIBAS SA"}, {"id": "7228", "name": "CR\u00c9DIT AGRICOLE CONSUMER FINANCE"}, {"id": "7229", "name": "BANQUE POPULAIRE GRAND OUEST"}, {"id": "7230", "name": "BNP PARIBAS"}, {"id": "7231", "name": "VAN CLEEF & ARPELS SUISSE"}, {"id": "7232", "name": "VALEO"}, {"id": "7233", "name": "GROUPE PSA"}, {"id": "7234", "name": "ARCELORMITTAL"}, {"id": "7235", "name": "VIRBAC"}, {"id": "7236", "name": "AIR LIQUIDE HEALTHCARE"}, {"id": "7237", "name": "BNP PARIBAS PERSONAL FINANCE"}, {"id": "7238", "name": "HUB ONE"}, {"id": "7239", "name": "VEOLIA"}, {"id": "7240", "name": "PARFUMS CHRISTIAN DIOR"}, {"id": "7241", "name": "BNP PARIBAS CORPORATE & INSTITUTIONAL BANKING"}, {"id": "7242", "name": "DALKIA"}, {"id": "7243", "name": "BPCE SA"}, {"id": "7244", "name": "ZOETIS"}, {"id": "7245", "name": "ENDEL ENGIE"}, {"id": "7246", "name": "BOUYGUES SA"}, {"id": "7247", "name": "POINT P"}, {"id": "7248", "name": "LA FRANCAISE DES JEUX"}, {"id": "7249", "name": "GRT GAZ"}, {"id": "7250", "name": "GROUPAMA LOIRE BRETAGNE"}, {"id": "7251", "name": "MEDIAPOST"}, {"id": "7252", "name": "GROUPAMA SUPPORTS ET SERVICES"}, {"id": "7253", "name": "CLUB MED"}, {"id": "7254", "name": "GROUPAMA CENTRE MANCHE"}, {"id": "7255", "name": "ORANO"}, {"id": "7256", "name": "CAISSE D'EPARGNE RH\u00d4NE-ALPES"}, {"id": "7257", "name": "VEOLIA INDUSTRIES"}, {"id": "7258", "name": "HEINEKEN"}, {"id": "7259", "name": "COLAS"}, {"id": "7260", "name": "IFCAM UNIVERSIT\u00c9"}, {"id": "7261", "name": "TOTAL"}, {"id": "7262", "name": "ALLIANZ"}, {"id": "7263", "name": "BNP PARIBAS CARDIF"}, {"id": "7264", "name": "BNP PARIBAS ITG"}, {"id": "7265", "name": "GROUPE AVRIL"}, {"id": "7266", "name": "L\u00c9ON GROSSE"}, {"id": "7267", "name": "BNP PARIBAS INSPECTION G\u00c9N\u00c9RALE"}, {"id": "7268", "name": "UNIVERSIT\u00c9 PERNOD RICARD"}, {"id": "7269", "name": "DESCOURS & CABAUD"}, {"id": "7270", "name": "LACTALIS"}, {"id": "7271", "name": "SCOR SE"}, {"id": "7272", "name": "POLE EMPLOI"}, {"id": "7273", "name": "GROUPAMA PROTECTION JURIDIQUE"}, {"id": "7274", "name": "SAINT-GOBAIN"}, {"id": "7275", "name": "MANPOWER"}, {"id": "7276", "name": "YVES ROCHER"}, {"id": "7277", "name": "HERM\u00c8S INTERNATIONAL"}, {"id": "7278", "name": "L'OR\u00c9AL"}, {"id": "7279", "name": "SODEXO"}, {"id": "7280", "name": "ARMATIS LC"}, {"id": "7281", "name": "ARMAND THIERY"}, {"id": "7282", "name": "BANQUE DE FRANCE"}, {"id": "7283", "name": "CONFORAMA"}, {"id": "7284", "name": "NISSAN"}, {"id": "7285", "name": "CELGENE"}, {"id": "7286", "name": "GRAS SAVOYE"}, {"id": "7287", "name": "AKZONOBEL"}, {"id": "7288", "name": "CARSAT SUD-EST"}, {"id": "7289", "name": "DALKIA FROID SOLUTIONS"}, {"id": "7290", "name": "GROUPE SAMSE"}, {"id": "7291", "name": "GROUPAMA PARIS VAL DE LOIRE"}, {"id": "7292", "name": "SODIAAL INTERNATIONAL"}, {"id": "7293", "name": "DERICHEBOURG AERONAUTIQUES"}, {"id": "7294", "name": "SNCF TRANSILIEN"}, {"id": "7295", "name": "DIAGNOSTICA STAGO"}, {"id": "7296", "name": "AVEM"}, {"id": "7297", "name": "BNP PARIBAS IMMOBILIER"}, {"id": "7298", "name": "CNAV"}, {"id": "7299", "name": "BNP PARIBAS IMEX"}, {"id": "7300", "name": "KNAUF PLATRES"}], "page": 73, "has_more": true, "count": 8677}