{"results": [{"id": "7101", "name": "Chevignon"}, {"id": "7102", "name": "Thiga"}, {"id": "7103", "name": "Boulanger (Groupe Mulliez)"}, {"id": "7104", "name": "Casino Group (mulliez)"}, {"id": "7105", "name": "Dorcel"}, {"id": "7106", "name": "Appannie"}, {"id": "7107", "name": "batiweb.com"}, {"id": "7108", "name": "TF1"}, {"id": "7109", "name": "Bexley"}, {"id": "7110", "name": "Accor Hotels Group"}, {"id": "7111", "name": "Skimium"}, {"id": "7112", "name": "MeilleursAgents"}, {"id": "7113", "name": "Lagard\u00e8re"}, {"id": "7114", "name": "Generic"}, {"id": "7115", "name": "Photobox"}, {"id": "7116", "name": "Jardiland"}, {"id": "7117", "name": "L'Occitane en Provence"}, {"id": "7118", "name": "Franfinance"}, {"id": "7119", "name": "Havas"}, {"id": "7120", "name": "Weekendesk"}, {"id": "7121", "name": "Google"}, {"id": "7122", "name": "Sandaya"}, {"id": "7123", "name": "Withings"}, {"id": "7124", "name": "Proximus"}, {"id": "7125", "name": "YoupiJob"}, {"id": "7126", "name": "talkSpirit"}, {"id": "7127", "name": "Slidor"}, {"id": "7128", "name": "Ouihelp"}, {"id": "7129", "name": "Vroomly "}, {"id": "7130", "name": "illiCopro"}, {"id": "7131", "name": "HostnFly"}, {"id": "7132", "name": "Mirakl"}, {"id": "7133", "name": "LVMH"}, {"id": "7134", "name": "Dolist"}, {"id": "7135", "name": "Simundia"}, {"id": "7136", "name": "Allianz France"}, {"id": "7137", "name": "CleverConnect"}, {"id": "7138", "name": "BNP Paribas"}, {"id": "7139", "name": "Legrand France"}, {"id": "7140", "name": "Contentsquare"}, {"id": "7141", "name": "World Sellers"}, {"id": "7142", "name": "Kapten"}, {"id": "7143", "name": "Le Wagon"}, {"id": "7144", "name": "AccorHotels"}, {"id": "7145", "name": "Sociabble, Inc."}, {"id": "7146", "name": "Proprioo"}, {"id": "7147", "name": "DiGEiZ"}, {"id": "7148", "name": "Accenture"}, {"id": "7149", "name": "Julie Desk"}, {"id": "7150", "name": "XAnge"}, {"id": "7151", "name": "Snapcall"}, {"id": "7152", "name": "Datananas"}, {"id": "7153", "name": "LinkedHub"}, {"id": "7154", "name": "L'Or\u00e9al"}, {"id": "7155", "name": "leah.care"}, {"id": "7156", "name": "Destygo"}, {"id": "7157", "name": "Dataiku"}, {"id": "7158", "name": "Supermood"}, {"id": "7159", "name": "numberly"}, {"id": "7160", "name": "Algolia"}, {"id": "7161", "name": "Sidetrade"}, {"id": "7162", "name": "Eat5"}, {"id": "7163", "name": "Planity"}, {"id": "7164", "name": "ToucanToco"}, {"id": "7165", "name": "Proximis"}, {"id": "7166", "name": "SAP"}, {"id": "7167", "name": "Coorpacademy"}, {"id": "7168", "name": "Google"}, {"id": "7169", "name": "Unit4"}, {"id": "7170", "name": "Javelo"}, {"id": "7171", "name": "Cornerstone OnDemand"}, {"id": "7172", "name": "Contentsquare"}, {"id": "7173", "name": "Askoria"}, {"id": "7174", "name": "Cr\u00e9dit Agricole des Savoie"}, {"id": "7175", "name": "SAFIGEC"}, {"id": "7176", "name": "The Body Shop Austria"}, {"id": "7177", "name": "AB Tasty"}, {"id": "7178", "name": "Groupe Rocher / Dr. Pierre Ricaud"}, {"id": "7179", "name": "Engie"}, {"id": "7180", "name": "Vertbaudet"}, {"id": "7181", "name": "Microsoft Corp."}, {"id": "7182", "name": "Relaxnews"}, {"id": "7183", "name": "Groupe Revue Fiduciaire"}, {"id": "7184", "name": "Australie"}, {"id": "7185", "name": "French Bee"}, {"id": "7186", "name": "KB8"}, {"id": "7187", "name": "Twilio Inc."}, {"id": "7188", "name": "GRAS SAVOYE WILLIS TOWERS WATSON FRANCE"}, {"id": "7189", "name": "IMMONET"}, {"id": "7190", "name": "partoo.fr"}, {"id": "7191", "name": "theodo.fr"}, {"id": "7192", "name": "thestorefront.com"}, {"id": "7193", "name": "thefamily.co"}, {"id": "7194", "name": "minutebuzz.com"}, {"id": "7195", "name": "sparted.com"}, {"id": "7196", "name": "smart-renting.com"}, {"id": "7197", "name": "sarbacane.com"}, {"id": "7198", "name": "kinov.io"}, {"id": "7199", "name": "moovone.fr"}, {"id": "7200", "name": "golem.ai"}], "page": 72, "has_more": true, "count": 8677}