{"results": [{"id": "4601", "name": "Thom Europe"}, {"id": "4602", "name": "Aconex Ltd"}, {"id": "4603", "name": "Deloitte Australia"}, {"id": "4604", "name": "Bubendorff"}, {"id": "4605", "name": "BNP PARIBAS PERSONAL FINANCE"}, {"id": "4606", "name": "ADELIUS"}, {"id": "4607", "name": "Veran Performance Ltd"}, {"id": "4608", "name": "Confiserie L\u00e9onidas SA"}, {"id": "4609", "name": "Groupe Flo"}, {"id": "4610", "name": "Lewis"}, {"id": "4611", "name": "Parc Ast\u00e9rix"}, {"id": "4612", "name": "LOCATEL FRANCE"}, {"id": "4613", "name": "KPMG"}, {"id": "4614", "name": "Lifeaz"}, {"id": "4615", "name": "ManpowerGroup Nederland"}, {"id": "4616", "name": "Fidessa group plc"}, {"id": "4617", "name": "Alcuin"}, {"id": "4618", "name": "Groupe Atlantic"}, {"id": "4619", "name": "Cream Consulting"}, {"id": "4620", "name": "Saint-Gobain Distribution B\u00e2timent France"}, {"id": "4621", "name": "PAGES JAUNES SA"}, {"id": "4622", "name": "PRIME ENGINEERING"}, {"id": "4623", "name": "AEG"}, {"id": "4624", "name": "FoyleFoodGroup"}, {"id": "4625", "name": "Citodi"}, {"id": "4626", "name": "Cr\u00e9dit Agricole Centre Loire"}, {"id": "4627", "name": "Procurement Leaders"}, {"id": "4628", "name": "The Institute of the Motor Industry"}, {"id": "4629", "name": "5\u00e0sec"}, {"id": "4630", "name": "The MRJ Group"}, {"id": "4631", "name": "Groupe Roullier"}, {"id": "4632", "name": "MEDIAMETRIE"}, {"id": "4633", "name": "Remote Year, Inc."}, {"id": "4634", "name": "Arriva"}, {"id": "4635", "name": "Beeline Group"}, {"id": "4636", "name": "Sefico Nexia"}, {"id": "4637", "name": "Vector Aerospace"}, {"id": "4638", "name": "Gamm vert"}, {"id": "4639", "name": "AMJ PLANS"}, {"id": "4640", "name": "Urbat"}, {"id": "4641", "name": "IQ-EQ"}, {"id": "4642", "name": "Hawksmoor"}, {"id": "4643", "name": "CCCA-BTP"}, {"id": "4644", "name": "umicore"}, {"id": "4645", "name": "Stryker"}, {"id": "4646", "name": "AFTRAL"}, {"id": "4647", "name": "Opera Energie"}, {"id": "4648", "name": "mt-partners.fr"}, {"id": "4649", "name": "Atmosph\u00e8res"}, {"id": "4650", "name": "Diveintar Marine"}, {"id": "4651", "name": "Rockwell Collins"}, {"id": "4652", "name": "Burnley Borough Council"}, {"id": "4653", "name": "UK Parliament"}, {"id": "4654", "name": "Freight Hub"}, {"id": "4655", "name": "Approach People Recruitment Ltd"}, {"id": "4656", "name": "RH\u00e9Solution"}, {"id": "4657", "name": "City, University of London"}, {"id": "4658", "name": "BNP Paribas"}, {"id": "4659", "name": "Crop's"}, {"id": "4660", "name": "Svitzer"}, {"id": "4661", "name": "Sarthe Habitat"}, {"id": "4662", "name": "BOIRON"}, {"id": "4663", "name": "Vinci Park Inc"}, {"id": "4664", "name": "abbvie"}, {"id": "4665", "name": "HAND PICKED HOTELS"}, {"id": "4666", "name": "Air Liquide Sant\u00e9 Domicile"}, {"id": "4667", "name": "monetate"}, {"id": "4668", "name": "MACSF"}, {"id": "4669", "name": "AXESSIO"}, {"id": "4670", "name": "Paris Saint-Germain"}, {"id": "4671", "name": "PineBridge Investments LLC"}, {"id": "4672", "name": "Timspirit"}, {"id": "4673", "name": "Generali France"}, {"id": "4674", "name": "Conseil R\u00e9gional Ile de France"}, {"id": "4675", "name": "ARKEA"}, {"id": "4676", "name": "Bluewolf"}, {"id": "4677", "name": "MINOR,WEIR AND WILLIS LIMITED"}, {"id": "4678", "name": "Clear Law Solicitors LLP"}, {"id": "4679", "name": "Toulouse Business School"}, {"id": "4680", "name": "PELLENC SA"}, {"id": "4681", "name": "UCPA"}, {"id": "4682", "name": "Entrepose"}, {"id": "4683", "name": "Cushman & Wakefield Inc."}, {"id": "4684", "name": "Google Inc"}, {"id": "4685", "name": "ARVATO BUSINESS DEVELOPPEMENT"}, {"id": "4686", "name": "IGS / AMERICAN BUSINESS SCHOOL OF PARIS"}, {"id": "4687", "name": "Sciences Po Lille"}, {"id": "4688", "name": "Xaxis"}, {"id": "4689", "name": "Inra"}, {"id": "4690", "name": "JacTravel Limited"}, {"id": "4691", "name": "SWM SERVICES"}, {"id": "4692", "name": "Catalent, Inc"}, {"id": "4693", "name": "Lorien"}, {"id": "4694", "name": "Hotels.com, L.P."}, {"id": "4695", "name": "OVH LTD"}, {"id": "4696", "name": "xerox"}, {"id": "4697", "name": "Kingsley Napley LLP"}, {"id": "4698", "name": "Prisma International"}, {"id": "4699", "name": "White & Case LLP"}, {"id": "4700", "name": "STELIA AEROSPACE"}], "page": 47, "has_more": true, "count": 8677}