{"results": [{"id": "8301", "name": "Eden-Park"}, {"id": "8302", "name": "Nat & Nin"}, {"id": "8303", "name": "Joules"}, {"id": "8304", "name": "Trasluz"}, {"id": "8305", "name": "MyBizDev"}, {"id": "8306", "name": "Qapa"}, {"id": "8307", "name": "Ca-Loirehauteloire"}, {"id": "8308", "name": "Setec Oy"}, {"id": "8309", "name": "Groupe Adecco France"}, {"id": "8310", "name": "PISCINES MAGILINE"}, {"id": "8311", "name": "Growth Makers"}, {"id": "8312", "name": "Dinno Sante"}, {"id": "8313", "name": "Cyrillus"}, {"id": "8314", "name": "Ag2rlamondiale"}, {"id": "8315", "name": "Search Foresight"}, {"id": "8316", "name": "Captain Ferry"}, {"id": "8317", "name": "cognitive-companions.com"}, {"id": "8318", "name": "Epitech"}, {"id": "8319", "name": "Meersens"}, {"id": "8320", "name": "LinkedIn"}, {"id": "8321", "name": "Breguet"}, {"id": "8322", "name": "veesion.io"}, {"id": "8323", "name": "Exponens"}, {"id": "8324", "name": "ALPHA-3i"}, {"id": "8325", "name": "OUEST ACRO"}, {"id": "8326", "name": "EPHEC"}, {"id": "8327", "name": "Vade Secure"}, {"id": "8328", "name": "aceenergie.com"}, {"id": "8329", "name": "Censio"}, {"id": "8330", "name": "Yahoo! Inc."}, {"id": "8331", "name": "Pim-Bim"}, {"id": "8332", "name": "Google Inc"}, {"id": "8333", "name": "Talentia Software"}, {"id": "8334", "name": "Urbis R\u00e9alisations"}, {"id": "8335", "name": "Onroak Automotive"}, {"id": "8336", "name": "Adok"}, {"id": "8337", "name": "AssoConnect"}, {"id": "8338", "name": "MADEINVOTE"}, {"id": "8339", "name": "Schneider Electric"}, {"id": "8340", "name": "VICAT"}, {"id": "8341", "name": "Orion Digital Business Madagascar"}, {"id": "8342", "name": "Compta Clementine"}, {"id": "8343", "name": "Namkin"}, {"id": "8344", "name": "Deepki"}, {"id": "8345", "name": "ForCity"}, {"id": "8346", "name": "UPEC"}, {"id": "8347", "name": "Mixdata"}, {"id": "8348", "name": "Business France"}, {"id": "8349", "name": "Matsuri"}, {"id": "8350", "name": "FOOT LOCKER FRANCE"}, {"id": "8351", "name": "SOCI\u00c9T\u00c9 CARTIER"}, {"id": "8352", "name": "BENEFIT COSMETICS"}, {"id": "8353", "name": "Incenteev"}, {"id": "8354", "name": "Teads"}, {"id": "8355", "name": "Kersia"}, {"id": "8356", "name": "Cr\u00e9dit Agricole | Nord Midi-Pyr\u00e9n\u00e9es"}, {"id": "8357", "name": "FlexyBeauty"}, {"id": "8358", "name": "Klaxit"}, {"id": "8359", "name": "Jus Mundi"}, {"id": "8360", "name": "Itelligence Inc"}, {"id": "8361", "name": "London Borough Of Redbridge"}, {"id": "8362", "name": "Webedia"}, {"id": "8363", "name": "Agence Copernic"}, {"id": "8364", "name": "Profideo"}, {"id": "8365", "name": "I\u00c9SEG School of Management"}, {"id": "8366", "name": "SOCOTEC"}, {"id": "8367", "name": "ACOEM"}, {"id": "8368", "name": "Plastic Omnium"}, {"id": "8369", "name": "OVH LTD"}, {"id": "8370", "name": "Livestorm SAS"}, {"id": "8371", "name": "Brennus Analytics"}, {"id": "8372", "name": "Sodepac International"}, {"id": "8373", "name": "Yper"}, {"id": "8374", "name": "Sadec Akelys"}, {"id": "8375", "name": "SPARTED"}, {"id": "8376", "name": "black-sheep.io"}, {"id": "8377", "name": "SFR"}, {"id": "8378", "name": "Luko"}, {"id": "8379", "name": "InterCloud"}, {"id": "8380", "name": "ChoYou"}, {"id": "8381", "name": "Mon Chasseur Immo"}, {"id": "8382", "name": "Gmail"}, {"id": "8383", "name": "Pinpo"}, {"id": "8384", "name": "A2 Conseil"}, {"id": "8385", "name": "alec42.org"}, {"id": "8386", "name": "Sia Partners"}, {"id": "8387", "name": "Bpifrance"}, {"id": "8388", "name": "Groupe Finaxim"}, {"id": "8389", "name": "PITNEY BOWES FRANCE"}, {"id": "8390", "name": "PrimeRevenue"}, {"id": "8391", "name": "Adlead Portugal"}, {"id": "8392", "name": "Emakina.FR"}, {"id": "8393", "name": "Microsoft"}, {"id": "8394", "name": "Aubade Paris"}, {"id": "8395", "name": "PULSAT"}, {"id": "8396", "name": "L'Oreal Canada"}, {"id": "8397", "name": "Baccarat"}, {"id": "8398", "name": "Les Mousquetaires"}, {"id": "8399", "name": "Coty Inc. USA"}, {"id": "8400", "name": "ORSAY GmbH"}], "page": 84, "has_more": true, "count": 8677}