{"results": [{"id": "7801", "name": "FBD INTERNATIONAL"}, {"id": "7802", "name": "LVMH"}, {"id": "7803", "name": "L'OR\u00c9AL"}, {"id": "7804", "name": "Groupe Carrefour"}, {"id": "7805", "name": "SUEZ"}, {"id": "7806", "name": "GOOGLE FRANCE"}, {"id": "7807", "name": "Jennyfer"}, {"id": "7808", "name": "VIVENDI"}, {"id": "7809", "name": "ACCENTURE"}, {"id": "7810", "name": "FRANCE INTER"}, {"id": "7811", "name": "Relais Colis"}, {"id": "7812", "name": "ACCORHOTELS"}, {"id": "7813", "name": "IKEA FRANCE"}, {"id": "7814", "name": "BNP PARIBAS"}, {"id": "7815", "name": "Ponroy Sant\u00e9"}, {"id": "7816", "name": "ORANGE"}, {"id": "7817", "name": "Blablacar"}, {"id": "7818", "name": "GOOGLE FRANCE"}, {"id": "7819", "name": "Cofidis"}, {"id": "7820", "name": "DANONE EAUX"}, {"id": "7821", "name": "C&A Online Gmbh"}, {"id": "7822", "name": "Matmut"}, {"id": "7823", "name": "CONTENT SQUARE"}, {"id": "7824", "name": "ODALYS"}, {"id": "7825", "name": "AXA"}, {"id": "7826", "name": "Orange Pl"}, {"id": "7827", "name": "BNP PARIBAS"}, {"id": "7828", "name": "PERNOD RICARD"}, {"id": "7829", "name": "Cheerz"}, {"id": "7830", "name": "GOOGLE FRANCE"}, {"id": "7831", "name": "Made In Design"}, {"id": "7832", "name": "B&B HOTELS"}, {"id": "7833", "name": "BOULANGER"}, {"id": "7834", "name": "France Tv"}, {"id": "7835", "name": "Groupe Accor Sa - Accor Hotels"}, {"id": "7836", "name": "F\u00c9D\u00c9RATION FRAN\u00c7AISE DE TENNIS"}, {"id": "7837", "name": "HEWLETT PACKARD FRANCE"}, {"id": "7838", "name": "Printemps Place des tendances"}, {"id": "7839", "name": "SARENZA"}, {"id": "7840", "name": "EUROMASTER"}, {"id": "7841", "name": "KPMG S.A"}, {"id": "7842", "name": "France Tv"}, {"id": "7843", "name": "B&B Hotels"}, {"id": "7844", "name": "Arkema"}, {"id": "7845", "name": "ENGIE"}, {"id": "7846", "name": "L'OR\u00c9AL"}, {"id": "7847", "name": "NESPRESSO FRANCE"}, {"id": "7848", "name": "Groupe Prisma Media"}, {"id": "7849", "name": "ALTRAN FRANCE"}, {"id": "7850", "name": "Allianz"}, {"id": "7851", "name": "MICROSOFT FRANCE"}, {"id": "7852", "name": "HARIBO RICQLES ZAN"}, {"id": "7853", "name": "COURIR"}, {"id": "7854", "name": "BNP PARIBAS"}, {"id": "7855", "name": "CAMAIEU"}, {"id": "7856", "name": "SNCF TRANSILIEN"}, {"id": "7857", "name": "SFR - ALTICE"}, {"id": "7858", "name": "CAPGEMINI FRANCE"}, {"id": "7859", "name": "GROUPE CARREFOUR"}, {"id": "7860", "name": "TWITTER"}, {"id": "7861", "name": "ORIENTIS GOURMET"}, {"id": "7862", "name": "H&M"}, {"id": "7863", "name": "Nrj"}, {"id": "7864", "name": "LA GRANDE R\u00c9CR\u00c9 - LUDENDO"}, {"id": "7865", "name": "Kpmg Es"}, {"id": "7866", "name": "EULER HERMES FRANCE"}, {"id": "7867", "name": "JAGUAR LAND ROVER INTERNATIONAL"}, {"id": "7868", "name": "Winamax"}, {"id": "7869", "name": "CINESA"}, {"id": "7870", "name": "Sogedif"}, {"id": "7871", "name": "BNP PARIBAS"}, {"id": "7872", "name": "ALLIANZ FRANCE"}, {"id": "7873", "name": "CHRISTIAN DIOR PARFUMS"}, {"id": "7874", "name": "PEUGEOT"}, {"id": "7875", "name": "CHRISTIAN DIOR PARFUMS"}, {"id": "7876", "name": "GOOGLE FRANCE"}, {"id": "7877", "name": "OUI.SNCF"}, {"id": "7878", "name": "DODO"}, {"id": "7879", "name": "Smcp - Sandro Maje Claudie Pierlot"}, {"id": "7880", "name": "HANES FRANCE"}, {"id": "7881", "name": "BIMBA Y LOLA"}, {"id": "7882", "name": "CGI FRANCE"}, {"id": "7883", "name": "ACCENTURE"}, {"id": "7884", "name": "DANONE"}, {"id": "7885", "name": "REVLON FRANCE"}, {"id": "7886", "name": "L'OR\u00c9AL"}, {"id": "7887", "name": "ACCENTURE"}, {"id": "7888", "name": "AXA"}, {"id": "7889", "name": "LACTALIS"}, {"id": "7890", "name": "Orange"}, {"id": "7891", "name": "GOOGLE FRANCE"}, {"id": "7892", "name": "GROUPEMENT LES MOUSQUETAIRES"}, {"id": "7893", "name": "BIC"}, {"id": "7894", "name": "SNCF TRANSILIEN"}, {"id": "7895", "name": "RENAULT"}, {"id": "7896", "name": "Lacoste Espa\u00f1a"}, {"id": "7897", "name": "Desigual"}, {"id": "7898", "name": "RANDSTAD FRANCE"}, {"id": "7899", "name": "INDITEX"}, {"id": "7900", "name": "ALLOPNEUS"}], "page": 79, "has_more": true, "count": 8677}