{"results": [{"id": "1501", "name": "Grey Group"}, {"id": "1502", "name": "Grands Moulins de Paris S.A."}, {"id": "1503", "name": "LeapFrog"}, {"id": "1504", "name": "AGENCE DE LA BIOMEDECINE"}, {"id": "1505", "name": "SignAll"}, {"id": "1506", "name": "Groupe Caisse d'Epargne"}, {"id": "1507", "name": "Aldebaran Robotics"}, {"id": "1508", "name": "Weekendesk"}, {"id": "1509", "name": "SOGET"}, {"id": "1510", "name": "d\u00b2X EXPERTISE"}, {"id": "1511", "name": "Cadence Design Systems"}, {"id": "1512", "name": "Groupe em2c"}, {"id": "1513", "name": "MONEXT"}, {"id": "1514", "name": "Lactalis International"}, {"id": "1515", "name": "MAGNESIUM ELEKTRON LTD."}, {"id": "1516", "name": "GEZE GmbH"}, {"id": "1517", "name": "SEGEF"}, {"id": "1518", "name": "3.1 Phillip Lim"}, {"id": "1519", "name": "Wanted RH"}, {"id": "1520", "name": "Christian Dior Inc."}, {"id": "1521", "name": "Schneider Electric"}, {"id": "1522", "name": "Maestro Corporation"}, {"id": "1523", "name": "Keley Consulting"}, {"id": "1524", "name": "CODiLOG"}, {"id": "1525", "name": "visiativ"}, {"id": "1526", "name": "flammarion.fr"}, {"id": "1527", "name": "Universit\u00e9 Lorraine"}, {"id": "1528", "name": "OasYs Consultants"}, {"id": "1529", "name": "Hopital Riviera-Chablais"}, {"id": "1530", "name": "UniCredit S.p.A."}, {"id": "1531", "name": "Eulerian Technologies"}, {"id": "1532", "name": "Kpler"}, {"id": "1533", "name": "Sovrn Holdings, Inc."}, {"id": "1534", "name": "Givenchy Fragrances u0026 Beauty"}, {"id": "1535", "name": "Briggs Amasco Ltd"}, {"id": "1536", "name": "vNext"}, {"id": "1537", "name": "Website URL: http://www.brittany-ferries.fr/traversees/services/spa"}, {"id": "1538", "name": "Giropharm"}, {"id": "1539", "name": "University of the Arts London"}, {"id": "1540", "name": "lacooperativewelcoop.com"}, {"id": "1541", "name": "BlueLink"}, {"id": "1542", "name": "CGSI"}, {"id": "1543", "name": "ctgratuit.com"}, {"id": "1544", "name": "MAX Digital Services"}, {"id": "1545", "name": "Deloitte"}, {"id": "1546", "name": "Jouve SA"}, {"id": "1547", "name": "Association de Moyens Assurance"}, {"id": "1548", "name": "GRH CONSULTANTS LIMITED"}, {"id": "1549", "name": "Groupe Caisse d'Epargne"}, {"id": "1550", "name": "Alliance Trust"}, {"id": "1551", "name": "Rewe Digital Gmbh"}, {"id": "1552", "name": "EXteam"}, {"id": "1553", "name": "SNCF"}, {"id": "1554", "name": "La Poste"}, {"id": "1555", "name": "Irdeto"}, {"id": "1556", "name": "Brunel University London"}, {"id": "1557", "name": "Mayer Brown"}, {"id": "1558", "name": "ensolfina"}, {"id": "1559", "name": "Adestra"}, {"id": "1560", "name": "Ficogex Sa"}, {"id": "1561", "name": "Groupe Pierreval"}, {"id": "1562", "name": "Systematic Paris-Region"}, {"id": "1563", "name": "Chanel"}, {"id": "1564", "name": "Cr\u00e8ches de France"}, {"id": "1565", "name": "UP SELL"}, {"id": "1566", "name": "Mondo Minerals"}, {"id": "1567", "name": "City Discovery"}, {"id": "1568", "name": "BEARINGPOINT"}, {"id": "1569", "name": "Domino's Pizza Nederland"}, {"id": "1570", "name": "kantar.fr"}, {"id": "1571", "name": "Multiposting"}, {"id": "1572", "name": "GROUPE BSL"}, {"id": "1573", "name": "Engel & V\u00f6lkers"}, {"id": "1574", "name": "accile.com"}, {"id": "1575", "name": "Emlyon Business School"}, {"id": "1576", "name": "DSO"}, {"id": "1577", "name": "Nestle Purina Petcare Co"}, {"id": "1578", "name": "SARL Lauak"}, {"id": "1579", "name": "eversheds.de"}, {"id": "1580", "name": "SeLoger"}, {"id": "1581", "name": "Alinea Consulting"}, {"id": "1582", "name": "Gist - Transforming Supply Chains"}, {"id": "1583", "name": "L'Or\u00e9al"}, {"id": "1584", "name": "Saur"}, {"id": "1585", "name": "Creative Recruiters"}, {"id": "1586", "name": "Cr\u00e9dit Agricole Consumer Finance"}, {"id": "1587", "name": "Carte Noire"}, {"id": "1588", "name": "MyBestPro"}, {"id": "1589", "name": "CFAO Group"}, {"id": "1590", "name": "Armatis-LC"}, {"id": "1591", "name": "AptiSkills"}, {"id": "1592", "name": "Dexia"}, {"id": "1593", "name": "Place des Tendances"}, {"id": "1594", "name": "Societe Generale Securities Services - SGSS"}, {"id": "1595", "name": "Hopital Foch"}, {"id": "1596", "name": "Petit Forestier"}, {"id": "1597", "name": "Carambar&Co"}, {"id": "1598", "name": "Penumbra, Inc."}, {"id": "1599", "name": "Messageries Lyonnaises de Presse"}, {"id": "1600", "name": "Jobteaser"}], "page": 16, "has_more": true, "count": 8677}