{"results": [{"id": "4801", "name": "Hotelis SA"}, {"id": "4802", "name": "Infogene"}, {"id": "4803", "name": "Lifetime Training Group"}, {"id": "4804", "name": "Fenwick"}, {"id": "4805", "name": "Monsoon"}, {"id": "4806", "name": "BHSF Ltd"}, {"id": "4807", "name": "Testo Inc."}, {"id": "4808", "name": "Framestore"}, {"id": "4809", "name": "Copwell"}, {"id": "4810", "name": "Careem"}, {"id": "4811", "name": "ARENDT & MEDERNACH"}, {"id": "4812", "name": "nextradiotv.fr"}, {"id": "4813", "name": "CLSA"}, {"id": "4814", "name": "Vatel"}, {"id": "4815", "name": "SERENDIP Consulting"}, {"id": "4816", "name": "ASTON MARTIN"}, {"id": "4817", "name": "BSCI"}, {"id": "4818", "name": "AppleOne Inc."}, {"id": "4819", "name": "Centaur Media PLC"}, {"id": "4820", "name": "Mears Group"}, {"id": "4821", "name": "Harrison Catering Services"}, {"id": "4822", "name": "ACC Liverpool"}, {"id": "4823", "name": "Akiolis Group"}, {"id": "4824", "name": "Telia Company"}, {"id": "4825", "name": "OVH LTD"}, {"id": "4826", "name": "Reed Exhibitions"}, {"id": "4827", "name": "CAISSE D'EPARGNE"}, {"id": "4828", "name": "STELIA Aerospace"}, {"id": "4829", "name": "LifeScan, Inc"}, {"id": "4830", "name": "Chambre de Commerce et d'Industrie du Var"}, {"id": "4831", "name": "Groupe HLi"}, {"id": "4832", "name": "Carlyle Investment Management L.L.C."}, {"id": "4833", "name": "VERTONE"}, {"id": "4834", "name": "3i Group plc"}, {"id": "4835", "name": "The Fragrance Shop"}, {"id": "4836", "name": "MARCO VASCO"}, {"id": "4837", "name": "motivinterim.fr"}, {"id": "4838", "name": "HAGER GROUP"}, {"id": "4839", "name": "Marriott International Inc."}, {"id": "4840", "name": "The Weir Group PLC"}, {"id": "4841", "name": "CENTURY 21 Tradimmo"}, {"id": "4842", "name": "KPMG"}, {"id": "4843", "name": "Oaklands College"}, {"id": "4844", "name": "We Are Social"}, {"id": "4845", "name": "E2CT SARL"}, {"id": "4846", "name": "Rexel France"}, {"id": "4847", "name": "Rexel Finland Oy"}, {"id": "4848", "name": "Seopa"}, {"id": "4849", "name": "Senior Compagnie"}, {"id": "4850", "name": "VPS Holdings Limited"}, {"id": "4851", "name": "James Cropper Plc"}, {"id": "4852", "name": "Axway"}, {"id": "4853", "name": "Agent Secret"}, {"id": "4854", "name": "GSF"}, {"id": "4855", "name": "Marriott International Inc"}, {"id": "4856", "name": "Integrata AG"}, {"id": "4857", "name": "Harry Fairclough"}, {"id": "4858", "name": "CAISSE D'EPARGNE MIDI PYRENEES"}, {"id": "4859", "name": "CNAF"}, {"id": "4860", "name": "VESTITI"}, {"id": "4861", "name": "OTYS France"}, {"id": "4862", "name": "Bain & Company"}, {"id": "4863", "name": "Bullhorn"}, {"id": "4864", "name": "Ask SA"}, {"id": "4865", "name": "LEONI Wiring System Tunisia"}, {"id": "4866", "name": "Selectively"}, {"id": "4867", "name": "Grupa o2"}, {"id": "4868", "name": "Lazard"}, {"id": "4869", "name": "Monster Worldwide"}, {"id": "4870", "name": "Groupe Faurie"}, {"id": "4871", "name": "Oliver Bonas"}, {"id": "4872", "name": "Palmer and Harvey plc"}, {"id": "4873", "name": "BOX Telematics"}, {"id": "4874", "name": "L'Atelier du Sourcil"}, {"id": "4875", "name": "Designit"}, {"id": "4876", "name": "NextiraOne"}, {"id": "4877", "name": "TECHNOMEDIA"}, {"id": "4878", "name": "Harding Retail"}, {"id": "4879", "name": "baker hughes"}, {"id": "4880", "name": "NSPCC"}, {"id": "4881", "name": "Monmouthshire"}, {"id": "4882", "name": "Guinness World Records Ltd"}, {"id": "4883", "name": "Cubner"}, {"id": "4884", "name": "Lonsdale Design"}, {"id": "4885", "name": "Century 21 France"}, {"id": "4886", "name": "Musgrave Group plc"}, {"id": "4887", "name": "Bigham's"}, {"id": "4888", "name": "Symrise"}, {"id": "4889", "name": "KUBOTA"}, {"id": "4890", "name": "AO Conseil"}, {"id": "4891", "name": "BookingBug Limited"}, {"id": "4892", "name": "Wolters Kluwer"}, {"id": "4893", "name": "Groupe Primonial"}, {"id": "4894", "name": "Newsquest Media Group Ltd."}, {"id": "4895", "name": "Wiko Mobile"}, {"id": "4896", "name": "AAREON FRANCE"}, {"id": "4897", "name": "Allianz"}, {"id": "4898", "name": "KIOSKEMPLOI"}, {"id": "4899", "name": "Transport for Greater Manchester"}, {"id": "4900", "name": "Marriott Hotels"}], "page": 49, "has_more": true, "count": 8677}