{"results": [{"id": "301", "name": "CREAgile"}, {"id": "302", "name": "Magic Makers"}, {"id": "303", "name": "OVH LTD"}, {"id": "304", "name": "Fidesio"}, {"id": "305", "name": "UP SELL"}, {"id": "306", "name": "Deliveroo"}, {"id": "307", "name": "VECTAURY"}, {"id": "308", "name": "HighTekers France"}, {"id": "309", "name": "The American University of Paris"}, {"id": "310", "name": "LE CLUB DES EXTRAS"}, {"id": "311", "name": "PERFORMANCE PARTNER"}, {"id": "312", "name": "ELEVON"}, {"id": "313", "name": "Enercoop"}, {"id": "314", "name": "Nerim"}, {"id": "315", "name": "Opteamis"}, {"id": "316", "name": "MeilleursAgents"}, {"id": "317", "name": "Kingcom"}, {"id": "318", "name": "Devoteam"}, {"id": "319", "name": "HeyTom"}, {"id": "320", "name": "Horizon Software"}, {"id": "321", "name": "Novencia Group"}, {"id": "322", "name": "Sekoia"}, {"id": "323", "name": "Nware"}, {"id": "324", "name": "SNCD"}, {"id": "325", "name": "Dakine"}, {"id": "326", "name": "Marriott International, Inc."}, {"id": "327", "name": "BEVOLUTION AGENCY"}, {"id": "328", "name": "Dictanova"}, {"id": "329", "name": "Airmis"}, {"id": "330", "name": "grafikmente"}, {"id": "331", "name": "ECLORE"}, {"id": "332", "name": "MEDIA & BROADCAST TECHNOLOGIES\u00ae (MBT)"}, {"id": "333", "name": "VERTUO Conseil"}, {"id": "334", "name": "Fa\u00efencerie de Gien"}, {"id": "335", "name": "APPEX France"}, {"id": "336", "name": "WAM World and More"}, {"id": "337", "name": "Novidy's S.A."}, {"id": "338", "name": "Shippeo"}, {"id": "339", "name": "Infopro Digital"}, {"id": "340", "name": "IDECSI"}, {"id": "341", "name": "5eRue"}, {"id": "342", "name": "PSB Paris School of Business"}, {"id": "343", "name": "MANGOPAY"}, {"id": "344", "name": "Sublime Skinz"}, {"id": "345", "name": "MIF"}, {"id": "346", "name": "Le Quotidien du M\u00e9decin"}, {"id": "347", "name": "Restopolitan"}, {"id": "348", "name": "Akeance Consulting"}, {"id": "349", "name": "Lorenz Life Sciences Ltd."}, {"id": "350", "name": "CodinGame"}, {"id": "351", "name": "Belharra sas"}, {"id": "352", "name": "BOOK MY MUSIC"}, {"id": "353", "name": "ENSCI_LesAteliers"}, {"id": "354", "name": "Atelier NA"}, {"id": "355", "name": "H8 COLLECTION HOTEL GROUP"}, {"id": "356", "name": "Welcome to the Jungle"}, {"id": "357", "name": "ADALIA"}, {"id": "358", "name": "QualyCloud"}, {"id": "359", "name": "Keyade"}, {"id": "360", "name": "Pandacraft"}, {"id": "361", "name": "theTribe.io"}, {"id": "362", "name": "VINN"}, {"id": "363", "name": "21Net Ltd."}, {"id": "364", "name": "Rivoli Patrimoine"}, {"id": "365", "name": "Zelros"}, {"id": "366", "name": "Cirpack"}, {"id": "367", "name": "SNCZ"}, {"id": "368", "name": "PHENIX"}, {"id": "369", "name": "GROUPE ITOP"}, {"id": "370", "name": "LeKiosk"}, {"id": "371", "name": "Voltalis"}, {"id": "372", "name": "Steve Agency"}, {"id": "373", "name": "Praditus"}, {"id": "374", "name": "Mawenzi Partners"}, {"id": "375", "name": "Bidmotion"}, {"id": "376", "name": "CXP Group"}, {"id": "377", "name": "Gandi"}, {"id": "378", "name": "Adservio IT Quality Experts"}, {"id": "379", "name": "Hubware"}, {"id": "380", "name": "Seeqle"}, {"id": "381", "name": "upday for Samsung"}, {"id": "382", "name": "Incenteev"}, {"id": "383", "name": "Castalie"}, {"id": "384", "name": "180gram"}, {"id": "385", "name": "INBOX"}, {"id": "386", "name": "KiWATCH"}, {"id": "387", "name": "Clustaar"}, {"id": "388", "name": "NAVYA"}, {"id": "389", "name": "Bam.tech"}, {"id": "390", "name": "Wandercraft"}, {"id": "391", "name": "Change"}, {"id": "392", "name": "HelloAsso"}, {"id": "393", "name": "WATSOFT"}, {"id": "394", "name": "L'argus"}, {"id": "395", "name": "ISPA Consulting"}, {"id": "396", "name": "Konnect systems"}, {"id": "397", "name": "Weaving Group"}, {"id": "398", "name": "Parella"}, {"id": "399", "name": "Proparco"}, {"id": "400", "name": "HEAVEN"}], "page": 4, "has_more": true, "count": 8677}