{"results": [{"id": "2401", "name": "Mole Valley Farmers"}, {"id": "2402", "name": "Cr\u00e9dit Agricole Normandie-Seine"}, {"id": "2403", "name": "Menway"}, {"id": "2404", "name": "LVMH"}, {"id": "2405", "name": "Twenga"}, {"id": "2406", "name": "Iveco"}, {"id": "2407", "name": "DIANA"}, {"id": "2408", "name": "BKL"}, {"id": "2409", "name": "Malakoff M\u00e9d\u00e9ric"}, {"id": "2410", "name": "intys Consulting"}, {"id": "2411", "name": "Bershka"}, {"id": "2412", "name": "Alfred Dunhill"}, {"id": "2413", "name": "Groupe Eram"}, {"id": "2414", "name": "ANOVO"}, {"id": "2415", "name": "Capgemini"}, {"id": "2416", "name": "Barilla"}, {"id": "2417", "name": "eBusiness Information"}, {"id": "2418", "name": "Mr Green Online Gaming"}, {"id": "2419", "name": "VINCI Construction Terrassement"}, {"id": "2420", "name": "Chimirec"}, {"id": "2421", "name": "ANFH"}, {"id": "2422", "name": "AGATHA PARIS"}, {"id": "2423", "name": "ITM Mousquetaires"}, {"id": "2424", "name": "BELL"}, {"id": "2425", "name": "Compellia"}, {"id": "2426", "name": "Babilou"}, {"id": "2427", "name": "Webhelp"}, {"id": "2428", "name": "Grupo Restalia"}, {"id": "2429", "name": "Cox Automotive UK"}, {"id": "2430", "name": "fendi"}, {"id": "2431", "name": "seinesaintdenis.fr"}, {"id": "2432", "name": "STEF"}, {"id": "2433", "name": "Transgourmet"}, {"id": "2434", "name": "IRT SystemX"}, {"id": "2435", "name": "Credit Du Nord"}, {"id": "2436", "name": "Gmail"}, {"id": "2437", "name": "United Biscuits"}, {"id": "2438", "name": "Cr\u00e9dit Agricole Mutuel Pyr\u00e9n\u00e9es Gascogne"}, {"id": "2439", "name": "SeLoger.com"}, {"id": "2440", "name": "Jenji - les notes de frais, nouvelle g\u00e9n\u00e9ration"}, {"id": "2441", "name": "Kedge Business School"}, {"id": "2442", "name": "Decision Performance Conseil"}, {"id": "2443", "name": "mrx-emploi-ouest.fr"}, {"id": "2444", "name": "Polylogis"}, {"id": "2445", "name": "Seelk - The Road to Marketplaces"}, {"id": "2446", "name": "OTCex"}, {"id": "2447", "name": "Chullanka"}, {"id": "2448", "name": "Quaternaire"}, {"id": "2449", "name": "Cartus Corporation"}, {"id": "2450", "name": "Oxatis"}, {"id": "2451", "name": "Eilakaisla"}, {"id": "2452", "name": "Raytheon UK"}, {"id": "2453", "name": "Flywire"}, {"id": "2454", "name": "Cr\u00e9dit Immobilier de France"}, {"id": "2455", "name": "Egis"}, {"id": "2456", "name": "Ticketmaster France - Ticketnet"}, {"id": "2457", "name": "Mars"}, {"id": "2458", "name": "FINAXYS"}, {"id": "2459", "name": "Yahoo! Inc."}, {"id": "2460", "name": "Laboratoires INELDEA"}, {"id": "2461", "name": "HH Global Ltd"}, {"id": "2462", "name": "Studyrama"}, {"id": "2463", "name": "R\u00e9gion Pays de la Loire"}, {"id": "2464", "name": "Centre for International Development and Training (CIDT)"}, {"id": "2465", "name": "Neoxia"}, {"id": "2466", "name": "cegid"}, {"id": "2467", "name": "Intercom, Inc."}, {"id": "2468", "name": "Arrow Electronics"}, {"id": "2469", "name": "Twoodo - The Future Of Teamwork"}, {"id": "2470", "name": "Weidmuller UK"}, {"id": "2471", "name": "Easy Cash S.A.S"}, {"id": "2472", "name": "Ernst & Young"}, {"id": "2473", "name": "2-30 Media"}, {"id": "2474", "name": "Grenoble IAE"}, {"id": "2475", "name": "e-Consulting RH"}, {"id": "2476", "name": "LOXAM"}, {"id": "2477", "name": "AG2R LA MONDIALE"}, {"id": "2478", "name": "Amaury Sport Organisation"}, {"id": "2479", "name": "Forever Living"}, {"id": "2480", "name": "CHAUFFEUR PRIV\u00c9"}, {"id": "2481", "name": "LNA Sant\u00e9"}, {"id": "2482", "name": "Audemars Piguet"}, {"id": "2483", "name": "Beiersdorf"}, {"id": "2484", "name": "Coutot-Roehrig"}, {"id": "2485", "name": "Fifty-five"}, {"id": "2486", "name": "TALISKER CONSULTING"}, {"id": "2487", "name": "ENERJIA"}, {"id": "2488", "name": "BOOMING SAS"}, {"id": "2489", "name": "Axway Inc"}, {"id": "2490", "name": "DV GROUP"}, {"id": "2491", "name": "Anaxago"}, {"id": "2492", "name": "Acad\u00e9mie de Cr\u00e9teil"}, {"id": "2493", "name": "Aramisauto"}, {"id": "2494", "name": "Sartorius"}, {"id": "2495", "name": "Socomec"}, {"id": "2496", "name": "Kellogg Company"}, {"id": "2497", "name": "LSN Assurances"}, {"id": "2498", "name": "Aquent"}, {"id": "2499", "name": "JobStreet"}, {"id": "2500", "name": "Daiichi Sankyo Europe GmbH"}], "page": 25, "has_more": true, "count": 8677}