{"results": [{"id": "1201", "name": "albridge.fr"}, {"id": "1202", "name": "Anap"}, {"id": "1203", "name": "Le Slip Fran\u00e7ais"}, {"id": "1204", "name": "Echosens"}, {"id": "1205", "name": "M6"}, {"id": "1206", "name": "L.K.Bennett"}, {"id": "1207", "name": "TSO"}, {"id": "1208", "name": "Valeo"}, {"id": "1209", "name": "Mister Auto"}, {"id": "1210", "name": "Unity Technologies"}, {"id": "1211", "name": "Nasqad Inc."}, {"id": "1212", "name": "Shiloh Industries"}, {"id": "1213", "name": "pleiade.net"}, {"id": "1214", "name": "Puressentiel"}, {"id": "1215", "name": "PMU"}, {"id": "1216", "name": "EM Strasbourg Business School"}, {"id": "1217", "name": "CNIL - Commission Nationale de l'Informatique et des Libert\u00e9s"}, {"id": "1218", "name": "Didaxis"}, {"id": "1219", "name": "Schneider Electric"}, {"id": "1220", "name": "Qonto"}, {"id": "1221", "name": "InVision"}, {"id": "1222", "name": "Plaine Commune"}, {"id": "1223", "name": "Kelly Services Inc."}, {"id": "1224", "name": "M.Chapoutier"}, {"id": "1225", "name": "OVH LTD"}, {"id": "1226", "name": "Generix Group"}, {"id": "1227", "name": "HBCU CONNECT"}, {"id": "1228", "name": "Boulanger"}, {"id": "1229", "name": "KEREVAL"}, {"id": "1230", "name": "CSBI Consulting"}, {"id": "1231", "name": "Itron Inc."}, {"id": "1232", "name": "Rightmove"}, {"id": "1233", "name": "revillonchocolatier.fr"}, {"id": "1234", "name": "Abaka Conseil"}, {"id": "1235", "name": "Quinyx"}, {"id": "1236", "name": "OVH LTD"}, {"id": "1237", "name": "Care Quality Commission"}, {"id": "1238", "name": "AUSY"}, {"id": "1239", "name": "Microsoft"}, {"id": "1240", "name": "POLE EMPLOI"}, {"id": "1241", "name": "carlsonwagonlit.co.uk"}, {"id": "1242", "name": "Orange"}, {"id": "1243", "name": "Cr\u00e9dit Agricole Alpes Provence"}, {"id": "1244", "name": "SWIFT"}, {"id": "1245", "name": "Sheridan Maine"}, {"id": "1246", "name": "Pricer AB"}, {"id": "1247", "name": "Brooklands College"}, {"id": "1248", "name": "Jack Richards And Son Ltd"}, {"id": "1249", "name": "toshiba-tsf.com"}, {"id": "1250", "name": "CPL AROMAS LTD."}, {"id": "1251", "name": "Nintendo"}, {"id": "1252", "name": "CCI Paris IdF"}, {"id": "1253", "name": "CCM Benchmark"}, {"id": "1254", "name": "Photo-Me International Plc"}, {"id": "1255", "name": "netgrs.com"}, {"id": "1256", "name": "Oscar"}, {"id": "1257", "name": "Lumiplan"}, {"id": "1258", "name": "Menway"}, {"id": "1259", "name": "Groupe Caisse d'Epargne"}, {"id": "1260", "name": "Astorg"}, {"id": "1261", "name": "ANTENOR"}, {"id": "1262", "name": "TRSb"}, {"id": "1263", "name": "Kinross Gold Corp."}, {"id": "1264", "name": "Hutchinson"}, {"id": "1265", "name": "Thello"}, {"id": "1266", "name": "Albioma"}, {"id": "1267", "name": "Trelleborg"}, {"id": "1268", "name": "Shapr"}, {"id": "1269", "name": "IFAG"}, {"id": "1270", "name": "Azalai Hotels"}, {"id": "1271", "name": "Veolia Environnement Australia And New Zealand"}, {"id": "1272", "name": "Soufflet Group"}, {"id": "1273", "name": "Saint-Gobain"}, {"id": "1274", "name": "Gemmyo"}, {"id": "1275", "name": "Hardis Group"}, {"id": "1276", "name": "Expectra"}, {"id": "1277", "name": "Badenoch and Clark Switzerland"}, {"id": "1278", "name": "Althea"}, {"id": "1279", "name": "Mars, Incorporated"}, {"id": "1280", "name": "Groupe Sylvagreg"}, {"id": "1281", "name": "Sr Conseil"}, {"id": "1282", "name": "Oaktree Capital Management, L.P."}, {"id": "1283", "name": "Minist\u00e8res de l'\u00c9conomie, des Finances, de l'Action et des Comptes publics"}, {"id": "1284", "name": "Eurovia"}, {"id": "1285", "name": "Forest-style Group"}, {"id": "1286", "name": "Enhance Aero"}, {"id": "1287", "name": "Reggiani Macchine S.p.A."}, {"id": "1288", "name": "Cr\u00e9dit Agricole Toulouse 31"}, {"id": "1289", "name": "Apr\u00e9va Mutuelle"}, {"id": "1290", "name": "ABMI"}, {"id": "1291", "name": "Hiram Finance"}, {"id": "1292", "name": "Gibaud"}, {"id": "1293", "name": "EUROFEU SA"}, {"id": "1294", "name": "Novo Nordisk"}, {"id": "1295", "name": "MAKE UP FOR EVER"}, {"id": "1296", "name": "The Adecco Group UK and Ireland"}, {"id": "1297", "name": "The Perfume Shop"}, {"id": "1298", "name": "Magic Software Enterprises"}, {"id": "1299", "name": "Int\u00e9riale Mutuelle"}, {"id": "1300", "name": "Primesight"}], "page": 13, "has_more": true, "count": 8677}