{"results": [{"id": "2201", "name": "AXA Corporate Solutions"}, {"id": "2202", "name": "Chronopost"}, {"id": "2203", "name": "Europ Assistance France"}, {"id": "2204", "name": "JoJo Maman Bebe Ltd"}, {"id": "2205", "name": "Bravo Solution"}, {"id": "2206", "name": "Meteojob"}, {"id": "2207", "name": "StepStone GmbH"}, {"id": "2208", "name": "Open Classrooms"}, {"id": "2209", "name": "Volkswagen Group France"}, {"id": "2210", "name": "FMC Technologies"}, {"id": "2211", "name": "Eversheds Sutherland Nicea"}, {"id": "2212", "name": "FONCTION MEUBLE"}, {"id": "2213", "name": "F\u00e9d\u00e9ration fran\u00e7aise de golf (ffgolf)"}, {"id": "2214", "name": "Owens Corning"}, {"id": "2215", "name": "Panasonic Corporation"}, {"id": "2216", "name": "ADEQUATION"}, {"id": "2217", "name": "Doctolib"}, {"id": "2218", "name": "Yoplait"}, {"id": "2219", "name": "New Work human resources SA"}, {"id": "2220", "name": "Hardis Group"}, {"id": "2221", "name": "Groupe EOLEN"}, {"id": "2222", "name": "Loro Piana"}, {"id": "2223", "name": "Stordata"}, {"id": "2224", "name": "Deloitte"}, {"id": "2225", "name": "Cecurity.com"}, {"id": "2226", "name": "EDELVI"}, {"id": "2227", "name": "AKSIS"}, {"id": "2228", "name": "Covage"}, {"id": "2229", "name": "Wyplay"}, {"id": "2230", "name": "Emarsys"}, {"id": "2231", "name": "NOCIBE"}, {"id": "2232", "name": "Diam International"}, {"id": "2233", "name": "REFLEXIMMO"}, {"id": "2234", "name": "Prison Advice And Care Trust (pact)"}, {"id": "2235", "name": "Vizir"}, {"id": "2236", "name": "FAUCHON"}, {"id": "2237", "name": "National Bank Of Kuwait"}, {"id": "2238", "name": "Emmaus Habitat"}, {"id": "2239", "name": "Deliveroo"}, {"id": "2240", "name": "MECANIC SUD INDUSTRIE"}, {"id": "2241", "name": "DODIN CAMPENON BERNARD"}, {"id": "2242", "name": "BFFT GmbH"}, {"id": "2243", "name": "Forrester"}, {"id": "2244", "name": "EXL"}, {"id": "2245", "name": "4flow"}, {"id": "2246", "name": "COMAP"}, {"id": "2247", "name": "Lucibel"}, {"id": "2248", "name": "LabCorp Clinical Trials"}, {"id": "2249", "name": "Mazars"}, {"id": "2250", "name": "Zendesk"}, {"id": "2251", "name": "2Agriculture Ltd"}, {"id": "2252", "name": "Stanley Robotics"}, {"id": "2253", "name": "AXA Banque"}, {"id": "2254", "name": "Ashford Borough Council"}, {"id": "2255", "name": "Pedretti"}, {"id": "2256", "name": "L'Or\u00e9al"}, {"id": "2257", "name": "Showroomprive.com"}, {"id": "2258", "name": "MainFirst Group"}, {"id": "2259", "name": "DELANE SI"}, {"id": "2260", "name": "Eudonet"}, {"id": "2261", "name": "Giesecke+Devrient Mobile Security"}, {"id": "2262", "name": "Exalog"}, {"id": "2263", "name": "FYM Action SAS"}, {"id": "2264", "name": "Nokia"}, {"id": "2265", "name": "Autograf"}, {"id": "2266", "name": "Agence PROvidence"}, {"id": "2267", "name": "TO DO TODAY"}, {"id": "2268", "name": "Aaa Canada"}, {"id": "2269", "name": "Kapsch"}, {"id": "2270", "name": "ATS Ing\u00e9nierie / EMIGE"}, {"id": "2271", "name": "M\u00e9tropole de Lyon"}, {"id": "2272", "name": "Office DEPOT France"}, {"id": "2273", "name": "The Fork"}, {"id": "2274", "name": "Onepark"}, {"id": "2275", "name": "Il Cosmetics"}, {"id": "2276", "name": "Cl\u00e9mentine"}, {"id": "2277", "name": "Aspen Pharma Group"}, {"id": "2278", "name": "QUIBLIER CONSEIL"}, {"id": "2279", "name": "Hays"}, {"id": "2280", "name": "DEGRENNE"}, {"id": "2281", "name": "POCLAIN HYDRAULICS"}, {"id": "2282", "name": "MSD France"}, {"id": "2283", "name": "Aston University"}, {"id": "2284", "name": "Mutuaide Assistance"}, {"id": "2285", "name": "BNP Paribas"}, {"id": "2286", "name": "Maison Landemaine"}, {"id": "2287", "name": "zettafox"}, {"id": "2288", "name": "Eurotunnel"}, {"id": "2289", "name": "mairie-aubervilliers.fr"}, {"id": "2290", "name": "Uneo"}, {"id": "2291", "name": "ARMATIS CENTRE"}, {"id": "2292", "name": "University of Birmingham"}, {"id": "2293", "name": "MetaPack Group"}, {"id": "2294", "name": "Marriott International, Inc."}, {"id": "2295", "name": "The Linde Group"}, {"id": "2296", "name": "Keyrus"}, {"id": "2297", "name": "Jefferies"}, {"id": "2298", "name": "LDLC"}, {"id": "2299", "name": "Bocage"}, {"id": "2300", "name": "iDTGV"}], "page": 23, "has_more": true, "count": 8677}