{"results": [{"id": "4201", "name": "Diot S A"}, {"id": "4202", "name": "FDJ"}, {"id": "4203", "name": "SYSTRA"}, {"id": "4204", "name": "Itelligence France"}, {"id": "4205", "name": "Conseil Sup\u00e9rieur De L'Audiovisuel (Csa)"}, {"id": "4206", "name": "Ardian"}, {"id": "4207", "name": "Telespazio"}, {"id": "4208", "name": "Habiteo"}, {"id": "4209", "name": "Grand Marnier"}, {"id": "4210", "name": "La Banque Postale"}, {"id": "4211", "name": "Auditoire"}, {"id": "4212", "name": "Robert Walters"}, {"id": "4213", "name": "IAE de La Rochelle"}, {"id": "4214", "name": "Theravectys"}, {"id": "4215", "name": "Multiburo"}, {"id": "4216", "name": "Intersec Group"}, {"id": "4217", "name": "Domusvi"}, {"id": "4218", "name": "Cogedis"}, {"id": "4219", "name": "Hachette"}, {"id": "4220", "name": "Invivoo"}, {"id": "4221", "name": "Grenoble IAE"}, {"id": "4222", "name": "Tui France"}, {"id": "4223", "name": "BNP PARIBAS"}, {"id": "4224", "name": "Repetto"}, {"id": "4225", "name": "Alexion"}, {"id": "4226", "name": "Cleversys"}, {"id": "4227", "name": "La Maison du Chocolat"}, {"id": "4228", "name": "Paris Saint Germain Football"}, {"id": "4229", "name": "Bose"}, {"id": "4230", "name": "Acadomia"}, {"id": "4231", "name": "Vulcanic"}, {"id": "4232", "name": "b-m"}, {"id": "4233", "name": "Blue Soft Group"}, {"id": "4234", "name": "Effilab"}, {"id": "4235", "name": "France Televisions"}, {"id": "4236", "name": "SAFEGE"}, {"id": "4237", "name": "A La Lucarne de L'Immobilier"}, {"id": "4238", "name": "Transdev"}, {"id": "4239", "name": "agap2"}, {"id": "4240", "name": "Blue spirit productions"}, {"id": "4241", "name": "Oxylane"}, {"id": "4242", "name": "Zenika"}, {"id": "4243", "name": "Gaumont"}, {"id": "4244", "name": "Box"}, {"id": "4245", "name": "Barry Callebaut"}, {"id": "4246", "name": "KparK"}, {"id": "4247", "name": "MAAF Assurances"}, {"id": "4248", "name": "Adenservices"}, {"id": "4249", "name": "Arca Patrimoine"}, {"id": "4250", "name": "SODEXO GROUPE"}, {"id": "4251", "name": "NAF NAF"}, {"id": "4252", "name": "BERGERAT MONNOYEUR"}, {"id": "4253", "name": "AG2R"}, {"id": "4254", "name": "Nobatek"}, {"id": "4255", "name": "Cr\u00e9dit Agricole Toulouse 31"}, {"id": "4256", "name": "APF"}, {"id": "4257", "name": "Innersense"}, {"id": "4258", "name": "INHNI"}, {"id": "4259", "name": "Api restauration"}, {"id": "4260", "name": "Cr\u00e9dit Agricole Anjou et Maine"}, {"id": "4261", "name": "Energizer"}, {"id": "4262", "name": "Adictiz"}, {"id": "4263", "name": "GL events"}, {"id": "4264", "name": "Sylaps"}, {"id": "4265", "name": "LIEBHERR"}, {"id": "4266", "name": "Experis"}, {"id": "4267", "name": "AFI ESCA"}, {"id": "4268", "name": "La Fran\u00e7aise Group"}, {"id": "4269", "name": "Alexander Mcqueen"}, {"id": "4270", "name": "Fauchon"}, {"id": "4271", "name": "Altedia"}, {"id": "4272", "name": "Europacorp"}, {"id": "4273", "name": "Lhoist"}, {"id": "4274", "name": "Nextpharma"}, {"id": "4275", "name": "Traxens"}, {"id": "4276", "name": "Epitech"}, {"id": "4277", "name": "Deloitte Finance"}, {"id": "4278", "name": "Netapsys conseil"}, {"id": "4279", "name": "BforBank"}, {"id": "4280", "name": "KEEN EYE TECHNOLOGIES"}, {"id": "4281", "name": "Open golf club - hotel golf resorts"}, {"id": "4282", "name": "APICIL"}, {"id": "4283", "name": "Quartus"}, {"id": "4284", "name": "Groupe Ourry"}, {"id": "4285", "name": "France M\u00e9dia Monde"}, {"id": "4286", "name": "Voodo"}, {"id": "4287", "name": "Howden"}, {"id": "4288", "name": "AXA Banque"}, {"id": "4289", "name": "Effy"}, {"id": "4290", "name": "Sisley"}, {"id": "4291", "name": "Gras Savoye"}, {"id": "4292", "name": "Vinci"}, {"id": "4293", "name": "Keyrus"}, {"id": "4294", "name": "ZF Group France"}, {"id": "4295", "name": "Ocea-Smart-Building"}, {"id": "4296", "name": "Cr\u00e9dit Agricole Centre France"}, {"id": "4297", "name": "Captain Contrat"}, {"id": "4298", "name": "BOLLORE AFRICA LOGISTICS"}, {"id": "4299", "name": "ALLIANZ IARD"}, {"id": "4300", "name": "Amundi Immobilier"}], "page": 43, "has_more": true, "count": 8677}