{"results": [{"id": "4101", "name": "Identicar"}, {"id": "4102", "name": "H\u00f4tel Napoleon"}, {"id": "4103", "name": "Rentabiliweb"}, {"id": "4104", "name": "Gevers"}, {"id": "4105", "name": "Groupe Reunica"}, {"id": "4106", "name": "Domitys"}, {"id": "4107", "name": "Pcas"}, {"id": "4108", "name": "Verescence"}, {"id": "4109", "name": "Coty"}, {"id": "4110", "name": "PeopleDoc"}, {"id": "4111", "name": "Crossknowledge"}, {"id": "4112", "name": "Conix"}, {"id": "4113", "name": "Jamf"}, {"id": "4114", "name": "Weezevent"}, {"id": "4115", "name": "Hardis"}, {"id": "4116", "name": "Cultura"}, {"id": "4117", "name": "Omnova Solutions"}, {"id": "4118", "name": "Manitou Group"}, {"id": "4119", "name": "Malteurop"}, {"id": "4120", "name": "TRANSEARCH"}, {"id": "4121", "name": "Hrconseil"}, {"id": "4122", "name": "Telerama"}, {"id": "4123", "name": "Afdas"}, {"id": "4124", "name": "Air Liquide Medical Systems"}, {"id": "4125", "name": "AEROPORT DE PARIS"}, {"id": "4126", "name": "Alter Solutions"}, {"id": "4127", "name": "Securitas Direct"}, {"id": "4128", "name": "Saegus"}, {"id": "4129", "name": "AFG Lille"}, {"id": "4130", "name": "Sothys International"}, {"id": "4131", "name": "Invoke"}, {"id": "4132", "name": "Imerys"}, {"id": "4133", "name": "Bosch"}, {"id": "4134", "name": "Ingima"}, {"id": "4135", "name": "Leanature"}, {"id": "4136", "name": "CIC"}, {"id": "4137", "name": "Elkem Silicones"}, {"id": "4138", "name": "Banque Priv\u00e9e Europ\u00e9enne"}, {"id": "4139", "name": "Cerfrance"}, {"id": "4140", "name": "Emalec"}, {"id": "4141", "name": "DOMINO'S PIZZA"}, {"id": "4142", "name": "ActiveViam"}, {"id": "4143", "name": "Spirit"}, {"id": "4144", "name": "DISTRIBUTION CASINO FRANCE"}, {"id": "4145", "name": "DTZ"}, {"id": "4146", "name": "Cosfibelgroup"}, {"id": "4147", "name": "PARISCityVISION"}, {"id": "4148", "name": "DMF"}, {"id": "4149", "name": "Khea-Concept"}, {"id": "4150", "name": "Groupe Monceau Fleurs"}, {"id": "4151", "name": "Netcosports"}, {"id": "4152", "name": "La Poste"}, {"id": "4153", "name": "Atexo"}, {"id": "4154", "name": "CA Assurances"}, {"id": "4155", "name": "Group M"}, {"id": "4156", "name": "Gide Loyrette Nouel"}, {"id": "4157", "name": "KING JOUET"}, {"id": "4158", "name": "Generali"}, {"id": "4159", "name": "SYNCHRONE"}, {"id": "4160", "name": "Icade"}, {"id": "4161", "name": "Nagico Insurances"}, {"id": "4162", "name": "Fabernovel"}, {"id": "4163", "name": "Mister Auto"}, {"id": "4164", "name": "Komatsu France"}, {"id": "4165", "name": "Astek"}, {"id": "4166", "name": "BRIT Insurance"}, {"id": "4167", "name": "Zenchef"}, {"id": "4168", "name": "Openclassrooms"}, {"id": "4169", "name": "DAIICHI SANKYO FRANCE SAS"}, {"id": "4170", "name": "kea-partners"}, {"id": "4171", "name": "Deveryware"}, {"id": "4172", "name": "Ercom"}, {"id": "4173", "name": "Avis"}, {"id": "4174", "name": "Valeo"}, {"id": "4175", "name": "Go sport"}, {"id": "4176", "name": "Dresser Produits industriels"}, {"id": "4177", "name": "Burton of London"}, {"id": "4178", "name": "Getinge"}, {"id": "4179", "name": "Bayer"}, {"id": "4180", "name": "KIA MOTORS France"}, {"id": "4181", "name": "Kisskissbankbank & co"}, {"id": "4182", "name": "Emmaus Habitat"}, {"id": "4183", "name": "Svp"}, {"id": "4184", "name": "Avico"}, {"id": "4185", "name": "Cr\u00e9dit Agricole Nord De France"}, {"id": "4186", "name": "Ceetrus"}, {"id": "4187", "name": "ArianeGroup"}, {"id": "4188", "name": "ALSTOM GRID"}, {"id": "4189", "name": "MERCK SERONO"}, {"id": "4190", "name": "Groupe Flo"}, {"id": "4191", "name": "Groupe Hospitalier du Havre"}, {"id": "4192", "name": "Sixense-Group"}, {"id": "4193", "name": "Claires"}, {"id": "4194", "name": "Institut Fran\u00e7as"}, {"id": "4195", "name": "Gan"}, {"id": "4196", "name": "Saguez & Partners"}, {"id": "4197", "name": "Forch France"}, {"id": "4198", "name": "Lanvin"}, {"id": "4199", "name": "JeChange"}, {"id": "4200", "name": "Kertel"}], "page": 42, "has_more": true, "count": 8677}