{"results": [{"id": "3401", "name": "City of Mississauga"}, {"id": "3402", "name": "Market makers UK"}, {"id": "3403", "name": "DJO Global"}, {"id": "3404", "name": "GUY HOQUET"}, {"id": "3405", "name": "DELIVEROO FRANCE"}, {"id": "3406", "name": "Groupe Vivalto Sant\u00e9"}, {"id": "3407", "name": "Sopra Group"}, {"id": "3408", "name": "Umicore"}, {"id": "3409", "name": "METRO INC."}, {"id": "3410", "name": "Red Hat"}, {"id": "3411", "name": "Aquent"}, {"id": "3412", "name": "Samtec"}, {"id": "3413", "name": "Eryma Sas"}, {"id": "3414", "name": "OUI.SNCF"}, {"id": "3415", "name": "GROUPE CARREFOUR"}, {"id": "3416", "name": "MONOPRIX"}, {"id": "3417", "name": "CLARINS FRAGRANCE GROUP"}, {"id": "3418", "name": "FNAC-DARTY"}, {"id": "3419", "name": "JM WESTON"}, {"id": "3420", "name": "PEPSICO"}, {"id": "3421", "name": "OYSHO"}, {"id": "3422", "name": "SAMSONITE"}, {"id": "3423", "name": "MAISONS DU MONDE"}, {"id": "3424", "name": "YVES ROCHER"}, {"id": "3425", "name": "BEXLEY"}, {"id": "3426", "name": "COTY"}, {"id": "3427", "name": "AIR FRANCE-KLM"}, {"id": "3428", "name": "PROXIMIS"}, {"id": "3429", "name": "TICKETAC"}, {"id": "3430", "name": "SALESFORCE.COM FRANCE"}, {"id": "3431", "name": "TF1"}, {"id": "3432", "name": "CLEVER AGE"}, {"id": "3433", "name": "VINATIS"}, {"id": "3434", "name": "OUEST-FRANCE"}, {"id": "3435", "name": "MICROMANIA-ZING"}, {"id": "3436", "name": "MAUS FR\u00c8RES INTERNATIONAL SERVICES"}, {"id": "3437", "name": "LA FRAN\u00c7AISE DES JEUX FDJ"}, {"id": "3438", "name": "ACCENTURE"}, {"id": "3439", "name": "MAIF"}, {"id": "3440", "name": "RICHEMONT"}, {"id": "3441", "name": "GROUPE ROYER"}, {"id": "3442", "name": "MO\u00cbT HENNESSY"}, {"id": "3443", "name": "HERMES INTERNATIONAL"}, {"id": "3444", "name": "GROSFILLEX"}, {"id": "3445", "name": "GROUPE LA DEPECHE DU MIDI"}, {"id": "3446", "name": "ORANGE"}, {"id": "3447", "name": "CAMAIEU"}, {"id": "3448", "name": "GAP"}, {"id": "3449", "name": "PIMKIE"}, {"id": "3450", "name": "LEGRAND"}, {"id": "3451", "name": "FLEURY MICHON"}, {"id": "3452", "name": "NESTLE FRANCE"}, {"id": "3453", "name": "SAINT GOBAIN"}, {"id": "3454", "name": "ZARA"}, {"id": "3455", "name": "CHRISTIAN DIOR PARFUMS"}, {"id": "3456", "name": "MONDADORI FRANCE"}, {"id": "3457", "name": "LEROY MERLIN ESPA\u00d1A"}, {"id": "3458", "name": "RENT A CAR"}, {"id": "3459", "name": "ORIENTIS"}, {"id": "3460", "name": "SQLI"}, {"id": "3461", "name": "L'OR\u00c9AL"}, {"id": "3462", "name": "LAGARDERE GROUPE"}, {"id": "3463", "name": "MALAKOFF M\u00c9D\u00c9RIC HUMANIS"}, {"id": "3464", "name": "BYMYCAR"}, {"id": "3465", "name": "TOTAL"}, {"id": "3466", "name": "PRESTASHOP"}, {"id": "3467", "name": "BOULANGER"}, {"id": "3468", "name": "SUN CITY"}, {"id": "3469", "name": "EMAKINA"}, {"id": "3470", "name": "DECATHLON"}, {"id": "3471", "name": "FONDATION D'AUTEUIL"}, {"id": "3472", "name": "VENTE-PRIVEE.COM"}, {"id": "3473", "name": "SHISEIDO GROUP EMEA"}, {"id": "3474", "name": "BEAUTY SUCCESS"}, {"id": "3475", "name": "BIC"}, {"id": "3476", "name": "OXWORK"}, {"id": "3477", "name": "L'OCCITANE EN PROVENCE"}, {"id": "3478", "name": "PWC FRANCE"}, {"id": "3479", "name": "TARKETT"}, {"id": "3480", "name": "GROUPE DUBREUIL"}, {"id": "3481", "name": "SEPHORA"}, {"id": "3482", "name": "NH HOTELES S.A."}, {"id": "3483", "name": "COURIR"}, {"id": "3484", "name": "BOSCH"}, {"id": "3485", "name": "AB TASTY"}, {"id": "3486", "name": "SIA PARTNERS"}, {"id": "3487", "name": "H&M"}, {"id": "3488", "name": "UBISOFT"}, {"id": "3489", "name": "REMY  COINTREAU"}, {"id": "3490", "name": "CAPGEMINI FRANCE"}, {"id": "3491", "name": "CLUB M\u00c9DITERRAN\u00c9E"}, {"id": "3492", "name": "ETAM"}, {"id": "3493", "name": "BOULANGER ESPA\u00d1A"}, {"id": "3494", "name": "JENNYFER"}, {"id": "3495", "name": "ALTAREA COGEDIM"}, {"id": "3496", "name": "MAYORAL"}, {"id": "3497", "name": "KUONI"}, {"id": "3498", "name": "FAGUO"}, {"id": "3499", "name": "VISEO"}, {"id": "3500", "name": "VORWERK SEMCO"}], "page": 35, "has_more": true, "count": 8677}