{"results": [{"id": "7601", "name": "Neoma-Bs"}, {"id": "7602", "name": "Airbus Operations Sas"}, {"id": "7603", "name": "Post-Scriptum La Poste"}, {"id": "7604", "name": "Ca-Centreloire"}, {"id": "7605", "name": "Iss France"}, {"id": "7606", "name": "Microsoft Es"}, {"id": "7607", "name": "Revlon"}, {"id": "7608", "name": "Saint-gobain Sekurit International"}, {"id": "7609", "name": "Acqua Di Parma"}, {"id": "7610", "name": "CAF"}, {"id": "7611", "name": "Cr\u00e9dit Agricole Loire Haute Loire"}, {"id": "7612", "name": "GEG"}, {"id": "7613", "name": "Territoire Anjou Maine"}, {"id": "7614", "name": "Trimane"}, {"id": "7615", "name": "Akzo Nobel Nederland Bv"}, {"id": "7616", "name": "Assessfirst"}, {"id": "7617", "name": "Eiffel Industrie"}, {"id": "7618", "name": "Agence Shift"}, {"id": "7619", "name": "Axa Group Innovation"}, {"id": "7620", "name": "Disneyland Paris"}, {"id": "7621", "name": "Autour Du Web"}, {"id": "7622", "name": "It Facto - Aviva Sa France"}, {"id": "7623", "name": "Vhemy & Associ\u00e9s"}, {"id": "7624", "name": "Ecoburotic"}, {"id": "7625", "name": "Kerops"}, {"id": "7626", "name": "Accor Nl"}, {"id": "7627", "name": "Travel Planet"}, {"id": "7628", "name": "Made.com"}, {"id": "7629", "name": "Lesechosmedias"}, {"id": "7630", "name": "Monsanto Company"}, {"id": "7631", "name": "Profil Linkedin"}, {"id": "7632", "name": "Arvato"}, {"id": "7633", "name": "Hospimedia"}, {"id": "7634", "name": "Smartelia"}, {"id": "7635", "name": "Orange Be"}, {"id": "7636", "name": "Document - Advisor"}, {"id": "7637", "name": "Oralia"}, {"id": "7638", "name": "Ludendo"}, {"id": "7639", "name": "Saint-Gobain Ceramic Materials"}, {"id": "7640", "name": "Plezi"}, {"id": "7641", "name": "MSF"}, {"id": "7642", "name": "Greenyellow"}, {"id": "7643", "name": "Facebook"}, {"id": "7644", "name": "Danone Waters Of America"}, {"id": "7645", "name": "Delifrance"}, {"id": "7646", "name": "Axance.fr"}, {"id": "7647", "name": "Wickes"}, {"id": "7648", "name": "Safran paris"}, {"id": "7649", "name": "Procter & Gamble Europe S.a."}, {"id": "7650", "name": "Nerim"}, {"id": "7651", "name": "Allegion"}, {"id": "7652", "name": "Viamedis Sant\u00e9"}, {"id": "7653", "name": "Ca-Alpesprovence.fr"}, {"id": "7654", "name": "Made"}, {"id": "7655", "name": "Ca-Paris"}, {"id": "7656", "name": "Altar\u00e9a"}, {"id": "7657", "name": "Erdf"}, {"id": "7658", "name": "Standardtextile"}, {"id": "7659", "name": "Jdecoffee"}, {"id": "7660", "name": "Sodexo Sports & Loisirs France"}, {"id": "7661", "name": "Bmi Healthcare"}, {"id": "7662", "name": "Eisti"}, {"id": "7663", "name": "Marriott international"}, {"id": "7664", "name": "Smabtp"}, {"id": "7665", "name": "Ikea U.s."}, {"id": "7666", "name": "Jullien Truffaut (groupe)"}, {"id": "7667", "name": "Chu De Poitiers"}, {"id": "7668", "name": "Fca Germany Ag - Fiat Chrysler Automobiles"}, {"id": "7669", "name": "Craft"}, {"id": "7670", "name": "Psbedu"}, {"id": "7671", "name": "Numberly"}, {"id": "7672", "name": "PG"}, {"id": "7673", "name": "Telindus"}, {"id": "7674", "name": "Nike Emea"}, {"id": "7675", "name": "Saint Gobain Delegation Russia, Ukraine And Cis"}, {"id": "7676", "name": "Oxatis"}, {"id": "7677", "name": "Avril"}, {"id": "7678", "name": "Chlo\u00e9"}, {"id": "7679", "name": "Jerevedunemaison"}, {"id": "7680", "name": "Google Cloud Platform At Sellbytel Group"}, {"id": "7681", "name": "Google Inc."}, {"id": "7682", "name": "GCS UNIHA"}, {"id": "7683", "name": "X By Orange"}, {"id": "7684", "name": "Simplon"}, {"id": "7685", "name": "Dunforce"}, {"id": "7686", "name": "Mirakl"}, {"id": "7687", "name": "Javista"}, {"id": "7688", "name": "Compte-Nickel"}, {"id": "7689", "name": "Virtual-Expo"}, {"id": "7690", "name": "Silver Lining Consulting"}, {"id": "7691", "name": "Acticall"}, {"id": "7692", "name": "Societe Generale Montenegro"}, {"id": "7693", "name": "Chambre De Commerce Et D_x0019_industrie De Region Paris Ile-De-France"}, {"id": "7694", "name": "OUI"}, {"id": "7695", "name": "Eim Executive Interim Management"}, {"id": "7696", "name": "Ile De France"}, {"id": "7697", "name": "Alliance Boots"}, {"id": "7698", "name": "Faites Reporter Votre Velo"}, {"id": "7699", "name": "Saint-gobain Pam"}, {"id": "7700", "name": "Smart Traffik"}], "page": 77, "has_more": true, "count": 8677}