{"results": [{"id": "7401", "name": "Kiloutou"}, {"id": "7402", "name": "Alten"}, {"id": "7403", "name": "A\u00e9roports De Lyon"}, {"id": "7404", "name": "Accor Us"}, {"id": "7405", "name": "So Local Group (pagesjaunes)"}, {"id": "7406", "name": "Blue Valet"}, {"id": "7407", "name": "Bristol-myers Squibb"}, {"id": "7408", "name": "Voyages Sncf"}, {"id": "7409", "name": "Bnl Gruppo Bnp Paribas"}, {"id": "7410", "name": "Orange Business Services (OBS)"}, {"id": "7411", "name": "Capgemini Us"}, {"id": "7412", "name": "Clarins Group"}, {"id": "7413", "name": "DHL"}, {"id": "7414", "name": "Danone"}, {"id": "7415", "name": "mytraffic \u00ae"}, {"id": "7416", "name": "Cr\u00e9dit Agricole Anjou Maine"}, {"id": "7417", "name": "Converteo"}, {"id": "7418", "name": "Adeo Services"}, {"id": "7419", "name": "Wipro Limited"}, {"id": "7420", "name": "Petit Bateau"}, {"id": "7421", "name": "Soci\u00e9t\u00e9 G\u00e9n\u00e9rale Assurance"}, {"id": "7422", "name": "Accenture"}, {"id": "7423", "name": "Bred"}, {"id": "7424", "name": "Pellenc Group"}, {"id": "7425", "name": "EDF"}, {"id": "7426", "name": "Capgemini"}, {"id": "7427", "name": "Gruppo Cariparma Credit Agricole"}, {"id": "7428", "name": "Bloomberg Intelligence"}, {"id": "7429", "name": "Societe Generale Factoring"}, {"id": "7430", "name": "BNP Paribas Asset Management - USA"}, {"id": "7431", "name": "Wereldhave"}, {"id": "7432", "name": "L\u2019Or\u00e9al"}, {"id": "7433", "name": "Spartoo.com"}, {"id": "7434", "name": "Bonduelle"}, {"id": "7435", "name": "CGI"}, {"id": "7436", "name": "Prisma Media"}, {"id": "7437", "name": "Auchan"}, {"id": "7438", "name": "Sncf Gares & Connexions"}, {"id": "7439", "name": "Dayuse"}, {"id": "7440", "name": "Homeserve"}, {"id": "7441", "name": "BNP Paribas Leasing Solutions"}, {"id": "7442", "name": "Restaurants La Boucherie (Groupe)"}, {"id": "7443", "name": "Peugeot"}, {"id": "7444", "name": "Mango"}, {"id": "7445", "name": "Sisley"}, {"id": "7446", "name": "Cdiscount"}, {"id": "7447", "name": "Carrefour Property"}, {"id": "7448", "name": "Exertis"}, {"id": "7449", "name": "Cr\u00e9dit Agricole"}, {"id": "7450", "name": "L'or\u00e9al Nl"}, {"id": "7451", "name": "Chanel"}, {"id": "7452", "name": "Accenture Espa\u00f1a"}, {"id": "7453", "name": "Vf Corporation"}, {"id": "7454", "name": "World Organization for Animal Health"}, {"id": "7455", "name": "Orange"}, {"id": "7456", "name": "Samsung"}, {"id": "7457", "name": "Real Madrid"}, {"id": "7458", "name": "Betc"}, {"id": "7459", "name": "FFT"}, {"id": "7460", "name": "Bnpp / Ips"}, {"id": "7461", "name": "Ab Tasty"}, {"id": "7462", "name": "Compagnie Parisienne De Chauffage Urbain - Bu France R\u00e9seaux - Engie"}, {"id": "7463", "name": "El Corte Ingl\u00e9s"}, {"id": "7464", "name": "Credit Agricole De L'anjou Et Du Maine"}, {"id": "7465", "name": "Nespresso"}, {"id": "7466", "name": "Kl\u00e9pierre"}, {"id": "7467", "name": "Coca Cola"}, {"id": "7468", "name": "Axa Group Solutions"}, {"id": "7469", "name": "Alstom"}, {"id": "7470", "name": "Carglass"}, {"id": "7471", "name": "Cr\u00e9dit Mutuel Ark\u00e9a"}, {"id": "7472", "name": "Unibail-Rodamco-Westfield"}, {"id": "7473", "name": "Aircall"}, {"id": "7474", "name": "Accenture Uk"}, {"id": "7475", "name": "Bouygues Telecom"}, {"id": "7476", "name": "BNP Paribas Asset Management"}, {"id": "7477", "name": "Mo\u00ebt & Chandon"}, {"id": "7478", "name": "Socomec Group"}, {"id": "7479", "name": "IWC"}, {"id": "7480", "name": "Aig Us"}, {"id": "7481", "name": "Renault"}, {"id": "7482", "name": "Algolia"}, {"id": "7483", "name": "Cr\u00e9dit Agricole Toulouse 31"}, {"id": "7484", "name": "Sodexo"}, {"id": "7485", "name": "Levi Strauss & Co."}, {"id": "7486", "name": "Orange Espa\u00f1a"}, {"id": "7487", "name": "Lexisnexis"}, {"id": "7488", "name": "BNP Paribas IRB"}, {"id": "7489", "name": "Education"}, {"id": "7490", "name": "Axa Banque"}, {"id": "7491", "name": "Auchan Retail"}, {"id": "7492", "name": "Vinci Immobilier"}, {"id": "7493", "name": "Sanofi Italia"}, {"id": "7494", "name": "BNP Paribas REPM"}, {"id": "7495", "name": "Bouyguestelecom"}, {"id": "7496", "name": "Carrefour Voyages"}, {"id": "7497", "name": "Engie, Bu France Btob"}, {"id": "7498", "name": "Cr\u00e9dit Agricole Centre France"}, {"id": "7499", "name": "MAN"}, {"id": "7500", "name": "Heineken Nl"}], "page": 75, "has_more": true, "count": 8677}