{"results": [{"id": "2001", "name": "Shopix"}, {"id": "2002", "name": "El Corte Ingles Seguros"}, {"id": "2003", "name": "Inc Research, LLC"}, {"id": "2004", "name": "Samsic Emploi"}, {"id": "2005", "name": "Autorit\u00e9 des March\u00e9s Financiers"}, {"id": "2006", "name": "Groupe Pomona"}, {"id": "2007", "name": "Radley College"}, {"id": "2008", "name": "Universit\u00e9 Paris-Saclay"}, {"id": "2009", "name": "StarDust"}, {"id": "2010", "name": "Hearst Magazines Italia Spa"}, {"id": "2011", "name": "Avanade"}, {"id": "2012", "name": "STI Serv Trayvou"}, {"id": "2013", "name": "GO Sport France"}, {"id": "2014", "name": "UPS"}, {"id": "2015", "name": "adm Group Ltd"}, {"id": "2016", "name": "FollowAnalytics"}, {"id": "2017", "name": "A\u00e9roport de Paris"}, {"id": "2018", "name": "Pricemoov"}, {"id": "2019", "name": "Mediatice"}, {"id": "2020", "name": "L'H\u00f4tellerie Restauration"}, {"id": "2021", "name": "3li Groupe Calliope"}, {"id": "2022", "name": "Log-On Software"}, {"id": "2023", "name": "sodiaal union"}, {"id": "2024", "name": "Sussex Partnership NHS Foundation Trust"}, {"id": "2025", "name": "Centre for Addiction and Mental Health (CAMH)"}, {"id": "2026", "name": "SOCOTEC France"}, {"id": "2027", "name": "NRJ"}, {"id": "2028", "name": "\u0178nsect"}, {"id": "2029", "name": "Algolia"}, {"id": "2030", "name": "Prevor"}, {"id": "2031", "name": "AUDITOIRE"}, {"id": "2032", "name": "Department For Education"}, {"id": "2033", "name": "PYCOGROUP"}, {"id": "2034", "name": "Concur"}, {"id": "2035", "name": "42 Consulting Groupe"}, {"id": "2036", "name": "Atos SE"}, {"id": "2037", "name": "Club Med"}, {"id": "2038", "name": "MacAnders"}, {"id": "2039", "name": "KIABI"}, {"id": "2040", "name": "Maximo SAS"}, {"id": "2041", "name": "BALSAN"}, {"id": "2042", "name": "Student Loans Company"}, {"id": "2043", "name": "Segeco Consulting"}, {"id": "2044", "name": "Magellan Aerospace Limited"}, {"id": "2045", "name": "aladom"}, {"id": "2046", "name": "Jifmar Offshore Services"}, {"id": "2047", "name": "groupe-nasse.fr"}, {"id": "2048", "name": "PARIS STORE DISTRIBUTION \u5df4\u9ece\u58eb\u591a\u96c6\u56e2"}, {"id": "2049", "name": "Vienna House"}, {"id": "2050", "name": "Lee Hecht Harrison"}, {"id": "2051", "name": "UTAC CERAM"}, {"id": "2052", "name": "BAE Systems AB"}, {"id": "2053", "name": "Oxford Instruments"}, {"id": "2054", "name": "cnamts.fr"}, {"id": "2055", "name": "ID Logistics"}, {"id": "2056", "name": "OCTO Technology"}, {"id": "2057", "name": "Meetic"}, {"id": "2058", "name": "Drawbotics"}, {"id": "2059", "name": "Magasins Bleus SAS"}, {"id": "2060", "name": "Securitas France"}, {"id": "2061", "name": "Eurelis"}, {"id": "2062", "name": "Sogelink"}, {"id": "2063", "name": "Idex"}, {"id": "2064", "name": "Infos Sitemap"}, {"id": "2065", "name": "Thanx"}, {"id": "2066", "name": "Brandalley"}, {"id": "2067", "name": "CNAM"}, {"id": "2068", "name": "Sonovision Group"}, {"id": "2069", "name": "Mibelle Group"}, {"id": "2070", "name": "GALEC"}, {"id": "2071", "name": "lonlay-finance.fr"}, {"id": "2072", "name": "Groupe \u00c9L\u00c9PHANT VERT"}, {"id": "2073", "name": "Takeaway.com"}, {"id": "2074", "name": "IHS Markit"}, {"id": "2075", "name": "University of Nantes"}, {"id": "2076", "name": "DFS"}, {"id": "2077", "name": "CITADIUM"}, {"id": "2078", "name": "Procsea SA"}, {"id": "2079", "name": "Groupe Berto"}, {"id": "2080", "name": "Pernod Ricard"}, {"id": "2081", "name": "MBDA"}, {"id": "2082", "name": "Four Seasons Hotels"}, {"id": "2083", "name": "IPAG Business School"}, {"id": "2084", "name": "Ravensburger"}, {"id": "2085", "name": "Goldman Sachs"}, {"id": "2086", "name": "TBWA France"}, {"id": "2087", "name": "Grant Thornton France"}, {"id": "2088", "name": "Auto Consultant"}, {"id": "2089", "name": "Maranatha (Groupe)"}, {"id": "2090", "name": "TUNE"}, {"id": "2091", "name": "Randstad Sourceright"}, {"id": "2092", "name": "VIAPOST"}, {"id": "2093", "name": "Frichti"}, {"id": "2094", "name": "MasterCard"}, {"id": "2095", "name": "Gb (Groupe)"}, {"id": "2096", "name": "Sanoma Media Finland"}, {"id": "2097", "name": "MAF"}, {"id": "2098", "name": "Primis."}, {"id": "2099", "name": "L'addition"}, {"id": "2100", "name": "XL Group"}], "page": 21, "has_more": true, "count": 8677}