{"results": [{"id": "5901", "name": "Elis"}, {"id": "5902", "name": "Rabot Dutilleul"}, {"id": "5903", "name": "Andra"}, {"id": "5904", "name": "Bouygues Construction"}, {"id": "5905", "name": "Willis Towers Watson | Groupe"}, {"id": "5906", "name": "Universal Music Group"}, {"id": "5907", "name": "United Airlines, Inc"}, {"id": "5908", "name": "Cr\u00e9dit Agricole | Provence C\u00f4te d'Azur"}, {"id": "5909", "name": "mytf1"}, {"id": "5910", "name": "AXA Assistance Ltd"}, {"id": "5911", "name": "H&M"}, {"id": "5912", "name": "Disneyland France"}, {"id": "5913", "name": "Bpi France"}, {"id": "5914", "name": "CCI France"}, {"id": "5915", "name": "CEMEX"}, {"id": "5916", "name": "Les Mousquetaires"}, {"id": "5917", "name": "OPPBTP"}, {"id": "5918", "name": "IT-CE"}, {"id": "5919", "name": "Parrot SA"}, {"id": "5920", "name": "L'Union-L'Ardennais"}, {"id": "5921", "name": "Heineken | France"}, {"id": "5922", "name": "Veepee"}, {"id": "5923", "name": "Team One HR Services"}, {"id": "5924", "name": "Hannover Re"}, {"id": "5925", "name": "Iss world"}, {"id": "5926", "name": "AAA DATA"}, {"id": "5927", "name": "Cr\u00e9dit Agricole | Charente-Maritime Deux-S\u00e8vres"}, {"id": "5928", "name": "FONCIA Groupe"}, {"id": "5929", "name": "Cr\u00e9dit Mutuel | Nord Europe"}, {"id": "5930", "name": "Air Liquide"}, {"id": "5931", "name": "Toucan Toco"}, {"id": "5932", "name": "Banque Populaire"}, {"id": "5933", "name": "ID Logitstics"}, {"id": "5934", "name": "COFACE"}, {"id": "5935", "name": "Philip Morris International | Groupe"}, {"id": "5936", "name": "Magellan Consulting"}, {"id": "5937", "name": "VERTONE"}, {"id": "5938", "name": "Veolia"}, {"id": "5939", "name": "Isagri | France"}, {"id": "5940", "name": "Boulanger"}, {"id": "5941", "name": "Christofle"}, {"id": "5942", "name": "BUSINESS FRANCE"}, {"id": "5943", "name": "Euler Hermes"}, {"id": "5944", "name": "Groupama legal protection"}, {"id": "5945", "name": "Cr\u00e9dit Agricole | Nord de France"}, {"id": "5946", "name": "Cdiscount"}, {"id": "5947", "name": "Lagardere"}, {"id": "5948", "name": "Banque Palatine"}, {"id": "5949", "name": "Banque BCP"}, {"id": "5950", "name": "OVH LTD"}, {"id": "5951", "name": "Groupe AEF SAS"}, {"id": "5952", "name": "SIA Partners "}, {"id": "5953", "name": "Inditex"}, {"id": "5954", "name": "Groupe Hospitalier Diaconesses Croix Saint-Simon"}, {"id": "5955", "name": "BENETEAU"}, {"id": "5956", "name": "Sartorius"}, {"id": "5957", "name": "Carrefour"}, {"id": "5958", "name": "Truffaut"}, {"id": "5959", "name": "MNT"}, {"id": "5960", "name": "euralis.com"}, {"id": "5961", "name": "Groupe Casino"}, {"id": "5962", "name": "METRO Cash u0026 Carry France"}, {"id": "5963", "name": "Nespresso"}, {"id": "5964", "name": "Lyreco"}, {"id": "5965", "name": "AccorHotels"}, {"id": "5966", "name": "FIDAL"}, {"id": "5967", "name": "KPMG"}, {"id": "5968", "name": "Heppner"}, {"id": "5969", "name": "Thyssenkrupp"}, {"id": "5970", "name": "Cr\u00e9dit Agricole | Anjou Maine"}, {"id": "5971", "name": "L'Assurance retraite"}, {"id": "5972", "name": "LVMH"}, {"id": "5973", "name": "Cora"}, {"id": "5974", "name": "Campofrio Food Group"}, {"id": "5975", "name": "Havas Media"}, {"id": "5976", "name": "SNCF"}, {"id": "5977", "name": "PATAUGAS"}, {"id": "5978", "name": "OCP R\u00e9partition"}, {"id": "5979", "name": "EDENRED"}, {"id": "5980", "name": "Deezer"}, {"id": "5981", "name": "XL Airways France"}, {"id": "5982", "name": "Merck"}, {"id": "5983", "name": "Kea & Partners"}, {"id": "5984", "name": "EDF"}, {"id": "5985", "name": "Rentokil Initial plc"}, {"id": "5986", "name": "Randstad France"}, {"id": "5987", "name": "Altedia SA"}, {"id": "5988", "name": "Hanes"}, {"id": "5989", "name": "Standard Chartered"}, {"id": "5990", "name": "Groupe Eram"}, {"id": "5991", "name": "Novartis"}, {"id": "5992", "name": "AFPA"}, {"id": "5993", "name": "UBISOFT"}, {"id": "5994", "name": "Canal +"}, {"id": "5995", "name": "Vetoquinol"}, {"id": "5996", "name": "Saint-Gobain"}, {"id": "5997", "name": "BPCE Infog\u00e9rance & Technologies"}, {"id": "5998", "name": "Schlumberger"}, {"id": "5999", "name": "Viseo"}, {"id": "6000", "name": "Carlson Wagonlit Travel"}], "page": 60, "has_more": true, "count": 8677}