{"results": [{"id": "5301", "name": "Eurogiciel"}, {"id": "5302", "name": "3D Hubs"}, {"id": "5303", "name": "beNext"}, {"id": "5304", "name": "Witbe"}, {"id": "5305", "name": "Grenoble Ecole de Management"}, {"id": "5306", "name": "Datawords"}, {"id": "5307", "name": "Intercom, Inc."}, {"id": "5308", "name": "Mailjet inc"}, {"id": "5309", "name": "LesFurets.com"}, {"id": "5310", "name": "Barona"}, {"id": "5311", "name": "Deloitte Touche Tohmatsu India"}, {"id": "5312", "name": "Hyperlex"}, {"id": "5313", "name": "github"}, {"id": "5314", "name": "Intercom, Inc."}, {"id": "5315", "name": "Chainalysis"}, {"id": "5316", "name": "Kingfisher plc"}, {"id": "5317", "name": "EPOKA"}, {"id": "5318", "name": "WILLOUGHBY ASSOCIATES LIMITED"}, {"id": "5319", "name": "Agorize"}, {"id": "5320", "name": "Consort NT"}, {"id": "5321", "name": "Ernst & Young LLP"}, {"id": "5322", "name": "Zelros"}, {"id": "5323", "name": "Stripe"}, {"id": "5324", "name": "Testlio Inc"}, {"id": "5325", "name": "afrimarketgroup.com"}, {"id": "5326", "name": "Ignition Program"}, {"id": "5327", "name": "Kairos"}, {"id": "5328", "name": "Fastbooking"}, {"id": "5329", "name": "BNP Paribas"}, {"id": "5330", "name": "FittingBox"}, {"id": "5331", "name": "4people"}, {"id": "5332", "name": "travelbank"}, {"id": "5333", "name": "Misterfox"}, {"id": "5334", "name": "Iliad"}, {"id": "5335", "name": "Back Market"}, {"id": "5336", "name": "Zenchef"}, {"id": "5337", "name": "deliver.ee"}, {"id": "5338", "name": "PlanGrid, Inc."}, {"id": "5339", "name": "SKEMA Business School"}, {"id": "5340", "name": "Vulog"}, {"id": "5341", "name": "Partoo"}, {"id": "5342", "name": "Allegorithmic"}, {"id": "5343", "name": "Meetup"}, {"id": "5344", "name": "Saint-Gobain"}, {"id": "5345", "name": "PYCOGROUP"}, {"id": "5346", "name": "NUMA"}, {"id": "5347", "name": "2Spark"}, {"id": "5348", "name": "Computer Futures"}, {"id": "5349", "name": "Talentpeople"}, {"id": "5350", "name": "Feel Europe"}, {"id": "5351", "name": "Maarch"}, {"id": "5352", "name": "CallDesk"}, {"id": "5353", "name": "9online.fr"}, {"id": "5354", "name": "Uptilab"}, {"id": "5355", "name": "Agriconomie.com"}, {"id": "5356", "name": "Toucan Toco"}, {"id": "5357", "name": "Krank SAS"}, {"id": "5358", "name": "Schibsted Media Group"}, {"id": "5359", "name": "L'Or\u00e9al"}, {"id": "5360", "name": "AppartCity"}, {"id": "5361", "name": "METRO Cash u0026 Carry France"}, {"id": "5362", "name": "Cr\u00e9dit Agricole Loire Haute Loire"}, {"id": "5363", "name": "proximus"}, {"id": "5364", "name": "Feu Vert"}, {"id": "5365", "name": "Jones Lang LaSalle, IP, Inc."}, {"id": "5366", "name": "INSA Lyon"}, {"id": "5367", "name": "InVivo"}, {"id": "5368", "name": "Franprix"}, {"id": "5369", "name": "Groupe HOLDER "}, {"id": "5370", "name": "Doctolib"}, {"id": "5371", "name": "Signet Jewelers"}, {"id": "5372", "name": "ARMOR"}, {"id": "5373", "name": "AG2R La Mondiale"}, {"id": "5374", "name": "Ali\u00e9nor.net"}, {"id": "5375", "name": "Tata Group"}, {"id": "5376", "name": "Huawei Technologies Co., Ltd."}, {"id": "5377", "name": "Renault Groupe"}, {"id": "5378", "name": "VINCI Airports"}, {"id": "5379", "name": "Parrot SA"}, {"id": "5380", "name": "Vanden Borre"}, {"id": "5381", "name": "Afflelou"}, {"id": "5382", "name": "Acuitis"}, {"id": "5383", "name": "Chantelle"}, {"id": "5384", "name": "Batigere Novigere"}, {"id": "5385", "name": "Groupe VYV"}, {"id": "5386", "name": "BNP Paribas (Groupe)"}, {"id": "5387", "name": "Besson Chaussures"}, {"id": "5388", "name": "Kiss the Bride"}, {"id": "5389", "name": "Cultura"}, {"id": "5390", "name": "Groupon, Inc."}, {"id": "5391", "name": "Solocal"}, {"id": "5392", "name": "ACMN VIE"}, {"id": "5393", "name": "Manpower France"}, {"id": "5394", "name": "Target2Sell"}, {"id": "5395", "name": "FNAC DARTY"}, {"id": "5396", "name": "Pierre Fabre"}, {"id": "5397", "name": "Aubay SA"}, {"id": "5398", "name": "Groupe BPCE"}, {"id": "5399", "name": "Novway"}, {"id": "5400", "name": "Maisadour"}], "page": 54, "has_more": true, "count": 8677}