{"results": [{"id": "3201", "name": "agap2"}, {"id": "3202", "name": "PwC Italy"}, {"id": "3203", "name": "EUROP ASSISTANCE HOLDING"}, {"id": "3204", "name": "PZ Cussons"}, {"id": "3205", "name": "Transport For London"}, {"id": "3206", "name": "Bazaarvoice"}, {"id": "3207", "name": "FNAC France"}, {"id": "3208", "name": "Glu Mobile"}, {"id": "3209", "name": "Ericsson MEA"}, {"id": "3210", "name": "M6"}, {"id": "3211", "name": "RAJA FRANCE"}, {"id": "3212", "name": "CHRISTIAN DIOR COUTURE"}, {"id": "3213", "name": "Mentor Graphics"}, {"id": "3214", "name": "Accenture Korea"}, {"id": "3215", "name": "Groupe Bel"}, {"id": "3216", "name": "LIDL"}, {"id": "3217", "name": "Dentsu Aegis Network"}, {"id": "3218", "name": "Digitas / Vivaki"}, {"id": "3219", "name": "Medtronic"}, {"id": "3220", "name": "Shetland Islands Council"}, {"id": "3221", "name": "Happytal"}, {"id": "3222", "name": "Yves Rocher"}, {"id": "3223", "name": "Pwc (Poland)"}, {"id": "3224", "name": "Melvin & Hamilton Digital"}, {"id": "3225", "name": "Alsace Interim"}, {"id": "3226", "name": "CHARLESToWN"}, {"id": "3227", "name": "AREAS"}, {"id": "3228", "name": "National Instruments"}, {"id": "3229", "name": "CDT Bouches Du Rhone"}, {"id": "3230", "name": "Interiale Mutuelle"}, {"id": "3231", "name": "EM Strasbourg Business School"}, {"id": "3232", "name": "Bayer"}, {"id": "3233", "name": "Altus Group"}, {"id": "3234", "name": "POMONA"}, {"id": "3235", "name": "Schneider Electric France"}, {"id": "3236", "name": "Rockwell Collins, Inc."}, {"id": "3237", "name": "Chronopost"}, {"id": "3238", "name": "Groupe ESC Pau"}, {"id": "3239", "name": "Plastic Omnium"}, {"id": "3240", "name": "AFTRAL"}, {"id": "3241", "name": "Exelis, Inc."}, {"id": "3242", "name": "Ageas"}, {"id": "3243", "name": "FORTIMEDIX"}, {"id": "3244", "name": "Place des Tendances"}, {"id": "3245", "name": "Cegid"}, {"id": "3246", "name": "Talascend"}, {"id": "3247", "name": "Interactive Intelligence"}, {"id": "3248", "name": "DLSOFTWARE"}, {"id": "3249", "name": "Engie France"}, {"id": "3250", "name": "Groupe Berto"}, {"id": "3251", "name": "Lucas-Milhaupt"}, {"id": "3252", "name": "Guerbet"}, {"id": "3253", "name": "Club Med France"}, {"id": "3254", "name": "VMI Group"}, {"id": "3255", "name": "BAE Systems UK"}, {"id": "3256", "name": "Vandemoortele"}, {"id": "3257", "name": "Volvo"}, {"id": "3258", "name": "Car Toys"}, {"id": "3259", "name": "Norbord"}, {"id": "3260", "name": "Toys ''R'' Us, Inc."}, {"id": "3261", "name": "Decathlon Germany"}, {"id": "3262", "name": "Limagrain"}, {"id": "3263", "name": "Chipotle France"}, {"id": "3264", "name": "PMU"}, {"id": "3265", "name": "Playtika"}, {"id": "3266", "name": "Microsoft (India)"}, {"id": "3267", "name": "Vente-Priv\u008e\u00e9e"}, {"id": "3268", "name": "Ladur\u00e9e"}, {"id": "3269", "name": "Nestor"}, {"id": "3270", "name": "Booking.com"}, {"id": "3271", "name": "Deloitte (Namibia)"}, {"id": "3272", "name": "Spirent"}, {"id": "3273", "name": "Tekelec"}, {"id": "3274", "name": "Aimia"}, {"id": "3275", "name": "Polycom"}, {"id": "3276", "name": "Xilinx"}, {"id": "3277", "name": "Cr\u00e9dit Agricole SA"}, {"id": "3278", "name": "Softfluent"}, {"id": "3279", "name": "APSIA - TMS"}, {"id": "3280", "name": "Technicolor"}, {"id": "3281", "name": "Iliade Consulting"}, {"id": "3282", "name": "CSG"}, {"id": "3283", "name": "CEISA PACKAGING"}, {"id": "3284", "name": "Groupe Uneo"}, {"id": "3285", "name": "Altedia"}, {"id": "3286", "name": "F5 Networks"}, {"id": "3287", "name": "Amazon IN"}, {"id": "3288", "name": "cafpi"}, {"id": "3289", "name": "Overstock.com"}, {"id": "3290", "name": "UK International Soccer"}, {"id": "3291", "name": "Insight Enterprises"}, {"id": "3292", "name": "CMG SPORTS CLUB - CLUB MED GYM"}, {"id": "3293", "name": "PCO Innovation"}, {"id": "3294", "name": "Printemps"}, {"id": "3295", "name": "Accenture India"}, {"id": "3296", "name": "Cooper Tire"}, {"id": "3297", "name": "Verastar"}, {"id": "3298", "name": "CF Industries Holdings"}, {"id": "3299", "name": "Sogeti Germany"}, {"id": "3300", "name": "Steris Corporation"}], "page": 33, "has_more": true, "count": 8677}