{"results": [{"id": "501", "name": "Cirruseo"}, {"id": "502", "name": "Symbio"}, {"id": "503", "name": "360Learning"}, {"id": "504", "name": "Antidox"}, {"id": "505", "name": "ReachFive"}, {"id": "506", "name": "Archibald & Abraham"}, {"id": "507", "name": "Sun'R Spas"}, {"id": "508", "name": "hckrs.io"}, {"id": "509", "name": "CoSpirit MediaTrack"}, {"id": "510", "name": "1913 Telecom"}, {"id": "511", "name": "BFT Investment Managers"}, {"id": "512", "name": "GOWIZYOU"}, {"id": "513", "name": "OurCo"}, {"id": "514", "name": "June Partners"}, {"id": "515", "name": "DotEmu"}, {"id": "516", "name": "Foodles"}, {"id": "517", "name": "Coefficy"}, {"id": "518", "name": "Vinci Technologies SA"}, {"id": "519", "name": "Zen'to"}, {"id": "520", "name": "Finamic Services"}, {"id": "521", "name": "Storefront"}, {"id": "522", "name": "Wamiz"}, {"id": "523", "name": "Avangarde"}, {"id": "524", "name": "Axialys"}, {"id": "525", "name": "OpenIP"}, {"id": "526", "name": "WeFix"}, {"id": "527", "name": "STAFFMATCH"}, {"id": "528", "name": "Paylogic International"}, {"id": "529", "name": "Welcome Media"}, {"id": "530", "name": "You & Mr Jones Inc."}, {"id": "531", "name": "Indiana Capital"}, {"id": "532", "name": "MAILEVA"}, {"id": "533", "name": "MinuteBuzz"}, {"id": "534", "name": "Souffl"}, {"id": "535", "name": "Captain Dash"}, {"id": "536", "name": "Clustree"}, {"id": "537", "name": "dailymotion"}, {"id": "538", "name": "axereal-elevage.com"}, {"id": "539", "name": "Lengow"}, {"id": "540", "name": "Adamas Avocats"}, {"id": "541", "name": "D\u00e9partement du Rh\u00f4ne"}, {"id": "542", "name": "Suncard Group"}, {"id": "543", "name": "Furmanite"}, {"id": "544", "name": "Sea TPI"}, {"id": "545", "name": "Le Studio "}, {"id": "546", "name": "TAYLOR WIMPEY PLC"}, {"id": "547", "name": "Belfast City Council"}, {"id": "548", "name": "Roth France"}, {"id": "549", "name": "Location Labs by Avast"}, {"id": "550", "name": "Bleu Libellule"}, {"id": "551", "name": "Wipro"}, {"id": "552", "name": "GRDF"}, {"id": "553", "name": "Convictionsrh"}, {"id": "554", "name": "ATR Aircraft"}, {"id": "555", "name": "Crdit Agricole Nord de France"}, {"id": "556", "name": "Pr\u00eat \u00e0 Partir S.A."}, {"id": "557", "name": "Wirecard"}, {"id": "558", "name": "IKKS"}, {"id": "559", "name": "Awilco Drilling PLC"}, {"id": "560", "name": "Mears Group PLC"}, {"id": "561", "name": "PVH Corp."}, {"id": "562", "name": "CSC"}, {"id": "563", "name": "Lemonway"}, {"id": "564", "name": "Computer Task Group"}, {"id": "565", "name": "Sacchi Elettroforniture"}, {"id": "566", "name": "Valentin Ha\u00fcy"}, {"id": "567", "name": "RTBF"}, {"id": "568", "name": "zenlap"}, {"id": "569", "name": "AstraZeneca"}, {"id": "570", "name": "Alven"}, {"id": "571", "name": "City Scoot"}, {"id": "572", "name": "Babilou"}, {"id": "573", "name": "Hudson Advisors L.P."}, {"id": "574", "name": "ASK"}, {"id": "575", "name": "Spintank"}, {"id": "576", "name": "Intrasense"}, {"id": "577", "name": "Hermes"}, {"id": "578", "name": "Bouygues Construction"}, {"id": "579", "name": "BELIEVE DIGITAL INC"}, {"id": "580", "name": "Fahrenheit 212"}, {"id": "581", "name": "DPD"}, {"id": "582", "name": "ISG plc"}, {"id": "583", "name": "LOCAL WORLD LTD."}, {"id": "584", "name": "Ayima"}, {"id": "585", "name": "Cabinet Roux"}, {"id": "586", "name": "ALTEN Italia"}, {"id": "587", "name": "SensioLabs"}, {"id": "588", "name": "VOUSFINANCER - Groupe ASSU 2000"}, {"id": "589", "name": "Banque Populaire Alsace Lorraine Champagne"}, {"id": "590", "name": "QlikTech International AB"}, {"id": "591", "name": "SITA"}, {"id": "592", "name": "klepierre"}, {"id": "593", "name": "STUDIOCANAL"}, {"id": "594", "name": "Lexmark"}, {"id": "595", "name": "Big Mamma"}, {"id": "596", "name": "Groupe AFG"}, {"id": "597", "name": "Versace"}, {"id": "598", "name": "TELETECH International"}, {"id": "599", "name": "Bel Group"}, {"id": "600", "name": "Genymobile"}], "page": 6, "has_more": true, "count": 8677}