{"results": [{"id": "3001", "name": "G\u00eetes De France"}, {"id": "3002", "name": "Dr. BABOR GmbH & Co. KG"}, {"id": "3003", "name": "Saint Gobain Distribution Batiment de France"}, {"id": "3004", "name": "Le Bon Coin"}, {"id": "3005", "name": "Cmne - Cr\u00e9dit Mutuel Nord Europe"}, {"id": "3006", "name": "Nestle Groupe"}, {"id": "3007", "name": "Deutsche Telekom Medien GmbH - DACH"}, {"id": "3008", "name": "Microsoft"}, {"id": "3009", "name": "Nespresso"}, {"id": "3010", "name": "BIMBA Y LOLA"}, {"id": "3011", "name": "Kuoni"}, {"id": "3012", "name": "ORCHESTRA"}, {"id": "3013", "name": "Beaba"}, {"id": "3014", "name": "Np6 - Smart Cloud Marketing"}, {"id": "3015", "name": "Michelin FR"}, {"id": "3016", "name": "Paule Ka"}, {"id": "3017", "name": "Piaget"}, {"id": "3018", "name": "Sant\u00e9vet"}, {"id": "3019", "name": "Castorama France"}, {"id": "3020", "name": "Fca Fiat Chrysler Automobiles"}, {"id": "3021", "name": "Blablacar"}, {"id": "3022", "name": "Groupe Pvcp - Pierre & Vacances - Center Parcs"}, {"id": "3023", "name": "Arenal"}, {"id": "3024", "name": "L'OREAL BE NL"}, {"id": "3025", "name": "E Leclerc Voyages"}, {"id": "3026", "name": "Atresmedia"}, {"id": "3027", "name": "Samsung Electronics France"}, {"id": "3028", "name": "Groupe Edition Lingerie"}, {"id": "3029", "name": "SUEZ"}, {"id": "3030", "name": "Somfy"}, {"id": "3031", "name": "Habitat"}, {"id": "3032", "name": "AG2R LA MONDIALE"}, {"id": "3033", "name": "Azerty Job"}, {"id": "3034", "name": "Electro Depot"}, {"id": "3035", "name": "Paru Vendu"}, {"id": "3036", "name": "Antler Uk"}, {"id": "3037", "name": "Psa Banque"}, {"id": "3038", "name": "Solocal"}, {"id": "3039", "name": "Verychic"}, {"id": "3040", "name": "Afpa"}, {"id": "3041", "name": "PerfectStay"}, {"id": "3042", "name": "Nrj Mobile"}, {"id": "3043", "name": "Rothelec"}, {"id": "3044", "name": "LineUP7 / Eddo"}, {"id": "3045", "name": "Leclerc"}, {"id": "3046", "name": "QVC France"}, {"id": "3047", "name": "La Maison Du Whisky"}, {"id": "3048", "name": "Rimowa GmbH"}, {"id": "3049", "name": "Interflora"}, {"id": "3050", "name": "France Tv"}, {"id": "3051", "name": "Motoblouz"}, {"id": "3052", "name": "1000Mercis"}, {"id": "3053", "name": "Gamestop"}, {"id": "3054", "name": "BNP Paribas - BDDF (ma Banque)"}, {"id": "3055", "name": "Soci\u00e9t\u00e9 G\u00e9n\u00e9rale Insurance"}, {"id": "3056", "name": "L\u2019OREAL LUXE France"}, {"id": "3057", "name": "Axel Springer SE"}, {"id": "3058", "name": "Grdf"}, {"id": "3059", "name": "Editorial Planeta Deagostini"}, {"id": "3060", "name": "Vacheron Constantin"}, {"id": "3061", "name": "Lavinia"}, {"id": "3062", "name": "Megara - Berceau Magique"}, {"id": "3063", "name": "Rossignol - Dynastar - Lange - Look"}, {"id": "3064", "name": "Vilebrequin"}, {"id": "3065", "name": "Un Jour Ailleurs - Vetsoca"}, {"id": "3066", "name": "Nicolas"}, {"id": "3067", "name": "La Provence"}, {"id": "3068", "name": "Fab Design"}, {"id": "3069", "name": "H&M"}, {"id": "3070", "name": "MacWay"}, {"id": "3071", "name": "Bic"}, {"id": "3072", "name": "Truffaut"}, {"id": "3073", "name": "Groupe Dubreuil"}, {"id": "3074", "name": "Assurone Group"}, {"id": "3075", "name": "Cenpac Groupe raja"}, {"id": "3076", "name": "Id Group"}, {"id": "3077", "name": "Kapten - Chauffeur Priv\u00e9"}, {"id": "3078", "name": "Netquattro - Fitness Boutique"}, {"id": "3079", "name": "Bigmat"}, {"id": "3080", "name": "Artsper"}, {"id": "3081", "name": "Engie"}, {"id": "3082", "name": "Burger King France"}, {"id": "3083", "name": "Cci Paris Ile De France"}, {"id": "3084", "name": "Genius TV"}, {"id": "3085", "name": "Infopro Digital"}, {"id": "3086", "name": "Novembre Communication"}, {"id": "3087", "name": "Coty"}, {"id": "3088", "name": "Aviva"}, {"id": "3089", "name": "Lyreco (Group Information Systems)"}, {"id": "3090", "name": "Allsecur"}, {"id": "3091", "name": "Metapeople.Com"}, {"id": "3092", "name": "Groupe Sephora"}, {"id": "3093", "name": "Liligo"}, {"id": "3094", "name": "Groupe Lactalis"}, {"id": "3095", "name": "Agence Oxalide"}, {"id": "3096", "name": "The Other Store"}, {"id": "3097", "name": "Dayuse.Com"}, {"id": "3098", "name": "Birch Box"}, {"id": "3099", "name": "Stash"}, {"id": "3100", "name": "Packdiscount - Monceau Diffusion"}], "page": 31, "has_more": true, "count": 8677}