{"results": [{"id": "5001", "name": "arvato France"}, {"id": "5002", "name": "FMC Corporation"}, {"id": "5003", "name": "BSI Group"}, {"id": "5004", "name": "Grupo Hotusa"}, {"id": "5005", "name": "Ubisoft Entertainment"}, {"id": "5006", "name": "NXP Semiconductors"}, {"id": "5007", "name": "Andjaro"}, {"id": "5008", "name": "Nutrixo"}, {"id": "5009", "name": "Flamingo"}, {"id": "5010", "name": "Sport England"}, {"id": "5011", "name": "La Centrale de Fi"}, {"id": "5012", "name": "Cpl Jobs Hungary"}, {"id": "5013", "name": "Comarch France"}, {"id": "5014", "name": "Investance Partners"}, {"id": "5015", "name": "UFF"}, {"id": "5016", "name": "DIANA"}, {"id": "5017", "name": "GOODMAN RESTAURANTS"}, {"id": "5018", "name": "ADVENS"}, {"id": "5019", "name": "Prodrive"}, {"id": "5020", "name": "GEODIS"}, {"id": "5021", "name": "Graebel Companies Inc."}, {"id": "5022", "name": "Towers Watson & Co."}, {"id": "5023", "name": "ZODIAC AEROSPACE"}, {"id": "5024", "name": "Covance Inc."}, {"id": "5025", "name": "MAIRIE DE VILLEURBANNE"}, {"id": "5026", "name": "MESSIER SERVICES"}, {"id": "5027", "name": "APAVE SUD EUROPE"}, {"id": "5028", "name": "Creditsafe Business Solutions Ltd."}, {"id": "5029", "name": "Tata Consultancy Services Limited"}, {"id": "5030", "name": "Algofi"}, {"id": "5031", "name": "Clifton Ingram LLP"}, {"id": "5032", "name": "AWIN Inc"}, {"id": "5033", "name": "Grovelands"}, {"id": "5034", "name": "BELLIMMO"}, {"id": "5035", "name": "VMA Group"}, {"id": "5036", "name": "Progressive"}, {"id": "5037", "name": "HR PATH"}, {"id": "5038", "name": "CBS"}, {"id": "5039", "name": "FitzRoy"}, {"id": "5040", "name": "Acticall"}, {"id": "5041", "name": "ISIT"}, {"id": "5042", "name": "CFDT"}, {"id": "5043", "name": "CAISSE D'EPARGNE"}, {"id": "5044", "name": "Periscope"}, {"id": "5045", "name": "Zenika"}, {"id": "5046", "name": "Standard Chartered"}, {"id": "5047", "name": "CAISSE D'EPARGNE"}, {"id": "5048", "name": "BERGERAT MONNOYEUR"}, {"id": "5049", "name": "Testhouse"}, {"id": "5050", "name": "MICROS FIDELIO"}, {"id": "5051", "name": "Coach"}, {"id": "5052", "name": "SEARCH & SELECTION"}, {"id": "5053", "name": "wahaca"}, {"id": "5054", "name": "AGF France"}, {"id": "5055", "name": "SmartStream Technologies"}, {"id": "5056", "name": "Highlands and Islands Enterprise"}, {"id": "5057", "name": "DOF Subsea"}, {"id": "5058", "name": "Crown Holdings Inc"}, {"id": "5059", "name": "dalenys"}, {"id": "5060", "name": "mc\u00b2i Groupe"}, {"id": "5061", "name": "Mutuelle des Motards"}, {"id": "5062", "name": "UNICANCER"}, {"id": "5063", "name": "Bertin services"}, {"id": "5064", "name": "Johnson & Johnson Services, Inc."}, {"id": "5065", "name": "zalando"}, {"id": "5066", "name": "Deloitte LLP"}, {"id": "5067", "name": "CEBPL Gestion d'Etablissement"}, {"id": "5068", "name": "HAYS SUD EST"}, {"id": "5069", "name": "TORI Global"}, {"id": "5070", "name": "AIR LIQUIDE ELECTRONICS SYSTEMS"}, {"id": "5071", "name": "Von Roll Holding AG"}, {"id": "5072", "name": "Caisse d'Epargne Bretagne Pays de Loire"}, {"id": "5073", "name": "cegid"}, {"id": "5074", "name": "CCI France"}, {"id": "5075", "name": "Itiviti Group AB"}, {"id": "5076", "name": "BuroHappold Engineering"}, {"id": "5077", "name": "Arjil & Associ\u00e9s Banque"}, {"id": "5078", "name": "LEASPLAN"}, {"id": "5079", "name": "Paxton Access Ltd."}, {"id": "5080", "name": "MGEN"}, {"id": "5081", "name": "SolutionsRecruitment"}, {"id": "5082", "name": "CMS Cameron McKenna Nabarro Olswang LLP"}, {"id": "5083", "name": "Interim HealthCare"}, {"id": "5084", "name": "Gazprom Bank"}, {"id": "5085", "name": "One Event Management Ltd"}, {"id": "5086", "name": "Dar\u00e9gal"}, {"id": "5087", "name": "clipmail.eu"}, {"id": "5088", "name": "MENWAY"}, {"id": "5089", "name": "Bluebeam, Inc."}, {"id": "5090", "name": "Newcastle Building Society"}, {"id": "5091", "name": "TEREOS"}, {"id": "5092", "name": "Xeretec"}, {"id": "5093", "name": "RTE"}, {"id": "5094", "name": "AXA Insurance (Gulf) B.S.C."}, {"id": "5095", "name": "Atout France"}, {"id": "5096", "name": "University of Leeds"}, {"id": "5097", "name": "GOV.UK"}, {"id": "5098", "name": "West Midlands Ambulance Service University NHS Foundation Trust"}, {"id": "5099", "name": "Heineken France"}, {"id": "5100", "name": "NOVALTO"}], "page": 51, "has_more": true, "count": 8677}