{"results": [{"id": "3801", "name": "Clive Owen LLP"}, {"id": "3802", "name": "BACCARAT"}, {"id": "3803", "name": "Copper Branch"}, {"id": "3804", "name": "PATACREPE"}, {"id": "3805", "name": "Work4 Labs Inc."}, {"id": "3806", "name": "GROUPE ADEO"}, {"id": "3807", "name": "Keldoc"}, {"id": "3808", "name": "MGEN"}, {"id": "3809", "name": "Corsicalinea"}, {"id": "3810", "name": "GALERIES LAFAYETTE"}, {"id": "3811", "name": "QUICK"}, {"id": "3812", "name": "THE OTHER STORE"}, {"id": "3813", "name": "LOREAL"}, {"id": "3814", "name": "Samsung Electronics"}, {"id": "3815", "name": "www.linkedin.com/sales/people/ACwAAAR-1_0Bm0KHmrYDHbxsqFMizxJlNprG7uQ"}, {"id": "3816", "name": "Marketing et Relations Investisseurs"}, {"id": "3817", "name": "moulinages-riotord.fr"}, {"id": "3818", "name": "Ag2r La Mondiale"}, {"id": "3819", "name": "PerfectStay.com"}, {"id": "3820", "name": "ALTAREA COGEDIM"}, {"id": "3821", "name": "Vulog"}, {"id": "3822", "name": "MAISON LANDEMAINE"}, {"id": "3823", "name": "Natixis"}, {"id": "3824", "name": "Banque Palatine"}, {"id": "3825", "name": "SE LOGER"}, {"id": "3826", "name": "SUSHI SHOP"}, {"id": "3827", "name": "DIM"}, {"id": "3828", "name": "PIKOLINOS"}, {"id": "3829", "name": "Amundi"}, {"id": "3830", "name": "Courir"}, {"id": "3831", "name": "Son-Video.com"}, {"id": "3832", "name": "MetLife France"}, {"id": "3833", "name": "231 EAST STREET"}, {"id": "3834", "name": "CORIOLIS"}, {"id": "3835", "name": "MANOMANO"}, {"id": "3836", "name": "Le Groupe La Poste"}, {"id": "3837", "name": "Pierre Et Vacances Center Parcs Group"}, {"id": "3838", "name": "BAGELSTEIN"}, {"id": "3839", "name": "BNP Paribas Groupe"}, {"id": "3840", "name": "Anticafe"}, {"id": "3841", "name": "Koezio France"}, {"id": "3842", "name": "1 2 3"}, {"id": "3843", "name": "Sanofi"}, {"id": "3844", "name": "Retif"}, {"id": "3845", "name": "Jules"}, {"id": "3846", "name": "Saint-Dizier"}, {"id": "3847", "name": "Richemont"}, {"id": "3848", "name": "Novidy's"}, {"id": "3849", "name": "EAT SUSHI"}, {"id": "3850", "name": "ATOL"}, {"id": "3851", "name": "GROUPE BERTRAND"}, {"id": "3852", "name": "Mairie - Angomont"}, {"id": "3853", "name": "Accorhotels"}, {"id": "3854", "name": "GALIAN"}, {"id": "3855", "name": "Printemps"}, {"id": "3856", "name": "ATSU ATSU"}, {"id": "3857", "name": "Yepqey"}, {"id": "3858", "name": "Saint-Gobain"}, {"id": "3859", "name": "Carrefour"}, {"id": "3860", "name": "CLEOR"}, {"id": "3861", "name": "Home Shopping Service - Ventadis - M6 Group"}, {"id": "3862", "name": "PlaceDesTendances.com"}, {"id": "3863", "name": "COTE SUSHI"}, {"id": "3864", "name": "papernest"}, {"id": "3865", "name": "CHAUFFEUR PRIV\u00c9"}, {"id": "3866", "name": "NUXE"}, {"id": "3867", "name": "Reed MIDEM S.A."}, {"id": "3868", "name": "BUT"}, {"id": "3869", "name": "Cr\u00e9dit Mutuel Ark\u00e9a"}, {"id": "3870", "name": "FLORANOVA"}, {"id": "3871", "name": "Sharework"}, {"id": "3872", "name": "ESPAS_Entreprise de Services et de Promo"}, {"id": "3873", "name": "KILOUTOU"}, {"id": "3874", "name": "Midi Tielles"}, {"id": "3875", "name": "CAFE MARLETTE"}, {"id": "3876", "name": "Spinergie"}, {"id": "3877", "name": "Pickup"}, {"id": "3878", "name": "JADIS ET GOURMANDE"}, {"id": "3879", "name": "BIMBA Y LOLA"}, {"id": "3880", "name": "Aramisauto.com"}, {"id": "3881", "name": "Libourne"}, {"id": "3882", "name": "CRESCENDO"}, {"id": "3883", "name": "LVMH"}, {"id": "3884", "name": "Air Liquide"}, {"id": "3885", "name": "Hotels Vinuales"}, {"id": "3886", "name": "GARDEN ICE CAFE"}, {"id": "3887", "name": "STARTERS UNITED"}, {"id": "3888", "name": "Audemars Piguet"}, {"id": "3889", "name": "La Poste"}, {"id": "3890", "name": "COQ SPORTIF"}, {"id": "3891", "name": "Les Grappes"}, {"id": "3892", "name": "YOGURT FACTORY"}, {"id": "3893", "name": "Okko Hotels"}, {"id": "3894", "name": "Partoo"}, {"id": "3895", "name": "INTERMARCHE"}, {"id": "3896", "name": "Begles"}, {"id": "3897", "name": "Business Table"}, {"id": "3898", "name": "PIERRE HERME"}, {"id": "3899", "name": "CREPEAT"}, {"id": "3900", "name": "AUCHAN"}], "page": 39, "has_more": true, "count": 8677}