{"results": [{"id": "5801", "name": "Royal Canin"}, {"id": "5802", "name": "Salezeo"}, {"id": "5803", "name": "EBP Informatique"}, {"id": "5804", "name": "SPIR"}, {"id": "5805", "name": "Twenty Nails"}, {"id": "5806", "name": "D'Ieteren Auto"}, {"id": "5807", "name": "KUEHNE + NAGEL INC"}, {"id": "5808", "name": "Hobbs"}, {"id": "5809", "name": "Districenter"}, {"id": "5810", "name": "LG Electronics Inc"}, {"id": "5811", "name": "Intermarch\u00e9"}, {"id": "5812", "name": "Fleurance Nature"}, {"id": "5813", "name": "Legrand France"}, {"id": "5814", "name": "IKEA"}, {"id": "5815", "name": "CNAF Caisse Nationales d'Allocations Familiales"}, {"id": "5816", "name": "Groupe Barri\u00e8re"}, {"id": "5817", "name": "CGI"}, {"id": "5818", "name": "MacWay"}, {"id": "5819", "name": "identite-remarkable.com"}, {"id": "5820", "name": "Cr\u00e9dit Agricole Provence C\u00f4te d'Azur"}, {"id": "5821", "name": "Chausport"}, {"id": "5822", "name": "Decathlon Group"}, {"id": "5823", "name": "Brew Dog"}, {"id": "5824", "name": "Payback"}, {"id": "5825", "name": "PermiGo"}, {"id": "5826", "name": "Culture V\u00e9lo"}, {"id": "5827", "name": "Heal's"}, {"id": "5828", "name": "Management Events"}, {"id": "5829", "name": "MANFIELD shoes"}, {"id": "5830", "name": "Mirakl"}, {"id": "5831", "name": "All Saints UK"}, {"id": "5832", "name": "Grenoble Ecole de Management"}, {"id": "5833", "name": "SIGVARIS INC"}, {"id": "5834", "name": "Altran"}, {"id": "5835", "name": "Aliaxis"}, {"id": "5836", "name": "Etam "}, {"id": "5837", "name": "Daher"}, {"id": "5838", "name": "BWT France"}, {"id": "5839", "name": "BNP PARIBAS REAL ESTATE"}, {"id": "5840", "name": "Sutter Mills"}, {"id": "5841", "name": "Dulux Decorator Centre"}, {"id": "5842", "name": "Daimler AG"}, {"id": "5843", "name": "auchan italie"}, {"id": "5844", "name": "Cr\u00e9dit Agricole Sud-Mediterranee"}, {"id": "5845", "name": "Decathlon Pro"}, {"id": "5846", "name": "Vlerick Business School"}, {"id": "5847", "name": "Litrimarch\u00e9"}, {"id": "5848", "name": "Mr.Bricolage"}, {"id": "5849", "name": "SFR"}, {"id": "5850", "name": "PMU"}, {"id": "5851", "name": "Uberall"}, {"id": "5852", "name": "Eurowings"}, {"id": "5853", "name": "Xerox Corporation"}, {"id": "5854", "name": "SeLoger"}, {"id": "5855", "name": "Cr\u00e9dit Agricole Centre France"}, {"id": "5856", "name": "SmashFly Technologies Inc"}, {"id": "5857", "name": "Place des Tendances"}, {"id": "5858", "name": "Cr\u00e9dit Agricole | Normandie"}, {"id": "5859", "name": "ERDF"}, {"id": "5860", "name": "Dior"}, {"id": "5861", "name": "Sword Group"}, {"id": "5862", "name": "A2 Consulting"}, {"id": "5863", "name": "L'Or\u00e9al"}, {"id": "5864", "name": "Adidas | France"}, {"id": "5865", "name": "Groupe Pomona"}, {"id": "5866", "name": "Axens"}, {"id": "5867", "name": "Malakoff M\u00e9d\u00e9ric Humanis"}, {"id": "5868", "name": "SOCOTEC"}, {"id": "5869", "name": "Engie Asia"}, {"id": "5870", "name": "Radio France"}, {"id": "5871", "name": "Le Lab RH"}, {"id": "5872", "name": "Chronopost"}, {"id": "5873", "name": "Osiatis SA"}, {"id": "5874", "name": "VMware"}, {"id": "5875", "name": "L'Oreal | Asie-Pacifique"}, {"id": "5876", "name": "La Redoute"}, {"id": "5877", "name": "Procter & Gamble"}, {"id": "5878", "name": "Matmut"}, {"id": "5879", "name": "M\u00e9tropole de Lyon"}, {"id": "5880", "name": "Schneider Electric"}, {"id": "5881", "name": "Marriott International Inc."}, {"id": "5882", "name": "a-d.fr"}, {"id": "5883", "name": "ASTRIA"}, {"id": "5884", "name": "Cartier"}, {"id": "5885", "name": "Generali"}, {"id": "5886", "name": "Eram"}, {"id": "5887", "name": "AREVA"}, {"id": "5888", "name": "Cov\u00e9a"}, {"id": "5889", "name": "BNP Paribas | Personal Finance"}, {"id": "5890", "name": "bellevue-lyon.org"}, {"id": "5891", "name": "Securitas France"}, {"id": "5892", "name": "Groupe Richemont"}, {"id": "5893", "name": "TUI |\u00a0France"}, {"id": "5894", "name": "Groupe Ramsay G\u00e9n\u00e9rale de Sant\u00e9"}, {"id": "5895", "name": "Groupama Epargne Salariale"}, {"id": "5896", "name": "Cr\u00e9dit Agricole | SA"}, {"id": "5897", "name": "Microsoft"}, {"id": "5898", "name": "SGS"}, {"id": "5899", "name": "Groupe NGE"}, {"id": "5900", "name": "Cornerstone OnDemand"}], "page": 59, "has_more": true, "count": 8677}