{"results": [{"id": "1301", "name": "CAILabs"}, {"id": "1302", "name": "ISS"}, {"id": "1303", "name": "Asia Voyages"}, {"id": "1304", "name": "Lincoln Associates"}, {"id": "1305", "name": "DPS les ind\u00e9s"}, {"id": "1306", "name": "Long Champ"}, {"id": "1307", "name": "UZ Gent"}, {"id": "1308", "name": "Ludendo"}, {"id": "1309", "name": "Hobart France"}, {"id": "1310", "name": "Aravati france"}, {"id": "1311", "name": "Blizzard Entertainment, Inc."}, {"id": "1312", "name": "Creative Valley"}, {"id": "1313", "name": "Cartegie"}, {"id": "1314", "name": "EI GROUPE"}, {"id": "1315", "name": "BM&A"}, {"id": "1316", "name": "Econocom"}, {"id": "1317", "name": "Amazon"}, {"id": "1318", "name": "Pierre Martinet France"}, {"id": "1319", "name": "Majencia"}, {"id": "1320", "name": "BASF SE"}, {"id": "1321", "name": "Nicomatic"}, {"id": "1322", "name": "Comgest"}, {"id": "1323", "name": "Elior Group"}, {"id": "1324", "name": "Capital One"}, {"id": "1325", "name": "Watford Council"}, {"id": "1326", "name": "OVH LTD"}, {"id": "1327", "name": "Fbd International"}, {"id": "1328", "name": "Vossloh Cogifer"}, {"id": "1329", "name": "C&A Mode GmbH & Co. KG"}, {"id": "1330", "name": "INITIUM Consulting"}, {"id": "1331", "name": "Freudenberg Filtration Technologies"}, {"id": "1332", "name": "re-flex.fr"}, {"id": "1333", "name": "Saint James Albany"}, {"id": "1334", "name": "SADE"}, {"id": "1335", "name": "Equinix"}, {"id": "1336", "name": "Touch & Sell"}, {"id": "1337", "name": "Threepipe"}, {"id": "1338", "name": "Product Madness"}, {"id": "1339", "name": "Manitou Group"}, {"id": "1340", "name": "AYMING"}, {"id": "1341", "name": "Academic Work"}, {"id": "1342", "name": "ICAEW"}, {"id": "1343", "name": "VISEO"}, {"id": "1344", "name": "Nata\u00efs Sarl"}, {"id": "1345", "name": "FretLink"}, {"id": "1346", "name": "Vanguard Europe"}, {"id": "1347", "name": "Ortho Clinical Diagnostics"}, {"id": "1348", "name": "SNF"}, {"id": "1349", "name": "Synergie Espana"}, {"id": "1350", "name": "Kelly Services France"}, {"id": "1351", "name": "Arconic"}, {"id": "1352", "name": "Miss Selfridge"}, {"id": "1353", "name": "Hub One"}, {"id": "1354", "name": "Polytechnique.org"}, {"id": "1355", "name": "Whirlpool"}, {"id": "1356", "name": "Aressy"}, {"id": "1357", "name": "KidKraft, Inc"}, {"id": "1358", "name": "HARDIS GROUP"}, {"id": "1359", "name": "Progressive Recruitment"}, {"id": "1360", "name": "biomerieux"}, {"id": "1361", "name": "Micro Online"}, {"id": "1362", "name": "Eurazeo"}, {"id": "1363", "name": "UNICEF"}, {"id": "1364", "name": "SIACI SAINT HONORE"}, {"id": "1365", "name": "insitu"}, {"id": "1366", "name": "Adzuna Australia"}, {"id": "1367", "name": "paritel"}, {"id": "1368", "name": "Dessange International"}, {"id": "1369", "name": "Acelys"}, {"id": "1370", "name": "Deloitte"}, {"id": "1371", "name": "Sevenoaks District Council"}, {"id": "1372", "name": "Cheerz"}, {"id": "1373", "name": "Verdi\u00e9 Voyages"}, {"id": "1374", "name": "ACTIA Group"}, {"id": "1375", "name": "Heineken France"}, {"id": "1376", "name": "Nike, Inc"}, {"id": "1377", "name": "Jobrapido"}, {"id": "1378", "name": "TRANSPORTS JOURDAN"}, {"id": "1379", "name": "Wates Group"}, {"id": "1380", "name": "aDvens"}, {"id": "1381", "name": "La Voix du Nord"}, {"id": "1382", "name": "Virgin Trains"}, {"id": "1383", "name": "CAISSE D'EPARGNE"}, {"id": "1384", "name": "Hubble by insightsoftware.com"}, {"id": "1385", "name": "progressive.de"}, {"id": "1386", "name": "Exane"}, {"id": "1387", "name": "Henderson Insurance Brokers Ltd"}, {"id": "1388", "name": "Veolia"}, {"id": "1389", "name": "Airsprung Group PLC"}, {"id": "1390", "name": "Banca Dello Stato Del Cantone Ticino"}, {"id": "1391", "name": "A\u00e9roports de la C\u00f4te d'Azur"}, {"id": "1392", "name": "Mondel\u0113z International"}, {"id": "1393", "name": "Milliken & Company"}, {"id": "1394", "name": "Laboratoires Expanscience"}, {"id": "1395", "name": "Delpharm"}, {"id": "1396", "name": "Belcan"}, {"id": "1397", "name": "Geneve Aeroport"}, {"id": "1398", "name": "Dream Catcher Sales"}, {"id": "1399", "name": "Groupe Mericq"}, {"id": "1400", "name": "APRIL"}], "page": 14, "has_more": true, "count": 8677}