{"results": [{"id": "5501", "name": "ReachFive"}, {"id": "5502", "name": "CADIF Cr\u00e9dit Agricole Paris et Ile-de-France"}, {"id": "5503", "name": "groupama-loire-bretagne.fr"}, {"id": "5504", "name": "AXA Banque"}, {"id": "5505", "name": "Soci\u00e9t\u00e9 G\u00e9n\u00e9rale"}, {"id": "5506", "name": "Decitre"}, {"id": "5507", "name": "LIDL"}, {"id": "5508", "name": "Cr\u00e9dit Agricole Nord de France"}, {"id": "5509", "name": "Montblanc"}, {"id": "5510", "name": "Stores-Discount.com"}, {"id": "5511", "name": "Braintree"}, {"id": "5512", "name": "Carrefour Groupe"}, {"id": "5513", "name": "Hertz France"}, {"id": "5514", "name": "Le Coq Sportif"}, {"id": "5515", "name": "LDLC"}, {"id": "5516", "name": "Supermarch\u00e9 Match"}, {"id": "5517", "name": "La Belle-Iloise"}, {"id": "5518", "name": "Harris Interactive France"}, {"id": "5519", "name": "DATASOLUTION"}, {"id": "5520", "name": "France T\u00e9l\u00e9visions"}, {"id": "5521", "name": "Amundi"}, {"id": "5522", "name": "APSYS"}, {"id": "5523", "name": "Capgemini"}, {"id": "5524", "name": "OLPAG INC"}, {"id": "5525", "name": "CAISSE D'EPARGNE Rh\u00f4ne Alpes"}, {"id": "5526", "name": "Benefit Cosmetics LLC"}, {"id": "5527", "name": "OMD WORLDWIDE"}, {"id": "5528", "name": "Dior "}, {"id": "5529", "name": "Christian Dior Inc"}, {"id": "5530", "name": "DEVERNOIS"}, {"id": "5531", "name": "BAZARCHIC"}, {"id": "5532", "name": "Soci\u00e9t\u00e9 G\u00e9n\u00e9rale Maroc"}, {"id": "5533", "name": "Vinci Construction"}, {"id": "5534", "name": "Morgan Philips SA"}, {"id": "5535", "name": "Groupe Primonial"}, {"id": "5536", "name": "APRIL International"}, {"id": "5537", "name": "Ludendo"}, {"id": "5538", "name": "Google Inc"}, {"id": "5539", "name": "France Loisirs"}, {"id": "5540", "name": "Babilou"}, {"id": "5541", "name": "BIZZBEE"}, {"id": "5542", "name": "Roland Berger"}, {"id": "5543", "name": "MAPA Assurances"}, {"id": "5544", "name": "MGEN"}, {"id": "5545", "name": "Cr\u00e9dit Agricole Consumer Finance"}, {"id": "5546", "name": "GALEC"}, {"id": "5547", "name": "Comtesse du Barry"}, {"id": "5548", "name": "GTT Communications, Inc."}, {"id": "5549", "name": "Synomia"}, {"id": "5550", "name": "Arc International"}, {"id": "5551", "name": "La Grande R\u00e9cr\u00e9"}, {"id": "5552", "name": "Cr\u00e9dit Agricole Alpes Provence"}, {"id": "5553", "name": "Apple Inc"}, {"id": "5554", "name": "D\u00e4nisches Bettenlager GmbH & Co. KG"}, {"id": "5555", "name": "BNP Paribas"}, {"id": "5556", "name": "Cr\u00e9dit Agricole Italia"}, {"id": "5557", "name": "Christian Louboutin"}, {"id": "5558", "name": "Companeo SA"}, {"id": "5559", "name": "Homair Vacances"}, {"id": "5560", "name": "SUNTORY HOLDINGS LIMITED"}, {"id": "5561", "name": "Vodafone Deutschland"}, {"id": "5562", "name": "LEGO Group"}, {"id": "5563", "name": "Nexans"}, {"id": "5564", "name": "habefast"}, {"id": "5565", "name": "Luxottica"}, {"id": "5566", "name": "Centrale des Multiples"}, {"id": "5567", "name": "Club Med"}, {"id": "5568", "name": "Cylande"}, {"id": "5569", "name": "WAISSO"}, {"id": "5570", "name": "Ingenico"}, {"id": "5571", "name": "Engie"}, {"id": "5572", "name": "PerfectStay"}, {"id": "5573", "name": "Cr\u00e9dit Agricole Aquitaine"}, {"id": "5574", "name": "TK'Blue Agency France"}, {"id": "5575", "name": "La Poste Mobile"}, {"id": "5576", "name": "Lengow"}, {"id": "5577", "name": "Euromaster ATS"}, {"id": "5578", "name": "FirstMark Capital LLC"}, {"id": "5579", "name": "JBC"}, {"id": "5580", "name": "Fauchon S.A.S."}, {"id": "5581", "name": "DOMPRO"}, {"id": "5582", "name": "Mutuelle Familiale"}, {"id": "5583", "name": "Fitness First Germany GmbH"}, {"id": "5584", "name": "CELINE"}, {"id": "5585", "name": "Look Voyages, S.A."}, {"id": "5586", "name": "Auchan Drive"}, {"id": "5587", "name": "DIA Espa\u00f1a"}, {"id": "5588", "name": "APICIL"}, {"id": "5589", "name": "Rentokil Initial plc"}, {"id": "5590", "name": "Groupe Brandt"}, {"id": "5591", "name": "TRUSTED SHOPS GmbH"}, {"id": "5592", "name": "OVH LTD"}, {"id": "5593", "name": "Saemes"}, {"id": "5594", "name": "Mauboussin"}, {"id": "5595", "name": "Leroy Merlin Spain"}, {"id": "5596", "name": "bolloremediaregie.net"}, {"id": "5597", "name": "GRAIN DE MALICE"}, {"id": "5598", "name": "Societe Generale Corporate & Invest. Banking"}, {"id": "5599", "name": "Balibaris"}, {"id": "5600", "name": "CAISSE D'EPARGNE Bourgogne Franche Comt\u00e9"}], "page": 56, "has_more": true, "count": 8677}