{"results": [{"id": "3301", "name": "DirectEmployers (Partner Account)"}, {"id": "3302", "name": "Study Technologies"}, {"id": "3303", "name": "Michelin France"}, {"id": "3304", "name": "Reckitt Benckiser"}, {"id": "3305", "name": "Nell'Armonia"}, {"id": "3306", "name": "UCPA (France)"}, {"id": "3307", "name": "E.ON"}, {"id": "3308", "name": "Samsung Russia"}, {"id": "3309", "name": "The North Face"}, {"id": "3310", "name": "Insight"}, {"id": "3311", "name": "CLAIRE'S INC."}, {"id": "3312", "name": "XPO Logistics France"}, {"id": "3313", "name": "Bain & Company"}, {"id": "3314", "name": "Ernst & Young (Germany)"}, {"id": "3315", "name": "Coty"}, {"id": "3316", "name": "NXP Semiconductors"}, {"id": "3317", "name": "Wm Wrigley"}, {"id": "3318", "name": "Ideuzo Nantes (Partner Account)"}, {"id": "3319", "name": "Content Square"}, {"id": "3320", "name": "AG2R France"}, {"id": "3321", "name": "Tire Discounters"}, {"id": "3322", "name": "SOBECA/FIRALP"}, {"id": "3323", "name": "Vetropack"}, {"id": "3324", "name": "Infor"}, {"id": "3325", "name": "Intersport"}, {"id": "3326", "name": "Atmel"}, {"id": "3327", "name": "HMY Group"}, {"id": "3328", "name": "Big Fernand"}, {"id": "3329", "name": "Daimler ME"}, {"id": "3330", "name": "Louis Vuitton"}, {"id": "3331", "name": "Sparrows Group"}, {"id": "3332", "name": "Quantcast"}, {"id": "3333", "name": "SPARTOO"}, {"id": "3334", "name": "Frichti"}, {"id": "3335", "name": "Heineken UK"}, {"id": "3336", "name": "Roullier"}, {"id": "3337", "name": "Korn/Ferry International"}, {"id": "3338", "name": "BABILOU"}, {"id": "3339", "name": "Thom Europe"}, {"id": "3340", "name": "L'Or\u00e9al"}, {"id": "3341", "name": "NextradioTV"}, {"id": "3342", "name": "Petit Forestier"}, {"id": "3343", "name": "Data Search Network"}, {"id": "3344", "name": "SuccessFactors"}, {"id": "3345", "name": "SFR - NUMERICABLE"}, {"id": "3346", "name": "Analog Devices, Inc."}, {"id": "3347", "name": "Nike (Global Parent)"}, {"id": "3348", "name": "Terres Des Templiers"}, {"id": "3349", "name": "HR.com"}, {"id": "3350", "name": "Monitor Group"}, {"id": "3351", "name": "InnerWorkings"}, {"id": "3352", "name": "Synergie"}, {"id": "3353", "name": "4people"}, {"id": "3354", "name": "FRANCE TELEVISION - GROUPE"}, {"id": "3355", "name": "NES Global Talent"}, {"id": "3356", "name": "ICF Habitat"}, {"id": "3357", "name": "Serma Technologies"}, {"id": "3358", "name": "Domitys"}, {"id": "3359", "name": "HERMES SELLIER"}, {"id": "3360", "name": "Talentsoft (Partner Account)"}, {"id": "3361", "name": "GREY CONSULTING France"}, {"id": "3362", "name": "SOPEXA"}, {"id": "3363", "name": "Synchrotron Soleil"}, {"id": "3364", "name": "SFR"}, {"id": "3365", "name": "ADT"}, {"id": "3366", "name": "iRobot"}, {"id": "3367", "name": "Medtronic"}, {"id": "3368", "name": "Eurovia Quebec"}, {"id": "3369", "name": "Talan"}, {"id": "3370", "name": "Algeco"}, {"id": "3371", "name": "SCOR"}, {"id": "3372", "name": "Capgemini (Sweden)"}, {"id": "3373", "name": "Azelis"}, {"id": "3374", "name": "ARM"}, {"id": "3375", "name": "The NPD Group"}, {"id": "3376", "name": "Auxitec Industries"}, {"id": "3377", "name": "Oracle (UK)"}, {"id": "3378", "name": "BNP Paribas USA"}, {"id": "3379", "name": "Cabot Corporation"}, {"id": "3380", "name": "Serena Software Inc."}, {"id": "3381", "name": "Ocean / Oc\u00e9an"}, {"id": "3382", "name": "Deloitte (Luxembourg)"}, {"id": "3383", "name": "Fnac Darty"}, {"id": "3384", "name": "Senior Compagnie"}, {"id": "3385", "name": "Comverse"}, {"id": "3386", "name": "Mayer Brown UK"}, {"id": "3387", "name": "Eden park (France)"}, {"id": "3388", "name": "Meilleursagents.Com"}, {"id": "3389", "name": "Hermes"}, {"id": "3390", "name": "Engel & V\u00f6lkers Yachting"}, {"id": "3391", "name": "Bouygues Immobilier"}, {"id": "3392", "name": "Integra LifeSciences"}, {"id": "3393", "name": "Digimind"}, {"id": "3394", "name": "Stuart"}, {"id": "3395", "name": "ADP"}, {"id": "3396", "name": "Eurovia Qu\u00e9bec"}, {"id": "3397", "name": "Kautex Textron"}, {"id": "3398", "name": "Tullow Oil UK"}, {"id": "3399", "name": "Meero"}, {"id": "3400", "name": "Armatis"}], "page": 34, "has_more": true, "count": 8677}