{"results": [{"id": "4501", "name": "ARMATIS"}, {"id": "4502", "name": "Tinyclues"}, {"id": "4503", "name": "Publicis Media"}, {"id": "4504", "name": "BERTO LANGUEDOC ROUSSILLON SAS"}, {"id": "4505", "name": "Proximity London"}, {"id": "4506", "name": "VEDA GmbH"}, {"id": "4507", "name": "OVH LTD"}, {"id": "4508", "name": "PRA Health Sciences"}, {"id": "4509", "name": "foch.fr"}, {"id": "4510", "name": "Colas Rail Limited"}, {"id": "4511", "name": "G-III Apparel Group"}, {"id": "4512", "name": "Santen"}, {"id": "4513", "name": "cheuvreux-associes.fr"}, {"id": "4514", "name": "Posti Group Corporation"}, {"id": "4515", "name": "Leyton"}, {"id": "4516", "name": "Informa"}, {"id": "4517", "name": "ESCP EUROPE"}, {"id": "4518", "name": "Bertrand Restauration"}, {"id": "4519", "name": "DANONE"}, {"id": "4520", "name": "Brightwave Group"}, {"id": "4521", "name": "Doka Group"}, {"id": "4522", "name": "After Adoption"}, {"id": "4523", "name": "NCH Europe"}, {"id": "4524", "name": "Bartle Bogle Hegarty"}, {"id": "4525", "name": "Mews Systems"}, {"id": "4526", "name": "Ecole d'Ingenieurs de Purpan"}, {"id": "4527", "name": "Banca Monte Paschi Belgio"}, {"id": "4528", "name": "CREDIT AGRICOLE PCA"}, {"id": "4529", "name": "amazon"}, {"id": "4530", "name": "PREZIOSO Linjebygg"}, {"id": "4531", "name": "NaturalMotion"}, {"id": "4532", "name": "Argyll Scott"}, {"id": "4533", "name": "Lionbridge Technologies"}, {"id": "4534", "name": "Bien-Air"}, {"id": "4535", "name": "yorkshirewater"}, {"id": "4536", "name": "INTERACTION HOLDING"}, {"id": "4537", "name": "Mention"}, {"id": "4538", "name": "Deloitte"}, {"id": "4539", "name": "Bollor\u00e9"}, {"id": "4540", "name": "University of Pennsylvania"}, {"id": "4541", "name": "DPS - Digital Product Simulation"}, {"id": "4542", "name": "Mondel\u0113z International"}, {"id": "4543", "name": "K2 Partnering Solutions Limited"}, {"id": "4544", "name": "CAISSE D'EPARGNE"}, {"id": "4545", "name": "Hanploi.com"}, {"id": "4546", "name": "Ouistock"}, {"id": "4547", "name": "CA Indosuez (Switzerland) SA"}, {"id": "4548", "name": "Sciences Po Rennes"}, {"id": "4549", "name": "Sextant Expertise"}, {"id": "4550", "name": "Cr\u00e8me de la Cr\u00e8me"}, {"id": "4551", "name": "iCIMS"}, {"id": "4552", "name": "The Hurlingham Club"}, {"id": "4553", "name": "Criteo"}, {"id": "4554", "name": "SAMSUNG Electronics Morocco"}, {"id": "4555", "name": "Prudential"}, {"id": "4556", "name": "Flashbay"}, {"id": "4557", "name": "CARS BERTHELET"}, {"id": "4558", "name": "Deloitte"}, {"id": "4559", "name": "his-izz.be"}, {"id": "4560", "name": "Cook Angels"}, {"id": "4561", "name": "VISITBRITAIN"}, {"id": "4562", "name": "GENPACT"}, {"id": "4563", "name": "Babington"}, {"id": "4564", "name": "ATR Aircraft"}, {"id": "4565", "name": "APAVE"}, {"id": "4566", "name": "Unilabs"}, {"id": "4567", "name": "Brown Brothers Harriman"}, {"id": "4568", "name": "Hootsuite Media Inc."}, {"id": "4569", "name": "JCDECAUX"}, {"id": "4570", "name": "LUXANT GROUP"}, {"id": "4571", "name": "EvoBus France SAS (Site de production)"}, {"id": "4572", "name": "Agence R\u00e9gionale de Sant\u00e9 Ile-de-France"}, {"id": "4573", "name": "Freska"}, {"id": "4574", "name": "Camelot Group"}, {"id": "4575", "name": "mytimeactive"}, {"id": "4576", "name": "ECOLE DE HAUTES ETUDES COMMERCIALES DU NORD"}, {"id": "4577", "name": "EUROFOS SARL"}, {"id": "4578", "name": "geometry global"}, {"id": "4579", "name": "Westminster Group Plc"}, {"id": "4580", "name": "Minnesota Rubber & Plastics"}, {"id": "4581", "name": "POST Luxembourg"}, {"id": "4582", "name": "Ametra"}, {"id": "4583", "name": "argedis.fr"}, {"id": "4584", "name": "Job Link"}, {"id": "4585", "name": "France Boissons S.A."}, {"id": "4586", "name": "Degrenne"}, {"id": "4587", "name": "AMROP PARIS"}, {"id": "4588", "name": "Coca-Cola European Partners"}, {"id": "4589", "name": "Sperian Protection Clothing"}, {"id": "4590", "name": "Public Health England"}, {"id": "4591", "name": "PatSnap"}, {"id": "4592", "name": "M\u00e2con Habitat"}, {"id": "4593", "name": "HubSpot"}, {"id": "4594", "name": "Enterprise Rent-A-Car"}, {"id": "4595", "name": "SNEF"}, {"id": "4596", "name": "Havas People"}, {"id": "4597", "name": "SEMIKRON"}, {"id": "4598", "name": "drouin.fr"}, {"id": "4599", "name": "Zenith"}, {"id": "4600", "name": "CAISSE D'EPARGNE"}], "page": 46, "has_more": true, "count": 8677}