{"results": [{"id": "7701", "name": "BNP Paribas Retail Banking"}, {"id": "7702", "name": "Advalo"}, {"id": "7703", "name": "Hermesemployeur"}, {"id": "7704", "name": "Dupe Renau Lt"}, {"id": "7705", "name": "Bebetterandco"}, {"id": "7706", "name": "Procter & Gamble Fr"}, {"id": "7707", "name": "BNP Paribas IFS"}, {"id": "7708", "name": "Universite Paris-Sud"}, {"id": "7709", "name": "Ucpa"}, {"id": "7710", "name": "Accenture Innovation Centre"}, {"id": "7711", "name": "Cma Cmg"}, {"id": "7712", "name": "Loewe.com"}, {"id": "7713", "name": "Cybg Plc"}, {"id": "7714", "name": "Arkea Lending Services"}, {"id": "7715", "name": "Pierre Fabre Usa"}, {"id": "7716", "name": "Saint Gobain Weber"}, {"id": "7717", "name": "Best Western"}, {"id": "7718", "name": "Rue89"}, {"id": "7719", "name": "Cartesia-Education"}, {"id": "7720", "name": "Mercure"}, {"id": "7721", "name": "L\u2019oreal International"}, {"id": "7722", "name": "Ca-Cmds"}, {"id": "7723", "name": "Sfr Business"}, {"id": "7724", "name": "Gyngenra"}, {"id": "7725", "name": "Orange Consulting"}, {"id": "7726", "name": "Corsair"}, {"id": "7727", "name": "Cromology"}, {"id": "7728", "name": "Les Echos Tv"}, {"id": "7729", "name": "Louis Vuitton Belgium"}, {"id": "7730", "name": "Tag Heuer"}, {"id": "7731", "name": "Microsoft France"}, {"id": "7732", "name": "Deutsche Bank Italia"}, {"id": "7733", "name": "Smallable"}, {"id": "7734", "name": "Kiko Make Up Milano - Percassi"}, {"id": "7735", "name": "Onepoint (groupe)"}, {"id": "7736", "name": "Honestica"}, {"id": "7737", "name": "Clever Age"}, {"id": "7738", "name": "Nouvelles Frontieres"}, {"id": "7739", "name": "Capgemini Technology Services"}, {"id": "7740", "name": "Pricer Inc."}, {"id": "7741", "name": "Tarkett"}, {"id": "7742", "name": "Lacroix Sofrel"}, {"id": "7743", "name": "Le huitieme bar"}, {"id": "7744", "name": "Apivia mutuelle"}, {"id": "7745", "name": "BA&SH"}, {"id": "7746", "name": "Hyperlex"}, {"id": "7747", "name": "AUB Sant\u00e9"}, {"id": "7748", "name": "Loreal"}, {"id": "7749", "name": "BNP Paribas | Real Estate"}, {"id": "7750", "name": "H&M"}, {"id": "7751", "name": "Denjean & Associes"}, {"id": "7752", "name": "Bnp Paribas Factor "}, {"id": "7753", "name": "SFR"}, {"id": "7754", "name": "LA POSTE MOBILE"}, {"id": "7755", "name": "WIRTGEN BELGIUM"}, {"id": "7756", "name": "Damartex (Groupe)"}, {"id": "7757", "name": "PUIG"}, {"id": "7758", "name": "Microsoft"}, {"id": "7759", "name": "Cigna"}, {"id": "7760", "name": "Realytics"}, {"id": "7761", "name": "CHRISTIAN DIOR"}, {"id": "7762", "name": "KPMG S.A"}, {"id": "7763", "name": "Saint Gobain Distribution Batiment de France"}, {"id": "7764", "name": "Fauchon"}, {"id": "7765", "name": "CHAMBRE DE COMMERCE ET D'INDUSTRIE PARIS ILE-DE-FRANCE"}, {"id": "7766", "name": "LACOSTE"}, {"id": "7767", "name": "IADVIZE"}, {"id": "7768", "name": "ALTIMA"}, {"id": "7769", "name": "VAN CLEEF & ARPELS FRANCE"}, {"id": "7770", "name": "GAMELOFT"}, {"id": "7771", "name": "GROUPE CARREFOUR"}, {"id": "7772", "name": "SALESFORCE.COM"}, {"id": "7773", "name": "Compagnie Des Alpes"}, {"id": "7774", "name": "Harmonie Mutuelle"}, {"id": "7775", "name": "Unilever"}, {"id": "7776", "name": "LAFOURCHETTE"}, {"id": "7777", "name": "Adagio City"}, {"id": "7778", "name": "BNP PARIBAS"}, {"id": "7779", "name": "SNCF"}, {"id": "7780", "name": "ACCENTURE"}, {"id": "7781", "name": "ZARA"}, {"id": "7782", "name": "ACCORHOTELS"}, {"id": "7783", "name": "Kiabi"}, {"id": "7784", "name": "CARREFOUR HYPERMARCH\u00c9S"}, {"id": "7785", "name": "Solocal"}, {"id": "7786", "name": "Van Cleef & Arpels US"}, {"id": "7787", "name": "ORCHESTRA"}, {"id": "7788", "name": "TEALIUM"}, {"id": "7789", "name": "AB TASTY"}, {"id": "7790", "name": "PRINTEMPS"}, {"id": "7791", "name": "BRICOMAN FRANCE"}, {"id": "7792", "name": "FINSBURY"}, {"id": "7793", "name": "LVMH MOET HENNESSY LOUIS VUITTON"}, {"id": "7794", "name": "Picard"}, {"id": "7795", "name": "Pernod Ricard ES"}, {"id": "7796", "name": "SAINT GOBAIN"}, {"id": "7797", "name": "ZADIG & VOLTAIRE"}, {"id": "7798", "name": "ALTIMA"}, {"id": "7799", "name": "Cci Paris Ile De France"}, {"id": "7800", "name": "FRANCE 5"}], "page": 78, "has_more": true, "count": 8677}