{"results": [{"id": "401", "name": "Converteo"}, {"id": "402", "name": "Billecart-Salmon"}, {"id": "403", "name": "isatech"}, {"id": "404", "name": "Lunchr"}, {"id": "405", "name": "CosaVostra"}, {"id": "406", "name": "NineSigma, Inc."}, {"id": "407", "name": "Advalo"}, {"id": "408", "name": "Amplitude Studios"}, {"id": "409", "name": "BlueBoard"}, {"id": "410", "name": "Criteo"}, {"id": "411", "name": "Coheris"}, {"id": "412", "name": "Carbon Leadership"}, {"id": "413", "name": "CHANTAL BAUDRON SAS"}, {"id": "414", "name": "Doctolib"}, {"id": "415", "name": "LOGIC DESIGN"}, {"id": "416", "name": "ARONDOR"}, {"id": "417", "name": "IMM International"}, {"id": "418", "name": "Work4 Labs Inc."}, {"id": "419", "name": "Firerank"}, {"id": "420", "name": "ActiveEon"}, {"id": "421", "name": "Hopscotch SA"}, {"id": "422", "name": "NODCOM"}, {"id": "423", "name": "Orange"}, {"id": "424", "name": "Le Petit Ballon"}, {"id": "425", "name": "LiveMentor"}, {"id": "426", "name": "ONIAM"}, {"id": "427", "name": "Busy.org"}, {"id": "428", "name": "ISCOM"}, {"id": "429", "name": "Kolibree"}, {"id": "430", "name": "SATT Nord"}, {"id": "431", "name": "Lunchr"}, {"id": "432", "name": "Oscaro"}, {"id": "433", "name": "Heetch"}, {"id": "434", "name": "La R\u00e9union A\u00e9rienne"}, {"id": "435", "name": "Dba"}, {"id": "436", "name": "Conexance"}, {"id": "437", "name": "G\u00e9rard Mulot"}, {"id": "438", "name": "QuiToque"}, {"id": "439", "name": "Golden Bees"}, {"id": "440", "name": "Ana\u00efk"}, {"id": "441", "name": "DEVENSON I Groupe VISEO I Salesforce Platinum Partner"}, {"id": "442", "name": "AD'Missions"}, {"id": "443", "name": "ISAI Gestion"}, {"id": "444", "name": "Transformation publique"}, {"id": "445", "name": "BSR"}, {"id": "446", "name": "Blue Data Technologies"}, {"id": "447", "name": "Datalyo - Data Driven Consulting"}, {"id": "448", "name": "Swaven"}, {"id": "449", "name": "TRUSK"}, {"id": "450", "name": "JPB SYSTEME"}, {"id": "451", "name": "MARIAGE FR\u00c8RES"}, {"id": "452", "name": "Mister Bell"}, {"id": "453", "name": "MYTRAFFIC"}, {"id": "454", "name": "Praxedo"}, {"id": "455", "name": "Pierre-Yves Rochon"}, {"id": "456", "name": "QWAM CI"}, {"id": "457", "name": "ORINOX"}, {"id": "458", "name": "Arkose"}, {"id": "459", "name": "Made in Surveys"}, {"id": "460", "name": "Potion.social"}, {"id": "461", "name": "GRENADE & SPARKS"}, {"id": "462", "name": "Bird Office"}, {"id": "463", "name": "Kochava, Inc"}, {"id": "464", "name": "OPAL-RT TECHNOLOGIES"}, {"id": "465", "name": "CLEARNOX"}, {"id": "466", "name": "m4x.org"}, {"id": "467", "name": "Warning Up"}, {"id": "468", "name": "Marcel"}, {"id": "469", "name": "onefinestay"}, {"id": "470", "name": "IFTH"}, {"id": "471", "name": "Next Level Formation"}, {"id": "472", "name": "EIM Executive Interim Management"}, {"id": "473", "name": "DTZ Investors"}, {"id": "474", "name": "IRT Railenium"}, {"id": "475", "name": "ubudu"}, {"id": "476", "name": "PRIUM SOLUTIONS"}, {"id": "477", "name": "Place des Tendances"}, {"id": "478", "name": "Speaken, l'anglais dans la poche,24/7."}, {"id": "479", "name": "Corporama"}, {"id": "480", "name": "ESIEA"}, {"id": "481", "name": "BE API"}, {"id": "482", "name": "Div'ision Studio"}, {"id": "483", "name": "RCB INFORMATIQUE"}, {"id": "484", "name": "Lyf Pay"}, {"id": "485", "name": "biin \u2014 bureau d'id\u00e9es nouvelles"}, {"id": "486", "name": "Bergamotte"}, {"id": "487", "name": "Mailinblack / Letsignit"}, {"id": "488", "name": "Influence4You"}, {"id": "489", "name": "Intersec"}, {"id": "490", "name": "Awelty"}, {"id": "491", "name": "Josiane"}, {"id": "492", "name": "U Pro"}, {"id": "493", "name": "Eelway"}, {"id": "494", "name": "L'Art en direct"}, {"id": "495", "name": "Mazeberry"}, {"id": "496", "name": "L'Exception"}, {"id": "497", "name": "Unow"}, {"id": "498", "name": "My Media"}, {"id": "499", "name": "Advent Group"}, {"id": "500", "name": "THEPHOTOACADEMY.com"}], "page": 5, "has_more": true, "count": 8677}