{"results": [{"id": "2801", "name": "Manpowergroup Italia"}, {"id": "2802", "name": "Cossette"}, {"id": "2803", "name": "France T\u00e9l\u00e9visions"}, {"id": "2804", "name": "SOFIS Formation"}, {"id": "2805", "name": "Europejski Fundusz Leasingowy SA"}, {"id": "2806", "name": "Jungheinrich France SAS"}, {"id": "2807", "name": "La Mondiale"}, {"id": "2808", "name": "AREP"}, {"id": "2809", "name": "The Family"}, {"id": "2810", "name": "NDT Global"}, {"id": "2811", "name": "Pimkie"}, {"id": "2812", "name": "d-eur.com"}, {"id": "2813", "name": "Digimind"}, {"id": "2814", "name": "United Technologies Corporation"}, {"id": "2815", "name": "YO! Sushi"}, {"id": "2816", "name": "Balfour Beatty"}, {"id": "2817", "name": "Elastic"}, {"id": "2818", "name": "Proprioo"}, {"id": "2819", "name": "MAILEVA"}, {"id": "2820", "name": "Labsoft ( Groupe Eklas)"}, {"id": "2821", "name": "RTE"}, {"id": "2822", "name": "AREPGroup"}, {"id": "2823", "name": "Marks & Clerk"}, {"id": "2824", "name": "MARSH LLC"}, {"id": "2825", "name": "Groupe R\u00e9side \u00c9tudes"}, {"id": "2826", "name": "Payfit"}, {"id": "2827", "name": "FAREVA"}, {"id": "2828", "name": "ABB"}, {"id": "2829", "name": "GROUPE SERELIANCE"}, {"id": "2830", "name": "Bulgari"}, {"id": "2831", "name": "ICF"}, {"id": "2832", "name": "CTR Conseil"}, {"id": "2833", "name": "baker hughes"}, {"id": "2834", "name": "StyleHaul Inc."}, {"id": "2835", "name": "Skill and You"}, {"id": "2836", "name": "ManpowerGroup"}, {"id": "2837", "name": "OVH LTD"}, {"id": "2838", "name": "DB SCHENKER"}, {"id": "2839", "name": "I Heart Studios"}, {"id": "2840", "name": "TuneCore, Inc."}, {"id": "2841", "name": "Praxair Technology, Inc."}, {"id": "2842", "name": "Bouygues Telecom"}, {"id": "2843", "name": "Saint-Gobain Distribution B\u00e2timent France"}, {"id": "2844", "name": "Cote Particuliers"}, {"id": "2845", "name": "Borough Of Poole"}, {"id": "2846", "name": "Cornerstone OnDemand"}, {"id": "2847", "name": "Sarenza"}, {"id": "2848", "name": "Soci\u00e9t\u00e9 G\u00e9n\u00e9rale"}, {"id": "2849", "name": "Aconex Ltd"}, {"id": "2850", "name": "Thiriet"}, {"id": "2851", "name": "Unigestion"}, {"id": "2852", "name": "GROUPE CORIANCE"}, {"id": "2853", "name": "hootsuite"}, {"id": "2854", "name": "Obelisk Group"}, {"id": "2855", "name": "weave.air"}, {"id": "2856", "name": "Inditex"}, {"id": "2857", "name": "Hoist Finance"}, {"id": "2858", "name": "MEDTRONIC"}, {"id": "2859", "name": "Medtronic"}, {"id": "2860", "name": "Xylem"}, {"id": "2861", "name": "Jones Lang LaSalle, IP, Inc."}, {"id": "2862", "name": "AG2R LA MONDIALE"}, {"id": "2863", "name": "CHANEL"}, {"id": "2864", "name": "H&M"}, {"id": "2865", "name": "BNP PARIBAS"}, {"id": "2866", "name": "LA POSTE"}, {"id": "2867", "name": "FAURECIA"}, {"id": "2868", "name": "Carrefour Market Boulogne"}, {"id": "2869", "name": "HSBC"}, {"id": "2870", "name": "Jou\u00e9club"}, {"id": "2871", "name": "ENGIE COFELY"}, {"id": "2872", "name": "THALES"}, {"id": "2873", "name": "LVMH MOET HENNESSY"}, {"id": "2874", "name": "ELECTRODEPOT"}, {"id": "2875", "name": "DALKIA"}, {"id": "2876", "name": "Le Pain Quotidien"}, {"id": "2877", "name": "RATP"}, {"id": "2878", "name": "FONCIA"}, {"id": "2879", "name": "GUERLAIN"}, {"id": "2880", "name": "Odalys Vacances"}, {"id": "2881", "name": "Carrefour Market Charras"}, {"id": "2882", "name": "CUBIKS"}, {"id": "2883", "name": "ACCOR"}, {"id": "2884", "name": "BAGELSTEIN"}, {"id": "2885", "name": "Carrefour Market Versailles"}, {"id": "2886", "name": "LCL"}, {"id": "2887", "name": "Compte Nickel"}, {"id": "2888", "name": "Radio France"}, {"id": "2889", "name": "BUREAU VERITAS"}, {"id": "2890", "name": "SUSHI SHOP"}, {"id": "2891", "name": "INDITEX"}, {"id": "2892", "name": "ENGIE HOME SERVICES"}, {"id": "2893", "name": "CREDIT AGRICOLE"}, {"id": "2894", "name": "EVANCIA-BABILOU"}, {"id": "2895", "name": "MICROSOFT"}, {"id": "2896", "name": "BPCE"}, {"id": "2897", "name": "Spartoo"}, {"id": "2898", "name": "LE DUFF"}, {"id": "2899", "name": "INTERMARCHE"}, {"id": "2900", "name": "CHRISTIAN DIOR"}], "page": 29, "has_more": true, "count": 8677}