{"results": [{"id": "8501", "name": "EDF ENERGY UK"}, {"id": "8502", "name": "GAMELOFT"}, {"id": "8503", "name": "GROUPE REUNICA"}, {"id": "8504", "name": "REISS"}, {"id": "8505", "name": "GROUPE BEAUMANOIR"}, {"id": "8506", "name": "OPTICAL CENTER"}, {"id": "8507", "name": "PARKS AND SUITES / APPART CITY"}, {"id": "8508", "name": "BLABLACAR"}, {"id": "8509", "name": "GALERIES LAFAYETTE / BHV"}, {"id": "8510", "name": "AVIVA_HQ FRANCE"}, {"id": "8511", "name": "L'OREAL GARNIER"}, {"id": "8512", "name": "TOTAL DIRECT ENERGIE"}, {"id": "8513", "name": "DODO SAS"}, {"id": "8514", "name": "CREDIT AGRICOLE NORD DE FRANCE"}, {"id": "8515", "name": "L'OREAL ITALIA SPA"}, {"id": "8516", "name": "CREDIT AGRICOLE PARIS"}, {"id": "8517", "name": "ACHAT DESIGN / KERIA"}, {"id": "8518", "name": "GROUPE TRIGANO"}, {"id": "8519", "name": "LIDL ECOMMERCE INTERNATIONAL GMBH & CO. KG"}, {"id": "8520", "name": "ACCORHOTELS ARENA"}, {"id": "8521", "name": "ALLIANZ PARTNERS SAS"}, {"id": "8522", "name": "NIJI"}, {"id": "8523", "name": "VODAFONE GROUP PLC"}, {"id": "8524", "name": "Eversheds Sutherland Italy"}, {"id": "8525", "name": "PayPlug"}, {"id": "8526", "name": "Hubvisory"}, {"id": "8527", "name": "SERGE BLANCO GROUPE LBY"}, {"id": "8528", "name": "BODY MINUTE"}, {"id": "8529", "name": "BIC GRAPHIC EUROPE SA"}, {"id": "8530", "name": "SOLVAY"}, {"id": "8531", "name": "HELLINE"}, {"id": "8532", "name": "KOHLER US"}, {"id": "8533", "name": "LOCASUN"}, {"id": "8534", "name": "EXPERTIME"}, {"id": "8535", "name": "BRITTANY FERRIES"}, {"id": "8536", "name": "LA POSTE MOBILE"}, {"id": "8537", "name": "GROUPE YVES ROCHER"}, {"id": "8538", "name": "MAXTER"}, {"id": "8539", "name": "GROUPE ADEO SERVICES"}, {"id": "8540", "name": "BLEU LIBELLULE"}, {"id": "8541", "name": "CONVERTEO"}, {"id": "8542", "name": "SPORT THIEME"}, {"id": "8543", "name": "VERYCHIC"}, {"id": "8544", "name": "AZAE"}, {"id": "8545", "name": "MANORCH"}, {"id": "8546", "name": "MAXICOURS"}, {"id": "8547", "name": "P&O CRUISES"}, {"id": "8548", "name": "DOLCE GUSTO"}, {"id": "8549", "name": "ALCAMPO SA"}, {"id": "8550", "name": "ORECA STORE"}, {"id": "8551", "name": "VERTBAUDET"}, {"id": "8552", "name": "LAPEYRE"}, {"id": "8553", "name": "HTTP://WWWCHEZ_LEPICIERFR/"}, {"id": "8554", "name": "SKISET / SPC"}, {"id": "8555", "name": "LASER GAME COMMUNICATION"}, {"id": "8556", "name": "HOURAFR"}, {"id": "8557", "name": "NATURHOUSE"}, {"id": "8558", "name": "GROUPE EDF_EDF COMMERCE"}, {"id": "8559", "name": "SOMFY FRANCE / SOMFY PRO"}, {"id": "8560", "name": "AENA"}, {"id": "8561", "name": "FIELMANN AG"}, {"id": "8562", "name": "ADIDAS US"}, {"id": "8563", "name": "AGORASTORE"}, {"id": "8564", "name": "POLO RALPH LAUREN LTD"}, {"id": "8565", "name": "CARGO"}, {"id": "8566", "name": "REPETTO"}, {"id": "8567", "name": "NESPRESSO DEUTSCHLAND GMBH"}, {"id": "8568", "name": "CAISSE D EPARGNE_LANGUEDOC ROUSSILLON_BPCE"}, {"id": "8569", "name": "PUIG"}, {"id": "8570", "name": "DECATHLON POLAND"}, {"id": "8571", "name": "RENAULT RETAIL EUROPE"}, {"id": "8572", "name": "GROUPE LVMH_GIVENCHY"}, {"id": "8573", "name": "SAMSUNG ELECTRONICS GMBH SWITZERLAND"}, {"id": "8574", "name": "ARMAND THIERY"}, {"id": "8575", "name": "BRAX"}, {"id": "8576", "name": "GROUPE LES ECHOS"}, {"id": "8577", "name": "BIRCHBOX ES"}, {"id": "8578", "name": "DYSON US"}, {"id": "8579", "name": "CREDIT AGRICOLE CENTRE LOIRE"}, {"id": "8580", "name": "PRINT O CLOCK"}, {"id": "8581", "name": "CARREFOUR SERVICIOS FINANCIEROS"}, {"id": "8582", "name": "ENGIE HOME SERVICES"}, {"id": "8583", "name": "LA BANQUE POSTALE ASSURANCES IARD"}, {"id": "8584", "name": "METLIFE"}, {"id": "8585", "name": "4MURS"}, {"id": "8586", "name": "FOOT CENTER PANINIFR"}, {"id": "8587", "name": "LE ROI DU MATELAS"}, {"id": "8588", "name": "BUYAGIFT"}, {"id": "8589", "name": "NESPRESSO UK AND IRELAND"}, {"id": "8590", "name": "STOKOMANI"}, {"id": "8591", "name": "MYBESTPRO_EDITIONS BORDAS"}, {"id": "8592", "name": "DAIMLER FINANCIAL SERVICES"}, {"id": "8593", "name": "PREVIFRANCE"}, {"id": "8594", "name": "AMAZON FRANCE"}, {"id": "8595", "name": "BABILOU"}, {"id": "8596", "name": "LAFUMA MOBILIER"}, {"id": "8597", "name": "DISTRIPLUS_PLANET PARFUM"}, {"id": "8598", "name": "BETCLIC"}, {"id": "8599", "name": "SAINT MACLOU"}, {"id": "8600", "name": "ADAC AUTOVERMIETUNG GMBH"}], "page": 86, "has_more": true, "count": 8677}