{"results": [{"id": "8401", "name": "DIXONS CARPHONE PLC"}, {"id": "8402", "name": "River Island"}, {"id": "8403", "name": "Swarovski"}, {"id": "8404", "name": "METRO Cash u0026 Carry France"}, {"id": "8405", "name": "Charlotte Tilbury Beauty Ltd"}, {"id": "8406", "name": "nature-et-decouvertes.com"}, {"id": "8407", "name": "Dior"}, {"id": "8408", "name": "Beaverbrooks Ltd"}, {"id": "8409", "name": "Fiskars Brands Inc"}, {"id": "8410", "name": "Google"}, {"id": "8411", "name": "Superdry"}, {"id": "8412", "name": "Vertbaudet"}, {"id": "8413", "name": "Hanes Brands"}, {"id": "8414", "name": "New Yorker"}, {"id": "8415", "name": "bricorama"}, {"id": "8416", "name": "Montblanc"}, {"id": "8417", "name": "ADEO"}, {"id": "8418", "name": "Coca-Cola"}, {"id": "8419", "name": "Chevignon"}, {"id": "8420", "name": "rougegorge"}, {"id": "8421", "name": "Orchestra Kazibao"}, {"id": "8422", "name": "Chevignon"}, {"id": "8423", "name": "Vivarte"}, {"id": "8424", "name": "Salesforce"}, {"id": "8425", "name": "Footasylum plc"}, {"id": "8426", "name": "Krys Group"}, {"id": "8427", "name": "GUERLAIN"}, {"id": "8428", "name": "Biomonde"}, {"id": "8429", "name": "NAF NAF"}, {"id": "8430", "name": "Radley London"}, {"id": "8431", "name": "Lincoln International"}, {"id": "8432", "name": "Gordon Food Service"}, {"id": "8433", "name": "Global D"}, {"id": "8434", "name": "BALINEA"}, {"id": "8435", "name": "NATURE & DECOUVERTES"}, {"id": "8436", "name": "PROMO FARMA"}, {"id": "8437", "name": "PIERRE & VACANCES CENTER PARCS"}, {"id": "8438", "name": "CAISSE D EPARGNE HAUT DE FRANCE"}, {"id": "8439", "name": "L EQUIPIER"}, {"id": "8440", "name": "TOTAL.FR"}, {"id": "8441", "name": "MONOPRIX"}, {"id": "8442", "name": "MAISONS DU MONDE FRANCE SAS"}, {"id": "8443", "name": "PRINTPASCHER / PLANET CARDS"}, {"id": "8444", "name": "BIRCHBOX US"}, {"id": "8445", "name": "DANONE ES"}, {"id": "8446", "name": "AUDI FRANCE"}, {"id": "8447", "name": "CAISSE D EPARGNE_ILE DE DE FRANCE_BPCE"}, {"id": "8448", "name": "MICHELIN TRAVEL PARTNER"}, {"id": "8449", "name": "CLUB MEDITERRANEE"}, {"id": "8450", "name": "JARDILAND"}, {"id": "8451", "name": "AUCHAN RETAIL SERVICE"}, {"id": "8452", "name": "NH HOTELS GROUP"}, {"id": "8453", "name": "L'OREAL US"}, {"id": "8454", "name": "RUE DU COMMERCE"}, {"id": "8455", "name": "TOTAL SPRING"}, {"id": "8456", "name": "GROUPEMENT DES MOUSQUETAIRES"}, {"id": "8457", "name": "IDBUS"}, {"id": "8458", "name": "GROUPE MANITOU"}, {"id": "8459", "name": "PROMOVACANCES"}, {"id": "8460", "name": "NUXE NUXE BIO_BEAUTE NUXE SPA DR RENAUD RESULTIME"}, {"id": "8461", "name": "SOCIETE FRANCAISE DE TRANSMISSIONS FLORALES_INTERFLORA"}, {"id": "8462", "name": "ARKEA DIRECT BANK (FORTUNEO)"}, {"id": "8463", "name": "AUTOMOBILES PEUGEOT S.A."}, {"id": "8464", "name": "CEPSA"}, {"id": "8465", "name": "EVERYTHING EVERYWHERE EE"}, {"id": "8466", "name": "UBALDI"}, {"id": "8467", "name": "CARREFOUR BANQUE"}, {"id": "8468", "name": "TOYOTA"}, {"id": "8469", "name": "REVLON U.S."}, {"id": "8470", "name": "TRAVEL GENIO"}, {"id": "8471", "name": "PARTOUCHE"}, {"id": "8472", "name": "WEBEDIA"}, {"id": "8473", "name": "MGEN_HQ FRANCE"}, {"id": "8474", "name": "FOOTASYLUM"}, {"id": "8475", "name": "GROUPE RENAULT CORPORATE"}, {"id": "8476", "name": "THE HUT GROUP"}, {"id": "8477", "name": "GENERALI FRANCE"}, {"id": "8478", "name": "CAISSE D EPARGNE_MIDI PYRENEES_BPCE"}, {"id": "8479", "name": "HEWLETT PACKARD"}, {"id": "8480", "name": "GREENWEEZ"}, {"id": "8481", "name": "ESSILOR FR"}, {"id": "8482", "name": "MUTUELLE MEDICIS"}, {"id": "8483", "name": "EUROPCAR INTERNATIONAL SASU"}, {"id": "8484", "name": "SACEM"}, {"id": "8485", "name": "CLARINS"}, {"id": "8486", "name": "GROUPE PICHET"}, {"id": "8487", "name": "HAVAS VOYAGE"}, {"id": "8488", "name": "MR BRICOLAGE"}, {"id": "8489", "name": "PARIS CITYVISION SAS"}, {"id": "8490", "name": "SEZANE"}, {"id": "8491", "name": "MUTUELLE BLEUE"}, {"id": "8492", "name": "LG"}, {"id": "8493", "name": "PIMKIE"}, {"id": "8494", "name": "NEXITY"}, {"id": "8495", "name": "GAES ES"}, {"id": "8496", "name": "AG2R LA MONDIALE_HQ FRANCE"}, {"id": "8497", "name": "AUXMONEY GMBH"}, {"id": "8498", "name": "BNP PARIBAS CIB"}, {"id": "8499", "name": "RACC"}, {"id": "8500", "name": "L'OREAL LUXE LANCOME KHEIL'S"}], "page": 85, "has_more": true, "count": 8677}