{"results": [{"id": "901", "name": "Bemis Company, Inc."}, {"id": "902", "name": "BUTAGAZ"}, {"id": "903", "name": "GROOPTOWN"}, {"id": "904", "name": "Energizer Brands, LLC"}, {"id": "905", "name": "NCC Group"}, {"id": "906", "name": "Alltricks"}, {"id": "907", "name": "NTN-SNR"}, {"id": "908", "name": "Manpower France"}, {"id": "909", "name": "Intrum Justitia"}, {"id": "910", "name": "L'Or\u00e9al"}, {"id": "911", "name": "Duqueine Composites Antlantique"}, {"id": "912", "name": "Groupe Atlantic"}, {"id": "913", "name": "Toys R Us"}, {"id": "914", "name": "Amundi"}, {"id": "915", "name": "Grapeshot"}, {"id": "916", "name": "Vodafone"}, {"id": "917", "name": "WURTH INDUSTRIE FRANCE"}, {"id": "918", "name": "Beeline Group"}, {"id": "919", "name": "The Agent"}, {"id": "920", "name": "ICF Mostra"}, {"id": "921", "name": "Starcom Worldwide"}, {"id": "922", "name": "Casper"}, {"id": "923", "name": "Kusmi Tea"}, {"id": "924", "name": "Airsorted"}, {"id": "925", "name": "Ecritel"}, {"id": "926", "name": "Yum! Brands RSC"}, {"id": "927", "name": "Guarding UK"}, {"id": "928", "name": "Groupe Caisse d'Epargne"}, {"id": "929", "name": "HomeExchange.com"}, {"id": "930", "name": "Helvar"}, {"id": "931", "name": "Hogart"}, {"id": "932", "name": "GROUPE SUP DE CO LA ROCHELLE"}, {"id": "933", "name": "Havas Lynx"}, {"id": "934", "name": "Cr\u00e9dit Agricole Charente-Maritime Deux-S\u00e8vres"}, {"id": "935", "name": "Petzl"}, {"id": "936", "name": "Banque Populaire M\u00e9diterran\u00e9e (BPMED)"}, {"id": "937", "name": "AFPA"}, {"id": "938", "name": "My Little Paris"}, {"id": "939", "name": "Banque Palatine"}, {"id": "940", "name": "emagine GmbH"}, {"id": "941", "name": "PRO EVOLUTION"}, {"id": "942", "name": "Paris-Sud University"}, {"id": "943", "name": "Cr\u00e9dit Agricole d'Aquitaine"}, {"id": "944", "name": "N\u00e9o-Soft Groupe"}, {"id": "945", "name": "Groupe Caisse d'Epargne"}, {"id": "946", "name": "Geser-Best"}, {"id": "947", "name": "Elefantly"}, {"id": "948", "name": "AriadNEXT"}, {"id": "949", "name": "Micro"}, {"id": "950", "name": "Aduno Gruppe"}, {"id": "951", "name": "Orapi SA"}, {"id": "952", "name": "Artelia"}, {"id": "953", "name": "Entrecom"}, {"id": "954", "name": "Global Brands Group (a Member Of The Fung Group)"}, {"id": "955", "name": "Keys Asset Management (Groupe)"}, {"id": "956", "name": "WAISSO"}, {"id": "957", "name": "DestinationSkin Group Ltd"}, {"id": "958", "name": "Dior"}, {"id": "959", "name": "Selectra"}, {"id": "960", "name": "ACO"}, {"id": "961", "name": "Applium"}, {"id": "962", "name": "Unruly"}, {"id": "963", "name": "Cosem"}, {"id": "964", "name": "Teaminside"}, {"id": "965", "name": "Nuclear Decommissioning Authority"}, {"id": "966", "name": "CIRAD"}, {"id": "967", "name": "DirectEmployers Association, Inc."}, {"id": "968", "name": "DAN PARIS"}, {"id": "969", "name": "Matmut"}, {"id": "970", "name": "ETF"}, {"id": "971", "name": "Ai3, Accelerateur D'innovation Depuis 10 Ans"}, {"id": "972", "name": "Broker by Empruntis"}, {"id": "973", "name": "La Chose"}, {"id": "974", "name": "Walmart Ecommerce"}, {"id": "975", "name": "Klaxoon"}, {"id": "976", "name": "Hologic"}, {"id": "977", "name": "CRAZY HORSE PARIS"}, {"id": "978", "name": "Valorex Sas"}, {"id": "979", "name": "Palais des Th\u00e9s"}, {"id": "980", "name": "Suttons Consumer Products Ltd."}, {"id": "981", "name": "Oscaro"}, {"id": "982", "name": "ForCity"}, {"id": "983", "name": "SPARTED"}, {"id": "984", "name": "TH Conseil"}, {"id": "985", "name": "Digora"}, {"id": "986", "name": "Santiane"}, {"id": "987", "name": "EVOLUTION XY"}, {"id": "988", "name": "SKF"}, {"id": "989", "name": "Michelin"}, {"id": "990", "name": "Datawords"}, {"id": "991", "name": "Platinium Group SAM"}, {"id": "992", "name": "Ville d'Angers"}, {"id": "993", "name": "Bazarchic"}, {"id": "994", "name": "Abylsen"}, {"id": "995", "name": "Comtesse du Barry"}, {"id": "996", "name": "Hopscotch SA"}, {"id": "997", "name": "PMP - Performance Management Partner"}, {"id": "998", "name": "ION"}, {"id": "999", "name": "Sollan"}, {"id": "1000", "name": "Archant"}], "page": 10, "has_more": true, "count": 8677}