{"results": [{"id": "5401", "name": "Norauto"}, {"id": "5402", "name": "Sage"}, {"id": "5403", "name": "Wavestone"}, {"id": "5404", "name": "McDonald's Deutschland"}, {"id": "5405", "name": "Globeo Travel"}, {"id": "5406", "name": "AccorHotels"}, {"id": "5407", "name": "groupe-verona.com"}, {"id": "5408", "name": "Gamm vert"}, {"id": "5409", "name": "IPROSPECT"}, {"id": "5410", "name": "Ipsos "}, {"id": "5411", "name": "Puy du fou"}, {"id": "5412", "name": "ADEME"}, {"id": "5413", "name": "Cegid"}, {"id": "5414", "name": "Les Echos"}, {"id": "5415", "name": "sinequanone.fr"}, {"id": "5416", "name": "ORSYS Formation"}, {"id": "5417", "name": "Museum national d'Histoire naturelle"}, {"id": "5418", "name": "CGI Group Inc."}, {"id": "5419", "name": "Les Villages Clubs du Soleil SA"}, {"id": "5420", "name": "Odigo"}, {"id": "5421", "name": "Engie"}, {"id": "5422", "name": "Puig"}, {"id": "5423", "name": "Groupama Centre Atlantique"}, {"id": "5424", "name": "Leroy Merlin"}, {"id": "5425", "name": "Arkose"}, {"id": "5426", "name": "GROUPE PREVOIR"}, {"id": "5427", "name": "AXA"}, {"id": "5428", "name": "Archipelia"}, {"id": "5429", "name": "Cr\u00e9dit Agricole Charente-Maritime Deux-S\u00e8vres"}, {"id": "5430", "name": "Cr\u00e9dit Mutuel Oc\u00e9an"}, {"id": "5431", "name": "Siblu"}, {"id": "5432", "name": "Perene"}, {"id": "5433", "name": "Contentsquare"}, {"id": "5434", "name": "Longchamp"}, {"id": "5435", "name": "Everial"}, {"id": "5436", "name": "Carjump"}, {"id": "5437", "name": "Air Liquide Group"}, {"id": "5438", "name": "MAJE (SMCP)"}, {"id": "5439", "name": "FYTE"}, {"id": "5440", "name": "ZooParc de Beauval"}, {"id": "5441", "name": "Carr\u00e9 d'artistes"}, {"id": "5442", "name": "Saint-Gobain UK"}, {"id": "5443", "name": "SHOP COIFFURE"}, {"id": "5444", "name": "Mappy"}, {"id": "5445", "name": "Bel"}, {"id": "5446", "name": "Groupe Casino"}, {"id": "5447", "name": "Nespresso Deutschland GmbH"}, {"id": "5448", "name": "Yext"}, {"id": "5449", "name": "Cr\u00e9dit Agricole Charente P\u00e9rigord"}, {"id": "5450", "name": "Planet Sushi"}, {"id": "5451", "name": "PPG Industries, Inc."}, {"id": "5452", "name": "SPIE"}, {"id": "5453", "name": "La Poste"}, {"id": "5454", "name": "Coach"}, {"id": "5455", "name": "Yorkshire Building Society"}, {"id": "5456", "name": "King Jouet"}, {"id": "5457", "name": "BNP Paribas Cardif"}, {"id": "5458", "name": "Crezeo"}, {"id": "5459", "name": "Max Mara"}, {"id": "5460", "name": "Business & Decision"}, {"id": "5461", "name": "Adecco (de)"}, {"id": "5462", "name": "Cr\u00e9dit Agricole - CASA"}, {"id": "5463", "name": "GALIAN"}, {"id": "5464", "name": "Groupe Flora nova"}, {"id": "5465", "name": "VALENTINO Germany"}, {"id": "5466", "name": "Catimini S.A"}, {"id": "5467", "name": "Piscines Desjoyaux"}, {"id": "5468", "name": "Groupe V33"}, {"id": "5469", "name": "BMW France"}, {"id": "5470", "name": "GENERATION SAS"}, {"id": "5471", "name": "Europcar International"}, {"id": "5472", "name": "France Diplomacy"}, {"id": "5473", "name": "Nissan"}, {"id": "5474", "name": "LIPPI"}, {"id": "5475", "name": "Stratello"}, {"id": "5476", "name": "1001 Vies Habitat"}, {"id": "5477", "name": "RCA"}, {"id": "5478", "name": "Gras Savoye Berger Simon SAS"}, {"id": "5479", "name": "DOCAPOSTE"}, {"id": "5480", "name": "actionoptical.org"}, {"id": "5481", "name": "Hanesbrands Inc"}, {"id": "5482", "name": "C & A"}, {"id": "5483", "name": "Groupe IGS"}, {"id": "5484", "name": "LINKBYNET"}, {"id": "5485", "name": "Carrefour Argentine"}, {"id": "5486", "name": "HelloAsso"}, {"id": "5487", "name": "maxxess"}, {"id": "5488", "name": "Europ Assistance France"}, {"id": "5489", "name": "Digimind"}, {"id": "5490", "name": "Crit Job"}, {"id": "5491", "name": "Atos"}, {"id": "5492", "name": "Motoblouz"}, {"id": "5493", "name": "Schibsted Media Group"}, {"id": "5494", "name": "Coyote System"}, {"id": "5495", "name": "PVH"}, {"id": "5496", "name": "SCOR SE"}, {"id": "5497", "name": "SUPINFO International University"}, {"id": "5498", "name": "Balinea"}, {"id": "5499", "name": "Starbucks Deutschland"}, {"id": "5500", "name": "Philips"}], "page": 55, "has_more": true, "count": 8677}