{"results": [{"id": "5601", "name": "Gouiran Beaut\u00e9"}, {"id": "5602", "name": "Shiseido Group (UK & I)"}, {"id": "5603", "name": "McDonald's"}, {"id": "5604", "name": "Ford France"}, {"id": "5605", "name": "Dyson"}, {"id": "5606", "name": "La Compagnie du Lit"}, {"id": "5607", "name": "Euro Car Parts"}, {"id": "5608", "name": "EK groupe"}, {"id": "5609", "name": "La Croissanterie"}, {"id": "5610", "name": "KENZO"}, {"id": "5611", "name": "National Tyres and Autocare Ltd"}, {"id": "5612", "name": "Apave"}, {"id": "5613", "name": "Leroy Merlin "}, {"id": "5614", "name": "Numericable"}, {"id": "5615", "name": "Groupe L'Or\u00e9al"}, {"id": "5616", "name": "Univers Retail"}, {"id": "5617", "name": "Netquattro SAS"}, {"id": "5618", "name": "BEKO"}, {"id": "5619", "name": "CCI Paris IdF"}, {"id": "5620", "name": "Early Birds"}, {"id": "5621", "name": "Alcimed"}, {"id": "5622", "name": "La France Mutualiste"}, {"id": "5623", "name": "OVH LTD"}, {"id": "5624", "name": "Gan"}, {"id": "5625", "name": "AUDIKA France"}, {"id": "5626", "name": "hypostase.com"}, {"id": "5627", "name": "Pumpkin"}, {"id": "5628", "name": "Ticketac.com"}, {"id": "5629", "name": "Cr\u00e9dit Agricole Centre Loire"}, {"id": "5630", "name": "OVH LTD"}, {"id": "5631", "name": "Michelin"}, {"id": "5632", "name": "Parfois"}, {"id": "5633", "name": "Visaudio"}, {"id": "5634", "name": "Disney"}, {"id": "5635", "name": "Autodistribution"}, {"id": "5636", "name": "Groupe Roullier"}, {"id": "5637", "name": "BNP Paribas Wealth Management"}, {"id": "5638", "name": "Nordnet"}, {"id": "5639", "name": "GO Sport France"}, {"id": "5640", "name": "Transgourmet"}, {"id": "5641", "name": "Bel&Bo"}, {"id": "5642", "name": "AVIS BUDGET GROUP FRANCE"}, {"id": "5643", "name": "Dafy Moto"}, {"id": "5644", "name": "Pernod Ricard"}, {"id": "5645", "name": "Danone"}, {"id": "5646", "name": "Relais & Ch\u00e2teaux"}, {"id": "5647", "name": "The Kooples"}, {"id": "5648", "name": "Seasalt"}, {"id": "5649", "name": "Superdrug"}, {"id": "5650", "name": "PriceMinister"}, {"id": "5651", "name": "Evaneos"}, {"id": "5652", "name": "Groupe Vivarte"}, {"id": "5653", "name": "L\u00c9A NATURE"}, {"id": "5654", "name": "EBRC"}, {"id": "5655", "name": "Villeroy u0026 Boch"}, {"id": "5656", "name": "OXYBUL"}, {"id": "5657", "name": "Nike Germany"}, {"id": "5658", "name": "waldorf astoria"}, {"id": "5659", "name": "L'Or\u00e9al"}, {"id": "5660", "name": "Damart"}, {"id": "5661", "name": "HOPPS GROUP"}, {"id": "5662", "name": "Biogen"}, {"id": "5663", "name": "Coty Inc."}, {"id": "5664", "name": "PwC"}, {"id": "5665", "name": "COFACE"}, {"id": "5666", "name": "Groupe QUARTUS"}, {"id": "5667", "name": "GROUPAMA"}, {"id": "5668", "name": "Eulerian Technologies"}, {"id": "5669", "name": "Santiane"}, {"id": "5670", "name": "Yves Rocher"}, {"id": "5671", "name": "BRACK.CH"}, {"id": "5672", "name": "DOMITYS"}, {"id": "5673", "name": "Tape \u00e0 l'oeil"}, {"id": "5674", "name": "LE FIGARO fr"}, {"id": "5675", "name": "Jou\u00e9club"}, {"id": "5676", "name": "Jeff de Bruges"}, {"id": "5677", "name": "UFF"}, {"id": "5678", "name": "ISAI Gestion"}, {"id": "5679", "name": "Diptyque"}, {"id": "5680", "name": "GEMO"}, {"id": "5681", "name": "Renault Retail Group"}, {"id": "5682", "name": "Retif"}, {"id": "5683", "name": "W\u00fcrth Group"}, {"id": "5684", "name": "Institut du Commerce Connect\u00e9"}, {"id": "5685", "name": "DP World"}, {"id": "5686", "name": "University of Lille 1"}, {"id": "5687", "name": "InterCloud"}, {"id": "5688", "name": "AccorHotels Arena"}, {"id": "5689", "name": "webdistrib"}, {"id": "5690", "name": "lafuma"}, {"id": "5691", "name": "Eram"}, {"id": "5692", "name": "Banque de France"}, {"id": "5693", "name": "Moy Park"}, {"id": "5694", "name": "Fiat"}, {"id": "5695", "name": "Criteo"}, {"id": "5696", "name": "M&S"}, {"id": "5697", "name": "Van Cleef u0026 Arpels"}, {"id": "5698", "name": "Zeeman G + W - Wahler Der Modemarkt GmbH"}, {"id": "5699", "name": "Jeanneau"}, {"id": "5700", "name": "IPAG Business School"}], "page": 57, "has_more": true, "count": 8677}