{"results": [{"id": "6901", "name": "EUROFLOAT- GROUPE SAINT-GOBAIN"}, {"id": "6902", "name": "ENGIE BTOB"}, {"id": "6903", "name": "LVMH - MARC JACOBS"}, {"id": "6904", "name": "LYRECO FRANCE"}, {"id": "6905", "name": "GENERAL ELECTRIC"}, {"id": "6906", "name": "CARREFOUR BANQUE ET ASSURANCES"}, {"id": "6907", "name": "MUTUELLE CHORUM"}, {"id": "6908", "name": "SUPTERTIAIRE"}, {"id": "6909", "name": "DERICHEBOURG"}, {"id": "6910", "name": "RENAULT MAROC"}, {"id": "6911", "name": "BNP PARIBAS SECURITIES SERVICES"}, {"id": "6912", "name": "EDHEC BUSINESS SCHOOL"}, {"id": "6913", "name": "REMY COINTREAU"}, {"id": "6914", "name": "CENTREON"}, {"id": "6915", "name": "ENGIE BTOC"}, {"id": "6916", "name": "EMC"}, {"id": "6917", "name": "BA&SH"}, {"id": "6918", "name": "ADIPIS ( AGIPI)"}, {"id": "6919", "name": "LECTRA"}, {"id": "6920", "name": "G\u00c9MO"}, {"id": "6921", "name": "BNP PARIBAS REAL ESTATE"}, {"id": "6922", "name": "SA SACRED"}, {"id": "6923", "name": "AGRIAL"}, {"id": "6924", "name": "CE NORMANDIE"}, {"id": "6925", "name": "LA BANQUE POSTALE ASSURANCES"}, {"id": "6926", "name": "SACD"}, {"id": "6927", "name": "BOLLORE"}, {"id": "6928", "name": "EURALIS"}, {"id": "6929", "name": "ENTREPOSE GROUP"}, {"id": "6930", "name": "DEEZER"}, {"id": "6931", "name": "GAN PATRIMOINE"}, {"id": "6932", "name": "START PEOPLE"}, {"id": "6933", "name": "CREDIT AGRICOLE PROVENCE C\u00d4T\u00c9 D'AZUR"}, {"id": "6934", "name": "CR\u00c9DIT AGRICOLE CIB"}, {"id": "6935", "name": "SYSPERTEC"}, {"id": "6936", "name": "LAGARD\u00c8RE SPORTS AND ENTERTAINMENT"}, {"id": "6937", "name": "NIKE"}, {"id": "6938", "name": "LEN\u00d4TRE"}, {"id": "6939", "name": "CEGOS"}, {"id": "6940", "name": "SARTORIUS STEDIM BIOTECH"}, {"id": "6941", "name": "MOBEYE"}, {"id": "6942", "name": "AFPA TRANSITION"}, {"id": "6943", "name": "JAEGER-LECOULTRE"}, {"id": "6944", "name": "DELTA DORE"}, {"id": "6945", "name": "TOULOUSE M\u00c9TROPOLE"}, {"id": "6946", "name": "SOCI\u00c9T\u00c9 G\u00c9N\u00c9RALE"}, {"id": "6947", "name": "BNP PARIBAS ITO"}, {"id": "6948", "name": "LA CAPITALE  ASSUREUR DE L'ADMINISTRATION PUBLIQUE."}, {"id": "6949", "name": "CREDIT AGRICOLE NORMANDIE-SEINE"}, {"id": "6950", "name": "LHOIST"}, {"id": "6951", "name": "APGM"}, {"id": "6952", "name": "UNITED TECHNOLOGIES"}, {"id": "6953", "name": "SERVAIR"}, {"id": "6954", "name": "EIFFAGE G\u00c9NIE CIVIL"}, {"id": "6955", "name": "THUASNE FRANCE"}, {"id": "6956", "name": "LISI AUTOMOTIVE"}, {"id": "6957", "name": "BANQUE DE FRANCE"}, {"id": "6958", "name": "CE HAUTS DE FRANCE"}, {"id": "6959", "name": "PASSIONFROID"}, {"id": "6960", "name": "BPCE INTERNATIONAL"}, {"id": "6961", "name": "EQIOM  GROUPE CRH"}, {"id": "6962", "name": "SIEMENS"}, {"id": "6963", "name": "BOUYGUES CONSTRUCTION IT"}, {"id": "6964", "name": "BNP PARIBAS LEASING SOLUTIONS"}, {"id": "6965", "name": "TOTAL MS"}, {"id": "6966", "name": "BERLITZ"}, {"id": "6967", "name": "VOODOO"}, {"id": "6968", "name": "XPO LOGISTICS EUROPE"}, {"id": "6969", "name": "GALDERMA"}, {"id": "6970", "name": "FINAXYS"}, {"id": "6971", "name": "TECHNIP FMC"}, {"id": "6972", "name": "ARTELIA GROUP"}, {"id": "6973", "name": "NICOLLIN"}, {"id": "6974", "name": "NEURONES IT"}, {"id": "6975", "name": "CR\u00c9DIT AGRICOLE C\u00d4TES D'ARMOR"}, {"id": "6976", "name": "EOVI MCD"}, {"id": "6977", "name": "FIVES MAINTENANCE"}, {"id": "6978", "name": "NEXITY SOLUTION ENTREPRISE"}, {"id": "6979", "name": "AFDAS"}, {"id": "6980", "name": "PARIS HABITAT"}, {"id": "6981", "name": "FM LOGISTIC GROUPE"}, {"id": "6982", "name": "EOVI MCD MUTUELLE"}, {"id": "6983", "name": "CE IT"}, {"id": "6984", "name": "ICF HABITAT"}, {"id": "6985", "name": "APTUS HEALTH"}, {"id": "6986", "name": "LEASEPLAN FRANCE"}, {"id": "6987", "name": "HAS"}, {"id": "6988", "name": "NGE"}, {"id": "6989", "name": "CIC"}, {"id": "6990", "name": "THALES SERVICES"}, {"id": "6991", "name": "KAEFER WANNER"}, {"id": "6992", "name": "ING BELGIQUE"}, {"id": "6993", "name": "SAIPEM"}, {"id": "6994", "name": "FRANCIS LEFEBVRE FORMATION"}, {"id": "6995", "name": "BNP PARIBAS BANQUE DE DETAIL DE FRANCE - IT"}, {"id": "6996", "name": "BANQUE POPULAIRE VAL DE FRANCE"}, {"id": "6997", "name": "SMARTBOX GROUP"}, {"id": "6998", "name": "DIRECT ENERGIE"}, {"id": "6999", "name": "SKEMA BUSINESS SCHOOL"}, {"id": "7000", "name": "ORKYN'"}], "page": 70, "has_more": true, "count": 8677}