{"results": [{"id": "8101", "name": "RADIO FRANCE"}, {"id": "8102", "name": "GROUPE PSA"}, {"id": "8103", "name": "Carrefour Alimentaci\u00f3n"}, {"id": "8104", "name": "Chronopost"}, {"id": "8105", "name": "LOGIC IMMO"}, {"id": "8106", "name": "RAKUTEN"}, {"id": "8107", "name": "KINGFISHER FRANCE"}, {"id": "8108", "name": "ELIOR GROUP"}, {"id": "8109", "name": "L\u2019OREAL PROFESSIONAL PRODUCTS ES"}, {"id": "8110", "name": "Accenture"}, {"id": "8111", "name": "Gdf Suez"}, {"id": "8112", "name": "DISNEYLAND PARIS"}, {"id": "8113", "name": "AXANCE"}, {"id": "8114", "name": "ORANGE"}, {"id": "8115", "name": "Feu Vert"}, {"id": "8116", "name": "Intersport"}, {"id": "8117", "name": "Cruiseline"}, {"id": "8118", "name": "MALAKOFF M\u00c9D\u00c9RIC HUMANIS"}, {"id": "8119", "name": "S\u00e9zane"}, {"id": "8120", "name": "BIMBO Y LOLA"}, {"id": "8121", "name": "CHRISTIAN DIOR COUTURE"}, {"id": "8122", "name": "GOOGLE FRANCE"}, {"id": "8123", "name": "EDREAMS ODIGEO"}, {"id": "8124", "name": "LVMH"}, {"id": "8125", "name": "SPARTOO.COM"}, {"id": "8126", "name": "BLABLACAR"}, {"id": "8127", "name": "LE BON MARCH\u00c9"}, {"id": "8128", "name": "CHRISTIAN DIOR"}, {"id": "8129", "name": "VENTE-PRIVEE.COM"}, {"id": "8130", "name": "SFR - ALTICE"}, {"id": "8131", "name": "Saint Gobain Distribution Batiment de France"}, {"id": "8132", "name": "B&B HOTELS"}, {"id": "8133", "name": "Kiloutou"}, {"id": "8134", "name": "FEU VERT"}, {"id": "8135", "name": "GOOGLE FRANCE"}, {"id": "8136", "name": "SAINT GOBAIN"}, {"id": "8137", "name": "LE PETIT BALLON"}, {"id": "8138", "name": "Cr\u00e9dit Mutuel Arkea"}, {"id": "8139", "name": "PERNOD RICARD"}, {"id": "8140", "name": "HSBC FRANCE"}, {"id": "8141", "name": "GROUPE CARREFOUR"}, {"id": "8142", "name": "PRINTEMPS"}, {"id": "8143", "name": "ACCORHOTELS"}, {"id": "8144", "name": "GOOGLE FRANCE"}, {"id": "8145", "name": "CHAUSSEA"}, {"id": "8146", "name": "GOOGLE FRANCE"}, {"id": "8147", "name": "Barcel\u00f3 Hoteles & Resorts"}, {"id": "8148", "name": "CAPGEMINI FRANCE"}, {"id": "8149", "name": "PETIT BATEAU"}, {"id": "8150", "name": "ORANGE"}, {"id": "8151", "name": "Orange Business Services"}, {"id": "8152", "name": "RENAULT"}, {"id": "8153", "name": "VENTE-PRIVEE.COM"}, {"id": "8154", "name": "LEROY MERLIN FRANCE"}, {"id": "8155", "name": "BALENCIAGA"}, {"id": "8156", "name": "PRIVATE SPORT SHOP"}, {"id": "8157", "name": "GROUPE CARREFOUR"}, {"id": "8158", "name": "Webdistrib"}, {"id": "8159", "name": "GROUPE CAISSE DES D\u00c9P\u00d4TS"}, {"id": "8160", "name": "LVMH HOTEL MANAGEMENT"}, {"id": "8161", "name": "Pfizer Deutschland GmbH"}, {"id": "8162", "name": "Pfizer"}, {"id": "8163", "name": "BNP PARIBAS"}, {"id": "8164", "name": "20 Minutes"}, {"id": "8165", "name": "MATMUT"}, {"id": "8166", "name": "France Radio"}, {"id": "8167", "name": "GEOPOST"}, {"id": "8168", "name": "BAZARCHIC"}, {"id": "8169", "name": "PERNOD RICARD AMERICAS"}, {"id": "8170", "name": "La Provence"}, {"id": "8171", "name": "DPDGroup International Services GmbH & Co. KG"}, {"id": "8172", "name": "Aroma Zone"}, {"id": "8173", "name": "L\u2019OREAL PROFESSIONAL PRODUCTS ES"}, {"id": "8174", "name": "IKKS"}, {"id": "8175", "name": "SAINT GOBAIN"}, {"id": "8176", "name": "ATOS"}, {"id": "8177", "name": "Groupe l'Express"}, {"id": "8178", "name": "Vivarte"}, {"id": "8179", "name": "L'OR\u00c9AL"}, {"id": "8180", "name": "COTY"}, {"id": "8181", "name": "COCA-COLA EUROPEAN PARTNERS FRANCE"}, {"id": "8182", "name": "H&M"}, {"id": "8183", "name": "INTERFLORA FRANCE"}, {"id": "8184", "name": "LAGARD\u00c8RE STRAT\u00c9GIES DE MARKETING-OBJET"}, {"id": "8185", "name": "VAN CLEEF & ARPELS FRANCE"}, {"id": "8186", "name": "L\u2019OREAL LUXE France"}, {"id": "8187", "name": "GROUPE GENERALI"}, {"id": "8188", "name": "ANTALIS"}, {"id": "8189", "name": "Saint Gobain Distribution Batiment de France"}, {"id": "8190", "name": "Castorama France"}, {"id": "8191", "name": "BOUYGUES TELECOM"}, {"id": "8192", "name": "EUROSTAR"}, {"id": "8193", "name": "MANO MANO"}, {"id": "8194", "name": "ALINEA"}, {"id": "8195", "name": "Bosch"}, {"id": "8196", "name": "INDITEX"}, {"id": "8197", "name": "Ford Motors Company"}, {"id": "8198", "name": "VACALIANS"}, {"id": "8199", "name": "SAN MARINA"}, {"id": "8200", "name": "EDITIONS TISSOT"}], "page": 82, "has_more": true, "count": 8677}