{"results": [{"id": "6601", "name": "SMENO"}, {"id": "6602", "name": "Jerem"}, {"id": "6603", "name": "Eagle Conseil"}, {"id": "6604", "name": "Militzer & M\u00fcnch Fr"}, {"id": "6605", "name": "SETELIA"}, {"id": "6606", "name": "Lunalogic Group"}, {"id": "6607", "name": "C\u00f4t\u00e9 Nature"}, {"id": "6608", "name": "Centrale des Artisans Coiffeurs"}, {"id": "6609", "name": "Mapei"}, {"id": "6610", "name": "Sofip"}, {"id": "6611", "name": "AMG Development"}, {"id": "6612", "name": "HEC Paris"}, {"id": "6613", "name": "Groupe Oui Care"}, {"id": "6614", "name": "Hoist Finance"}, {"id": "6615", "name": "Cityway"}, {"id": "6616", "name": "Groupe Scopelec"}, {"id": "6617", "name": "DEGRENNE"}, {"id": "6618", "name": "TMP Worldwide Advertising & Communications, LLC"}, {"id": "6619", "name": "agap2"}, {"id": "6620", "name": "Natixis"}, {"id": "6621", "name": "Coyote"}, {"id": "6622", "name": "Castalie"}, {"id": "6623", "name": "Cuvee Privee"}, {"id": "6624", "name": "Top Office"}, {"id": "6625", "name": "Otium"}, {"id": "6626", "name": "Soprasteria"}, {"id": "6627", "name": "WW International, Inc."}, {"id": "6628", "name": "Mano Mano"}, {"id": "6629", "name": "MAF RODA AGROBOTIC"}, {"id": "6630", "name": "Couthon Conseil"}, {"id": "6631", "name": "Solimut"}, {"id": "6632", "name": "VICAT"}, {"id": "6633", "name": "L'olivier Assurances"}, {"id": "6634", "name": "BUSINESS FRANCE"}, {"id": "6635", "name": "Ayming France"}, {"id": "6636", "name": "KANGOUROU KIDS"}, {"id": "6637", "name": "CGI FINANCE"}, {"id": "6638", "name": "Trioplast Group"}, {"id": "6639", "name": "Flunch"}, {"id": "6640", "name": "OVH LTD"}, {"id": "6641", "name": "Cementys"}, {"id": "6642", "name": "EBP Informatique"}, {"id": "6643", "name": "Riskattitude"}, {"id": "6644", "name": "Fondation de l'Arm\u00e9e du Salut"}, {"id": "6645", "name": "Nelite"}, {"id": "6646", "name": "Adecco"}, {"id": "6647", "name": "March\u00e9 de la Gare du Midi"}, {"id": "6648", "name": "Ponant"}, {"id": "6649", "name": "Conseil National Cerfrance"}, {"id": "6650", "name": "IGBMC"}, {"id": "6651", "name": "DEF"}, {"id": "6652", "name": "HEF Groupe"}, {"id": "6653", "name": "Cr\u00e9dit Mutuel"}, {"id": "6654", "name": "MyScript"}, {"id": "6655", "name": "Beezen"}, {"id": "6656", "name": "Syndicat des Eaux d'Ile de France"}, {"id": "6657", "name": "AriadNEXT"}, {"id": "6658", "name": "De Neuville"}, {"id": "6659", "name": "Redsen Consulting"}, {"id": "6660", "name": "VIM Experts en ventilation"}, {"id": "6661", "name": "Ambition T\u00e9l\u00e9com & R\u00e9seaux"}, {"id": "6662", "name": "Coved"}, {"id": "6663", "name": "Maneom"}, {"id": "6664", "name": "Ashland"}, {"id": "6665", "name": "Cot\u00e9lac"}, {"id": "6666", "name": "Groupe Prunay"}, {"id": "6667", "name": "Groupe Schumacher"}, {"id": "6668", "name": "Loisireo"}, {"id": "6669", "name": "beNext"}, {"id": "6670", "name": "Orpea"}, {"id": "6671", "name": "Que Choisir"}, {"id": "6672", "name": "GM Consultant"}, {"id": "6673", "name": "Adocia"}, {"id": "6674", "name": "Eng'IN Technologies"}, {"id": "6675", "name": "ADRAR Formation"}, {"id": "6676", "name": "Visiativ"}, {"id": "6677", "name": "SPC Consultants"}, {"id": "6678", "name": "NJS Faramia"}, {"id": "6679", "name": "Eiffage"}, {"id": "6680", "name": "GCS SESAN"}, {"id": "6681", "name": "The Family"}, {"id": "6682", "name": "Datafirst"}, {"id": "6683", "name": "Style and Design"}, {"id": "6684", "name": "ITS GRoup"}, {"id": "6685", "name": "Group CVA"}, {"id": "6686", "name": "Netsize"}, {"id": "6687", "name": "Indeed"}, {"id": "6688", "name": "L'Agence T\u00e9l\u00e9com"}, {"id": "6689", "name": "Brigad"}, {"id": "6690", "name": "Materne Industries"}, {"id": "6691", "name": "Digital Security"}, {"id": "6692", "name": "Elephant Vert"}, {"id": "6693", "name": "Sekoia"}, {"id": "6694", "name": "spie"}, {"id": "6695", "name": "Le Gouessant"}, {"id": "6696", "name": "OVH LTD"}, {"id": "6697", "name": "COLIS PRIVE"}, {"id": "6698", "name": "OVH LTD"}, {"id": "6699", "name": "Agreom"}, {"id": "6700", "name": "Flauraud"}], "page": 67, "has_more": true, "count": 8677}