{"results": [{"id": "1901", "name": "Comet"}, {"id": "1902", "name": "QUICKSIGN"}, {"id": "1903", "name": "Groupe Caisse d'Epargne"}, {"id": "1904", "name": "Intespace"}, {"id": "1905", "name": "Acrelec"}, {"id": "1906", "name": "Sutter Mills"}, {"id": "1907", "name": "Cala Group Limited"}, {"id": "1908", "name": "Trace One"}, {"id": "1909", "name": "Niji"}, {"id": "1910", "name": "ChargePoint"}, {"id": "1911", "name": "padam.io"}, {"id": "1912", "name": "Sapphire Systems"}, {"id": "1913", "name": "L'\u00c9cole de design Nantes Atlantique"}, {"id": "1914", "name": "Groupe Beaumanoir"}, {"id": "1915", "name": "The Planning Inspectorate"}, {"id": "1916", "name": "Pellenc ST"}, {"id": "1917", "name": "Shine.fr"}, {"id": "1918", "name": "Stuart"}, {"id": "1919", "name": "RYMAN LIMITED"}, {"id": "1920", "name": "Groupe Suppl\u00e9ance"}, {"id": "1921", "name": "Burton's Biscuit Company"}, {"id": "1922", "name": "ENGIE Ineo"}, {"id": "1923", "name": "Synchrotron SOLEIL"}, {"id": "1924", "name": "CarGo Location"}, {"id": "1925", "name": "Banque Populaire"}, {"id": "1926", "name": "Lomaco"}, {"id": "1927", "name": "Engie"}, {"id": "1928", "name": "Thomas Pink"}, {"id": "1929", "name": "Gumtree.com Limited"}, {"id": "1930", "name": "Mango"}, {"id": "1931", "name": "Century 21"}, {"id": "1932", "name": "Digitaleo"}, {"id": "1933", "name": "Charles Taylor Plc"}, {"id": "1934", "name": "Coin Street Community Builders"}, {"id": "1935", "name": "Printemps"}, {"id": "1936", "name": "Innolink"}, {"id": "1937", "name": "East Penn Canada"}, {"id": "1938", "name": "Actief Werkt!"}, {"id": "1939", "name": "Becton, Dickinson and Company"}, {"id": "1940", "name": "SEGULA Technologies"}, {"id": "1941", "name": "SMAVoile"}, {"id": "1942", "name": "Lagard\u00e8re Sports"}, {"id": "1943", "name": "Bidwells"}, {"id": "1944", "name": "Barri\u221a\u00aere"}, {"id": "1945", "name": "Delpeyrat"}, {"id": "1946", "name": "Rexel"}, {"id": "1947", "name": "Lexsi"}, {"id": "1948", "name": "Costa Coffee France"}, {"id": "1949", "name": "KPMG Norway"}, {"id": "1950", "name": "42 Artificial Intelligence"}, {"id": "1951", "name": "Northamptonshire County Council"}, {"id": "1952", "name": "Kinapse"}, {"id": "1953", "name": "get-mail.fr"}, {"id": "1954", "name": "Arsene Taxand"}, {"id": "1955", "name": "Cognifide"}, {"id": "1956", "name": "ERAS, SAS"}, {"id": "1957", "name": "Groupe Esus"}, {"id": "1958", "name": "Groupe Mousset"}, {"id": "1959", "name": "FHF"}, {"id": "1960", "name": "Interdean"}, {"id": "1961", "name": "Groupe Leader / Leader Int\u00e9rim"}, {"id": "1962", "name": "LeasePlan Corporation"}, {"id": "1963", "name": "Cr\u00e9dit Agricole 31"}, {"id": "1964", "name": "Air Liquide"}, {"id": "1965", "name": "Marriott International Inc"}, {"id": "1966", "name": "Bolton Solitaire"}, {"id": "1967", "name": "Legalstart"}, {"id": "1968", "name": "STMicroelectronics"}, {"id": "1969", "name": "KPMG Norway"}, {"id": "1970", "name": "Airswift"}, {"id": "1971", "name": "Vater Unternehmensgruppe"}, {"id": "1972", "name": "MAZARS"}, {"id": "1973", "name": "Abingdon and Witney College"}, {"id": "1974", "name": "Scoop it"}, {"id": "1975", "name": "VIVASERVICES"}, {"id": "1976", "name": "Hearst UK"}, {"id": "1977", "name": "Axiome Associes"}, {"id": "1978", "name": "Talan"}, {"id": "1979", "name": "Salisbury NHS Foundation Trust"}, {"id": "1980", "name": "Asco"}, {"id": "1981", "name": "Bordeaux"}, {"id": "1982", "name": "Sigmento"}, {"id": "1983", "name": "Recommerce Solutions"}, {"id": "1984", "name": "Midrive"}, {"id": "1985", "name": "Compagnie des Alpes"}, {"id": "1986", "name": "Capifrance"}, {"id": "1987", "name": "Caissin"}, {"id": "1988", "name": "Farrow Andamp; Ball"}, {"id": "1989", "name": "HellermannTyton United Kingdom"}, {"id": "1990", "name": "La Halle"}, {"id": "1991", "name": "Secours Catholique"}, {"id": "1992", "name": "Italscania S.p.A."}, {"id": "1993", "name": "Effilab"}, {"id": "1994", "name": "Un Jour Ailleurs"}, {"id": "1995", "name": "Information Resources, Inc."}, {"id": "1996", "name": "Oney"}, {"id": "1997", "name": "Pharmagest"}, {"id": "1998", "name": "FABERNOVEL"}, {"id": "1999", "name": "Ball Packaging Europe"}, {"id": "2000", "name": "axialpub.fr"}], "page": 20, "has_more": true, "count": 8677}