{"results": [{"id": "701", "name": "CareerBuilder, LLC"}, {"id": "702", "name": "United Technologies"}, {"id": "703", "name": "La Mutuelle G\u00e9n\u00e9rale"}, {"id": "704", "name": "La Provence"}, {"id": "705", "name": "AAA-Assistance Aeronautique et Aerospatiale"}, {"id": "706", "name": "Sofradir"}, {"id": "707", "name": "vente-privee"}, {"id": "708", "name": "THOM Europe"}, {"id": "709", "name": "Lyreco"}, {"id": "710", "name": "Trenkwalder"}, {"id": "711", "name": "Steelcase Inc."}, {"id": "712", "name": "Zapa, S.A."}, {"id": "713", "name": "Merck"}, {"id": "714", "name": "acta-mobilier.fr"}, {"id": "715", "name": "ALSTOM"}, {"id": "716", "name": "Weezevent"}, {"id": "717", "name": "APRIL"}, {"id": "718", "name": "Halian"}, {"id": "719", "name": "Signaux Girod SA"}, {"id": "720", "name": "GALLIANCE"}, {"id": "721", "name": "Deezer"}, {"id": "722", "name": "dotQompany"}, {"id": "723", "name": "Ace Hotel / Atelier Ace"}, {"id": "724", "name": "Test-Aankoop / Test-Achats"}, {"id": "725", "name": "ESCAL"}, {"id": "726", "name": "Beacon Capital Partners LLC"}, {"id": "727", "name": "Assurance Maladie"}, {"id": "728", "name": "Maersk Line"}, {"id": "729", "name": "Vygon SA"}, {"id": "730", "name": "Safran Electronics & Defense"}, {"id": "731", "name": "Cr\u00e9ateur en Morbihan"}, {"id": "732", "name": "assurance-maladie.fr"}, {"id": "733", "name": "XPO Logistics, Inc."}, {"id": "734", "name": "Royal Bournemouth Hospital"}, {"id": "735", "name": "Guy Degrenne"}, {"id": "736", "name": "Exalead"}, {"id": "737", "name": "Leroy Merlin"}, {"id": "738", "name": "GRAIN DE MALICE"}, {"id": "739", "name": "Morneau (Groupe)"}, {"id": "740", "name": "Eutelmed"}, {"id": "741", "name": "EFI Automotive"}, {"id": "742", "name": "The Clatterbridge Cancer Centre NHS Foundation Trust"}, {"id": "743", "name": "Hunteed"}, {"id": "744", "name": "ALTEO Alumina"}, {"id": "745", "name": "Geox spa"}, {"id": "746", "name": "ESPCI"}, {"id": "747", "name": "Nextformation"}, {"id": "748", "name": "UnternehmerTUM GmbH - Center for Innovation and Business Creation at TUM"}, {"id": "749", "name": "4Murs"}, {"id": "750", "name": "Fayat Batiment"}, {"id": "751", "name": "Ralawise"}, {"id": "752", "name": "Infinera"}, {"id": "753", "name": "Zurich"}, {"id": "754", "name": "Smurfit Kappa Group PLC"}, {"id": "755", "name": "Gezim Interim"}, {"id": "756", "name": "Tagadamedia"}, {"id": "757", "name": "ALSTOM"}, {"id": "758", "name": "Homeloop"}, {"id": "759", "name": "AXA Assistance"}, {"id": "760", "name": "Amaris Hospitality"}, {"id": "761", "name": "Le Coq Sportif"}, {"id": "762", "name": "Eutelsat"}, {"id": "763", "name": "Foodles"}, {"id": "764", "name": "Armand Thiery"}, {"id": "765", "name": "QuintilesIMS"}, {"id": "766", "name": "Academic Work Finland"}, {"id": "767", "name": "GROUPE LATTY"}, {"id": "768", "name": "Amplifon"}, {"id": "769", "name": "CHELA+"}, {"id": "770", "name": "ITER"}, {"id": "771", "name": "Bauhaus Espana"}, {"id": "772", "name": "CHEUVREUX NOTAiRES"}, {"id": "773", "name": "Innolink"}, {"id": "774", "name": "Maltem Consulting Group"}, {"id": "775", "name": "Tereos"}, {"id": "776", "name": "Premaccess SA"}, {"id": "777", "name": "igsgroupe.com"}, {"id": "778", "name": "Gunnebo AB"}, {"id": "779", "name": "Campus Pro"}, {"id": "780", "name": "gdf74.com"}, {"id": "781", "name": "Schlumberger"}, {"id": "782", "name": "COMPTOIRS DU MULTIMEDIA"}, {"id": "783", "name": "Aena SME, S.A."}, {"id": "784", "name": "Adecco Luxembourg"}, {"id": "785", "name": "DxO"}, {"id": "786", "name": "Acteos"}, {"id": "787", "name": "Talend"}, {"id": "788", "name": "Eversheds"}, {"id": "789", "name": "MKTG"}, {"id": "790", "name": "Ernst & Young LLP"}, {"id": "791", "name": "Sdez"}, {"id": "792", "name": "Coriolis Composites"}, {"id": "793", "name": "Groupe Roullier"}, {"id": "794", "name": "Nurseline Healthcare"}, {"id": "795", "name": "Hubspot, Inc."}, {"id": "796", "name": "Groupe Provalliance"}, {"id": "797", "name": "Reunica"}, {"id": "798", "name": "groupama-oc.fr"}, {"id": "799", "name": "OVH LTD"}, {"id": "800", "name": "Mapi Group Company"}], "page": 8, "has_more": true, "count": 8677}