{"results": [{"id": "2901", "name": "SAINT GOBAIN"}, {"id": "2902", "name": "Eurostar"}, {"id": "2903", "name": "ENEDIS"}, {"id": "2904", "name": "LVMH"}, {"id": "2905", "name": "PERNOD RICARD"}, {"id": "2906", "name": "WEFIX"}, {"id": "2907", "name": "SODEXO"}, {"id": "2908", "name": "IKEA"}, {"id": "2909", "name": "DEL ARTE"}, {"id": "2910", "name": "LES MOUSQUETAIRES"}, {"id": "2911", "name": "DANONE"}, {"id": "2912", "name": "Banque Palatine"}, {"id": "2913", "name": "Carrefour Market Pontault Combault"}, {"id": "2914", "name": "MEMPHIS COFFEE"}, {"id": "2915", "name": "GO SPORT"}, {"id": "2916", "name": "SNCF LOGISTICS"}, {"id": "2917", "name": "Veepee"}, {"id": "2918", "name": "Accor Hotels"}, {"id": "2919", "name": "Franprix"}, {"id": "2920", "name": "Courir"}, {"id": "2921", "name": "PARFUMS CHRISTIAN DIOR"}, {"id": "2922", "name": "LVMH FRAGRANCE"}, {"id": "2923", "name": "BOUYGUES TELECOM"}, {"id": "2924", "name": "MAKE UP FOREVER"}, {"id": "2925", "name": "Batch"}, {"id": "2926", "name": "ALTRAN"}, {"id": "2927", "name": "E. Leclerc"}, {"id": "2928", "name": "Audensiel Technologies"}, {"id": "2929", "name": "ASAP"}, {"id": "2930", "name": "Oui Car"}, {"id": "2931", "name": "Ryanair - Europe's Favourite Airline"}, {"id": "2932", "name": "IKEA"}, {"id": "2933", "name": "Commencal"}, {"id": "2934", "name": "April Group - April Digital"}, {"id": "2935", "name": "Telelangue"}, {"id": "2936", "name": "Chanel"}, {"id": "2937", "name": "Quotatis"}, {"id": "2938", "name": "Lafuma Groupe"}, {"id": "2939", "name": "La Poste"}, {"id": "2940", "name": "Courir"}, {"id": "2941", "name": "Natixis Groupe Wealth management"}, {"id": "2942", "name": "Thom Europe"}, {"id": "2943", "name": "Merci"}, {"id": "2944", "name": "Wiko"}, {"id": "2945", "name": "Canal Plus"}, {"id": "2946", "name": "Pmu"}, {"id": "2947", "name": "Air France"}, {"id": "2948", "name": "Dior"}, {"id": "2949", "name": "BBVA bank"}, {"id": "2950", "name": "Delamaison"}, {"id": "2951", "name": "Boxtal"}, {"id": "2952", "name": "Forum Sport"}, {"id": "2953", "name": "Oui.sncf"}, {"id": "2954", "name": "Modz"}, {"id": "2955", "name": "BPCE"}, {"id": "2956", "name": "Dr Pierre Ricaud"}, {"id": "2957", "name": "Groupe AXA"}, {"id": "2958", "name": "Admo.Tv"}, {"id": "2959", "name": "LVMH"}, {"id": "2960", "name": "Boulanger"}, {"id": "2961", "name": "Generali Pl"}, {"id": "2962", "name": "Verdecora"}, {"id": "2963", "name": "Fabernovel"}, {"id": "2964", "name": "Vestiaire Collective"}, {"id": "2965", "name": "HP - Hewlett-Packard EMEA"}, {"id": "2966", "name": "BNP Paribas Wealth Management"}, {"id": "2967", "name": "Nocib\u00e9"}, {"id": "2968", "name": "Pernod Ricard"}, {"id": "2969", "name": "Sncf"}, {"id": "2970", "name": "Siblu"}, {"id": "2971", "name": "France Radio"}, {"id": "2972", "name": "Servicios Financieros Carrefour"}, {"id": "2973", "name": "Renault"}, {"id": "2974", "name": "Randstad - Vediorbis"}, {"id": "2975", "name": "L\u2019OREAL Group"}, {"id": "2976", "name": "EDF"}, {"id": "2977", "name": "Oxwork"}, {"id": "2978", "name": "Onepark"}, {"id": "2979", "name": "Psg Boutique"}, {"id": "2980", "name": "Devernois"}, {"id": "2981", "name": "Magazine zum Globus AG"}, {"id": "2982", "name": "Cr\u00e9dit Agricole"}, {"id": "2983", "name": "Helline"}, {"id": "2984", "name": "Interiale"}, {"id": "2985", "name": "Clarins"}, {"id": "2986", "name": "Accenture Interactive UK"}, {"id": "2987", "name": "Picard"}, {"id": "2988", "name": "Movitex Group"}, {"id": "2989", "name": "La Foir'Fouille"}, {"id": "2990", "name": "Groupe Prisma Media"}, {"id": "2991", "name": "Groupe Se Loger (Seloger.Com)"}, {"id": "2992", "name": "Schneider Electric"}, {"id": "2993", "name": "Pfizer"}, {"id": "2994", "name": "Showroomprive"}, {"id": "2995", "name": "Gemo"}, {"id": "2996", "name": "Groupe Altarea Cogedim"}, {"id": "2997", "name": "Adversitement"}, {"id": "2998", "name": "Europcar"}, {"id": "2999", "name": "Nrj"}, {"id": "3000", "name": "Delsey"}], "page": 30, "has_more": true, "count": 8677}