{"results": [{"id": "4401", "name": "John Grose Group Ltd"}, {"id": "4402", "name": "Batig\u00e8re"}, {"id": "4403", "name": "Biom'up"}, {"id": "4404", "name": "STASH"}, {"id": "4405", "name": "Bank for International Settlements"}, {"id": "4406", "name": "Paris Saint Germain"}, {"id": "4407", "name": "Cuisines AvivA"}, {"id": "4408", "name": "Bachy Soletanche"}, {"id": "4409", "name": "Barclays"}, {"id": "4410", "name": "The University of Northampton"}, {"id": "4411", "name": "Baxter International Inc."}, {"id": "4412", "name": "Change et Transition"}, {"id": "4413", "name": "A.T. Kearney"}, {"id": "4414", "name": "Key Training Limited"}, {"id": "4415", "name": "Utilita Energy Limited"}, {"id": "4416", "name": "MAITRE PRUNILLE S.A."}, {"id": "4417", "name": "HIT Training Ltd"}, {"id": "4418", "name": "Sogefi Group"}, {"id": "4419", "name": "Raet"}, {"id": "4420", "name": "CREDIPAR"}, {"id": "4421", "name": "Cliniques Arnault Tzanck"}, {"id": "4422", "name": "CIMPA"}, {"id": "4423", "name": "STARTPEOPLE"}, {"id": "4424", "name": "SAUR"}, {"id": "4425", "name": "BTP CONSULTANTS"}, {"id": "4426", "name": "LE FIGARO fr"}, {"id": "4427", "name": "LDC"}, {"id": "4428", "name": "Motorline Group"}, {"id": "4429", "name": "Amarine"}, {"id": "4430", "name": "ibm"}, {"id": "4431", "name": "EXCEED IT Services"}, {"id": "4432", "name": "Academic Work"}, {"id": "4433", "name": "Chemring Group PLC"}, {"id": "4434", "name": "RSM UK Group LLP"}, {"id": "4435", "name": "Pochin's"}, {"id": "4436", "name": "RENAULT MAROC"}, {"id": "4437", "name": "Mitsubishi Ufj Financial Group"}, {"id": "4438", "name": "ho Hio Hen sa"}, {"id": "4439", "name": "MAZARS"}, {"id": "4440", "name": "Ole & Steen"}, {"id": "4441", "name": "Colart International Holdings Ltd"}, {"id": "4442", "name": "Niji"}, {"id": "4443", "name": "Sanger Institute"}, {"id": "4444", "name": "YMCA East Londn"}, {"id": "4445", "name": "ACTIFORCES"}, {"id": "4446", "name": "TRACTAFRIC Congo"}, {"id": "4447", "name": "Kadant"}, {"id": "4448", "name": "MELEXIS"}, {"id": "4449", "name": "Chevignon"}, {"id": "4450", "name": "EXCO SECAFI"}, {"id": "4451", "name": "Itelios"}, {"id": "4452", "name": "CENTURY 21 OBS Conseil"}, {"id": "4453", "name": "Southern"}, {"id": "4454", "name": "Cap Seine"}, {"id": "4455", "name": "Fidesio"}, {"id": "4456", "name": "BANQUE EDEL"}, {"id": "4457", "name": "SGG Group"}, {"id": "4458", "name": "Charlotte Tilbury Beauty Limited"}, {"id": "4459", "name": "Atos"}, {"id": "4460", "name": "CRYOLOR"}, {"id": "4461", "name": "Alexander Mann Solutions"}, {"id": "4462", "name": "Cr\u00e9atis Groupe"}, {"id": "4463", "name": "Swissquote"}, {"id": "4464", "name": "ETAM SCE SAS"}, {"id": "4465", "name": "ORSYS Formation"}, {"id": "4466", "name": "JCD Groupe"}, {"id": "4467", "name": "CAISSE D'EPARGNE"}, {"id": "4468", "name": "KPMG"}, {"id": "4469", "name": "Cherry Bekaert"}, {"id": "4470", "name": "MyConsult'IN"}, {"id": "4471", "name": "sofresid.com"}, {"id": "4472", "name": "MBC"}, {"id": "4473", "name": "Afec Emploi"}, {"id": "4474", "name": "KPMG"}, {"id": "4475", "name": "Cloud Direct"}, {"id": "4476", "name": "Executive Relocations France"}, {"id": "4477", "name": "Bibby Financial Services Ltd"}, {"id": "4478", "name": "FRANCE DEFI"}, {"id": "4479", "name": "ELEMIS"}, {"id": "4480", "name": "BDDF - Banques de d\u00e9tail en France"}, {"id": "4481", "name": "OVH LTD"}, {"id": "4482", "name": "TALENTSOFT"}, {"id": "4483", "name": "University of New Haven"}, {"id": "4484", "name": "Solihull College"}, {"id": "4485", "name": "Heidelberg Cement"}, {"id": "4486", "name": "CA Nord de France"}, {"id": "4487", "name": "CAISSE D'EPARGNE"}, {"id": "4488", "name": "PROGRESSIVE RECRUITMENT FRANCE"}, {"id": "4489", "name": "St. James's Place PLC"}, {"id": "4490", "name": "KION Group"}, {"id": "4491", "name": "Nuvias Group"}, {"id": "4492", "name": "BRINK'S"}, {"id": "4493", "name": "colart.fr"}, {"id": "4494", "name": "DIOR PARFUMS"}, {"id": "4495", "name": "Fragomen"}, {"id": "4496", "name": "Microcred Microfinance Bank Nigeria"}, {"id": "4497", "name": "Bernard Matthews"}, {"id": "4498", "name": "Keyrus"}, {"id": "4499", "name": "Groupe Elior"}, {"id": "4500", "name": "OpenClassrooms"}], "page": 45, "has_more": true, "count": 8677}