{"results": [{"id": "6101", "name": "DANFOSS"}, {"id": "6102", "name": "Audemars Piguet"}, {"id": "6103", "name": "JBC"}, {"id": "6104", "name": "Salesforce.com (Suisse) Sarl"}, {"id": "6105", "name": "Repetto"}, {"id": "6106", "name": "CBC BANQUE & ASSURANCE"}, {"id": "6107", "name": "Atelier BNP Paribas"}, {"id": "6108", "name": "Carrefour - FR"}, {"id": "6109", "name": "Rautureau apple shoes"}, {"id": "6110", "name": "Office Depot International"}, {"id": "6111", "name": "ArcelorMittal Corporate"}, {"id": "6112", "name": "Groupe Bogart"}, {"id": "6113", "name": "NEOPOST"}, {"id": "6114", "name": "Damart"}, {"id": "6115", "name": "DHL"}, {"id": "6116", "name": "BEL BELGIUM S.A."}, {"id": "6117", "name": "Lanvin"}, {"id": "6118", "name": "Chanel (Suisse)"}, {"id": "6119", "name": "Madnetwork"}, {"id": "6120", "name": "Vanessa Bruno"}, {"id": "6121", "name": "Diesel"}, {"id": "6122", "name": "Caisse d'Epargne Ecureuil"}, {"id": "6123", "name": "MEC"}, {"id": "6124", "name": "Nestl\u00e9 Nespresso (BE)"}, {"id": "6125", "name": "Blanc d'ivoire"}, {"id": "6126", "name": "Circles"}, {"id": "6127", "name": "Banque Nagelmackers 1747"}, {"id": "6128", "name": "KINGFISHER FRANCE"}, {"id": "6129", "name": "EXXON MOBIL CHEMICAL EUROPE INC"}, {"id": "6130", "name": "Schneider Electric France"}, {"id": "6131", "name": "Cov\u00e9a"}, {"id": "6132", "name": "Canon FR"}, {"id": "6133", "name": "Porsche"}, {"id": "6134", "name": "SONIA RYKIEL"}, {"id": "6135", "name": "LG Electronics"}, {"id": "6136", "name": "GROUPE PARTOUCHE"}, {"id": "6137", "name": "KLM"}, {"id": "6138", "name": "Altran Group"}, {"id": "6139", "name": "Point Carr\u00e9"}, {"id": "6140", "name": "CNP Assurances"}, {"id": "6141", "name": "Le Tanneur & CIE"}, {"id": "6142", "name": "Beiersdorf AG"}, {"id": "6143", "name": "Aigle Azur"}, {"id": "6144", "name": "Parfums Christian Dior B.V."}, {"id": "6145", "name": "Tessi Documents Services"}, {"id": "6146", "name": "BWT France"}, {"id": "6147", "name": "Expertime"}, {"id": "6148", "name": "Bigben"}, {"id": "6149", "name": "D2SI"}, {"id": "6150", "name": "ING"}, {"id": "6151", "name": "CAISSE D'EPARGNE"}, {"id": "6152", "name": "Adoma SA"}, {"id": "6153", "name": "Babolat"}, {"id": "6154", "name": "CERP ROUEN"}, {"id": "6155", "name": "Sublime Skinz"}, {"id": "6156", "name": "Groupe Marie Claire"}, {"id": "6157", "name": "Mobalpa"}, {"id": "6158", "name": "Groupe IRCEM"}, {"id": "6159", "name": "NRJ"}, {"id": "6160", "name": "Prisma Media"}, {"id": "6161", "name": "Martin Belaysoud Expansion"}, {"id": "6162", "name": "Aigle"}, {"id": "6163", "name": "EDF EN Services / EDF ENS (EDF Energies Nouvelles group)"}, {"id": "6164", "name": "CDC Habitat"}, {"id": "6165", "name": "safran.fr"}, {"id": "6166", "name": "Petits-fils"}, {"id": "6167", "name": "Sommet Education"}, {"id": "6168", "name": "Delhaize"}, {"id": "6169", "name": "GROUPE DUPESSEY"}, {"id": "6170", "name": "Fives Filling & Sealing"}, {"id": "6171", "name": "NATUP"}, {"id": "6172", "name": "STET, SA"}, {"id": "6173", "name": "Denjean & Associ\u00e9s"}, {"id": "6174", "name": "Fitness Park"}, {"id": "6175", "name": "Universit\u00e9 des Antilles"}, {"id": "6176", "name": "Teleperformance France"}, {"id": "6177", "name": "Volvo Trucks France"}, {"id": "6178", "name": "CPA"}, {"id": "6179", "name": "SD SERVICES"}, {"id": "6180", "name": "LILLY FRANCE"}, {"id": "6181", "name": "KION Group"}, {"id": "6182", "name": "ITT Motion Technologies"}, {"id": "6183", "name": "SEPHORA SA"}, {"id": "6184", "name": "Salomon"}, {"id": "6185", "name": "Boulanger"}, {"id": "6186", "name": "Moma Group Paris"}, {"id": "6187", "name": "LE BHV MARAIS"}, {"id": "6188", "name": "H\u00e9l\u00e8ne Darroze"}, {"id": "6189", "name": "L'Or\u00e9al"}, {"id": "6190", "name": "Accenture"}, {"id": "6191", "name": "BAYI TRUCKS"}, {"id": "6192", "name": "Sabre"}, {"id": "6193", "name": "Amer Sports"}, {"id": "6194", "name": "Triskalia"}, {"id": "6195", "name": "Dr Martens"}, {"id": "6196", "name": "LANVIN"}, {"id": "6197", "name": "BRICOMAN (groupe ADEO)"}, {"id": "6198", "name": "VANESSA BRUNO"}, {"id": "6199", "name": "LANCEL"}, {"id": "6200", "name": "SANDRO (groupe SMCP)"}], "page": 62, "has_more": true, "count": 8677}