{"results": [{"id": "3901", "name": "Chief Strategy Officer"}, {"id": "3902", "name": "Pontivy"}, {"id": "3903", "name": "Le Bon March\u00e9 Rive Gauche"}, {"id": "3904", "name": "TAPE A LOEIL"}, {"id": "3905", "name": "EQUINOX - Equipements Inoxydables"}, {"id": "3906", "name": "SPARTOO"}, {"id": "3907", "name": "Montpellier"}, {"id": "3908", "name": "IBIS"}, {"id": "3909", "name": "DUWOOD"}, {"id": "3910", "name": "Ab Tasty"}, {"id": "3911", "name": "Cr\u00e9dit Agricole"}, {"id": "3912", "name": "Berceau magique"}, {"id": "3913", "name": "Groupe Alain Ducasse"}, {"id": "3914", "name": "Eiffage"}, {"id": "3915", "name": "PAULE KA"}, {"id": "3916", "name": "CAPGEMINI"}, {"id": "3917", "name": "Relais Christine"}, {"id": "3918", "name": "Paris la Defense"}, {"id": "3919", "name": "TERRES DE CAFE"}, {"id": "3920", "name": "GROUPE BPCE"}, {"id": "3921", "name": "BALINEA"}, {"id": "3922", "name": "VitrineMedia"}, {"id": "3923", "name": "CHRISTIAN DIOR"}, {"id": "3924", "name": "Qcns Cruise Sam"}, {"id": "3925", "name": "Kobojo"}, {"id": "3926", "name": "Econocom"}, {"id": "3927", "name": "Diebold"}, {"id": "3928", "name": "Balyo"}, {"id": "3929", "name": "Malakoff mederic"}, {"id": "3930", "name": "Seequalis"}, {"id": "3931", "name": "JF CESBRON"}, {"id": "3932", "name": "Engie"}, {"id": "3933", "name": "Babychou"}, {"id": "3934", "name": "Supermarches Match"}, {"id": "3935", "name": "Bollor\u00e9 Transport Logistics"}, {"id": "3936", "name": "Hudson"}, {"id": "3937", "name": "Amaury Sport Organisation"}, {"id": "3938", "name": "Puma"}, {"id": "3939", "name": "Fircosoft"}, {"id": "3940", "name": "Axelliance groupe"}, {"id": "3941", "name": "Checkpoint Systems France Sas"}, {"id": "3942", "name": "STARBUCKS"}, {"id": "3943", "name": "Agh Consulting"}, {"id": "3944", "name": "Ras-Interim"}, {"id": "3945", "name": "GCS UniHA"}, {"id": "3946", "name": "Indosuez Wealth Management"}, {"id": "3947", "name": "Fresenius Kabi"}, {"id": "3948", "name": "Solystic"}, {"id": "3949", "name": "Bain capital"}, {"id": "3950", "name": "CNAV"}, {"id": "3951", "name": "Habitat et humanisme"}, {"id": "3952", "name": "Paris saint-germain"}, {"id": "3953", "name": "Brioche Pasquier"}, {"id": "3954", "name": "Soc Ctre Chirurgical Ambroise Pare"}, {"id": "3955", "name": "Claudie Pierlot"}, {"id": "3956", "name": "Baudelet"}, {"id": "3957", "name": "SAINT GOBAIN MATERIAUX DE CONSTRUCTION"}, {"id": "3958", "name": "Akka Technologies"}, {"id": "3959", "name": "FOUR SEASONS"}, {"id": "3960", "name": "Banque Delubac & Cie"}, {"id": "3961", "name": "My Rh Community"}, {"id": "3962", "name": "Soci\u00e9t\u00e9 mutualiste interprofessionnelle"}, {"id": "3963", "name": "Palais des Th\u00e9s"}, {"id": "3964", "name": "Groupe d'Aucy"}, {"id": "3965", "name": "Witbe"}, {"id": "3966", "name": "Auchan Retail France"}, {"id": "3967", "name": "Prosodie"}, {"id": "3968", "name": "Tediber"}, {"id": "3969", "name": "Cylande"}, {"id": "3970", "name": "PAREDES"}, {"id": "3971", "name": "Yoplait"}, {"id": "3972", "name": "H\u00f4tel du Collectionneur"}, {"id": "3973", "name": "SNCF"}, {"id": "3974", "name": "Plastic Omnium"}, {"id": "3975", "name": "DANONE PRODUITS FRAIS FRANCE"}, {"id": "3976", "name": "SMAvie BTP"}, {"id": "3977", "name": "OUTSOURCIN"}, {"id": "3978", "name": "Cellfish"}, {"id": "3979", "name": "Business At Work"}, {"id": "3980", "name": "Actiforces"}, {"id": "3981", "name": "Entrepose GROUP"}, {"id": "3982", "name": "BI consulting"}, {"id": "3983", "name": "Alb\u00e9a Group"}, {"id": "3984", "name": "Inovenaltenor"}, {"id": "3985", "name": "Toyota Material Handling"}, {"id": "3986", "name": "Pac-Online"}, {"id": "3987", "name": "Allianz Worldwide Partners"}, {"id": "3988", "name": "Leyton"}, {"id": "3989", "name": "Le Monde"}, {"id": "3990", "name": "Ideas RH"}, {"id": "3991", "name": "Adobe"}, {"id": "3992", "name": "Covivio"}, {"id": "3993", "name": "Kaefer Wanner"}, {"id": "3994", "name": "AON"}, {"id": "3995", "name": "MotoBlouz"}, {"id": "3996", "name": "MHD"}, {"id": "3997", "name": "Arrow"}, {"id": "3998", "name": "Ozitem"}, {"id": "3999", "name": "Brice"}, {"id": "4000", "name": "Europorte"}], "page": 40, "has_more": true, "count": 8677}