{"results": [{"id": "4701", "name": "Lefebvre Sarrut"}, {"id": "4702", "name": "United Technologies"}, {"id": "4703", "name": "Leica Geosystems part of Hexagon"}, {"id": "4704", "name": "International Paper"}, {"id": "4705", "name": "VF Corporation"}, {"id": "4706", "name": "Dura Automotive Systems"}, {"id": "4707", "name": "OVH LTD"}, {"id": "4708", "name": "DLL GROUP"}, {"id": "4709", "name": "Spiecapag SA"}, {"id": "4710", "name": "Gamma"}, {"id": "4711", "name": "BABYLISS SARL"}, {"id": "4712", "name": "Tata Steel Europe Limited"}, {"id": "4713", "name": "Allerdale Borough Council"}, {"id": "4714", "name": "Badoo"}, {"id": "4715", "name": "Yorkshire Housing"}, {"id": "4716", "name": "Alliance Emploi"}, {"id": "4717", "name": "Swire Pacific Offshore"}, {"id": "4718", "name": "Dexia"}, {"id": "4719", "name": "The Goodyear Tire & Rubber Company"}, {"id": "4720", "name": "Accord Housing Association Ltd"}, {"id": "4721", "name": "United Trust Bank"}, {"id": "4722", "name": "Securitas Security Services USA, Inc."}, {"id": "4723", "name": "Supplay"}, {"id": "4724", "name": "Consort NT"}, {"id": "4725", "name": "Amberjack"}, {"id": "4726", "name": "Honeywell International Inc."}, {"id": "4727", "name": "University of Lille"}, {"id": "4728", "name": "ADEXSI HEXADOME / SOUCHIER / BOULLET / ETERNIT FLACHDACH"}, {"id": "4729", "name": "ORECA"}, {"id": "4730", "name": "Amey plc"}, {"id": "4731", "name": "Mazars"}, {"id": "4732", "name": "ServiceSource"}, {"id": "4733", "name": "EuraTechnologies"}, {"id": "4734", "name": "JCA Engineering Limited"}, {"id": "4735", "name": "QAPA SA"}, {"id": "4736", "name": "Owens-Illinois"}, {"id": "4737", "name": "Sellafield Ltd"}, {"id": "4738", "name": "TALAN"}, {"id": "4739", "name": "Bally"}, {"id": "4740", "name": "Client Server Limited"}, {"id": "4741", "name": "AdeRHis"}, {"id": "4742", "name": "Construction Specialties, Inc."}, {"id": "4743", "name": "mano mano"}, {"id": "4744", "name": "Lafarge"}, {"id": "4745", "name": "Covi Inc"}, {"id": "4746", "name": "EPAM Systems, Inc."}, {"id": "4747", "name": "AHLSTROM BRIGNOUD"}, {"id": "4748", "name": "Optivo"}, {"id": "4749", "name": "INTESPACE"}, {"id": "4750", "name": "Agent Provocateur"}, {"id": "4751", "name": "Iss world"}, {"id": "4752", "name": "Mitsubishi Corporation"}, {"id": "4753", "name": "Canon (UK) Ltd"}, {"id": "4754", "name": "Cr\u00e9dit Agricole"}, {"id": "4755", "name": "ESSENTRA PLC"}, {"id": "4756", "name": "EURECOM"}, {"id": "4757", "name": "LEROY MERLIN SUD OUEST"}, {"id": "4758", "name": "Sulky-burel"}, {"id": "4759", "name": "Alert Logic, Inc."}, {"id": "4760", "name": "S&P Global"}, {"id": "4761", "name": "Sprint"}, {"id": "4762", "name": "Culture Amp Pty Ltd."}, {"id": "4763", "name": "Direction Generale De La Cohesion Sociale"}, {"id": "4764", "name": "ICSA Software International Limited"}, {"id": "4765", "name": "Hutchison 3G UK Limited"}, {"id": "4766", "name": "Apside Groupe"}, {"id": "4767", "name": "The Business of Fashion"}, {"id": "4768", "name": "BNP PARIBAS FRANCE"}, {"id": "4769", "name": "Babergh and Mid Suffolk District Councils"}, {"id": "4770", "name": "Carpetright plc"}, {"id": "4771", "name": "Bucherer"}, {"id": "4772", "name": "Beaulieu International Group"}, {"id": "4773", "name": "COOPEVAL"}, {"id": "4774", "name": "ICF HABITAT"}, {"id": "4775", "name": "GOV.UK"}, {"id": "4776", "name": "BENIFY"}, {"id": "4777", "name": "BGL Group"}, {"id": "4778", "name": "Springer Nature"}, {"id": "4779", "name": "Quantcast"}, {"id": "4780", "name": "Johnson Controls France"}, {"id": "4781", "name": "CIPRES"}, {"id": "4782", "name": "Meridian Global Services"}, {"id": "4783", "name": "Magnox Ltd"}, {"id": "4784", "name": "TELERESSOURCES"}, {"id": "4785", "name": "The Marketing Practice"}, {"id": "4786", "name": "Home House"}, {"id": "4787", "name": "Insperity"}, {"id": "4788", "name": "AUTOLIB"}, {"id": "4789", "name": "Fondation pour l'Animation Socioculturelle Lausannoise"}, {"id": "4790", "name": "Freyssinet"}, {"id": "4791", "name": "Schneider Electric"}, {"id": "4792", "name": "GOV.UK"}, {"id": "4793", "name": "Nutrition & Sant\u00e9"}, {"id": "4794", "name": "IDRAC BORDEAUX"}, {"id": "4795", "name": "Pizza Pilgrims Ltd"}, {"id": "4796", "name": "Talk Talk"}, {"id": "4797", "name": "Havas Media"}, {"id": "4798", "name": "Clarins"}, {"id": "4799", "name": "Abbott"}, {"id": "4800", "name": "mk2"}], "page": 48, "has_more": true, "count": 8677}