{"results": [{"id": "7301", "name": "MINISTERE DE L'EUROPE ET DES AFFAIRES ETRANGERES"}, {"id": "7302", "name": "Willis Towers Watson | France"}, {"id": "7303", "name": "Famoco"}, {"id": "7304", "name": "BigID"}, {"id": "7305", "name": "Casa Del Libro"}, {"id": "7306", "name": "Nateevo"}, {"id": "7307", "name": "VINCI Energies"}, {"id": "7308", "name": "Jamespot"}, {"id": "7309", "name": "Atol Opticiens LOA SARL"}, {"id": "7310", "name": "Eulerian"}, {"id": "7311", "name": "France Boissons"}, {"id": "7312", "name": "A\u00e9roports De Paris"}, {"id": "7313", "name": "Pierre Fabre"}, {"id": "7314", "name": "Mirova"}, {"id": "7315", "name": "Richemont"}, {"id": "7316", "name": "Claas"}, {"id": "7317", "name": "Interflora"}, {"id": "7318", "name": "Atos Belgique"}, {"id": "7319", "name": "Bnl Life Banker - Bnp Paribas"}, {"id": "7320", "name": "Croix Rouge Fran\u00e7aise"}, {"id": "7321", "name": "L'oreal Usa"}, {"id": "7322", "name": "One Peak Partners"}, {"id": "7323", "name": "Cr\u00e9dit Agricole Alpes Provence"}, {"id": "7324", "name": "Bureau Vall\u00e9e"}, {"id": "7325", "name": "Carrefour Media"}, {"id": "7326", "name": "Ca-Alpesprovence"}, {"id": "7327", "name": "Credit Agricole Leasing & Factoring"}, {"id": "7328", "name": "Degrenne"}, {"id": "7329", "name": "Pichet (groupe)"}, {"id": "7330", "name": "Lvmh"}, {"id": "7331", "name": "Cr\u00e9dit Agricole Franche-Comt\u00e9"}, {"id": "7332", "name": "Carrefour Be"}, {"id": "7333", "name": "Louis Vuitton"}, {"id": "7334", "name": "Salesforce"}, {"id": "7335", "name": "Deloitte Conseil"}, {"id": "7336", "name": "Schneider Electric"}, {"id": "7337", "name": "Citya Immobilier"}, {"id": "7338", "name": "Sncf R\u00e9seau"}, {"id": "7339", "name": "BBC"}, {"id": "7340", "name": "Philips"}, {"id": "7341", "name": "Naturalia France"}, {"id": "7342", "name": "Karavel"}, {"id": "7343", "name": "Sncf Transilien"}, {"id": "7344", "name": "Ikks"}, {"id": "7345", "name": "Right Management"}, {"id": "7346", "name": "Societe Generale Consulting"}, {"id": "7347", "name": "ENI"}, {"id": "7348", "name": "MACSF"}, {"id": "7349", "name": "Bpi - Bnl Spa - Bnp Paribas Group, Human Resources Department (rome)"}, {"id": "7350", "name": "Credit Agricole Centre Est Immobilier"}, {"id": "7351", "name": "Accor"}, {"id": "7352", "name": "Edgewell Personal Care"}, {"id": "7353", "name": "L'oreal Professional Products Division Usa"}, {"id": "7354", "name": "Allianz France"}, {"id": "7355", "name": "Axa Partners"}, {"id": "7356", "name": "Bnp Paribas Private Banking - France"}, {"id": "7357", "name": "Swisslife"}, {"id": "7358", "name": "Ford Motor Company"}, {"id": "7359", "name": "Fca Fiat Chrysler Automobiles - Fca Italy"}, {"id": "7360", "name": "Adecco"}, {"id": "7361", "name": "Psa Peugeot Citroen"}, {"id": "7362", "name": "L'express"}, {"id": "7363", "name": "BNP Paribas Corporate And Institutional Banking"}, {"id": "7364", "name": "Arep"}, {"id": "7365", "name": "Wurth"}, {"id": "7366", "name": "Cgi Us"}, {"id": "7367", "name": "Cci-Paris-Idf"}, {"id": "7368", "name": "Banca Nazionale Del Lavoro Gruppo Bnpparibas"}, {"id": "7369", "name": "Achats Prestations Et Logiciels / Sncf"}, {"id": "7370", "name": "Lagard\u00e8re"}, {"id": "7371", "name": "Air Liquide China"}, {"id": "7372", "name": "Guerlain"}, {"id": "7373", "name": "Quick-Burger King"}, {"id": "7374", "name": "Kering"}, {"id": "7375", "name": "Orange Bank"}, {"id": "7376", "name": "Somfy"}, {"id": "7377", "name": "Keolis"}, {"id": "7378", "name": "AXA"}, {"id": "7379", "name": "BNP Paribas Pace"}, {"id": "7380", "name": "Societe Generale Securities Services"}, {"id": "7381", "name": "Engie Reseaux"}, {"id": "7382", "name": "Bearingpoint"}, {"id": "7383", "name": "Rakuten"}, {"id": "7384", "name": "L'oreal Italia"}, {"id": "7385", "name": "Sephora"}, {"id": "7386", "name": "Minelli"}, {"id": "7387", "name": "Accenture Strategy"}, {"id": "7388", "name": "Pfizer"}, {"id": "7389", "name": "Apec"}, {"id": "7390", "name": "Petit Forestier"}, {"id": "7391", "name": "Assa Abloy"}, {"id": "7392", "name": "Talentsoft"}, {"id": "7393", "name": "Tiller Systems"}, {"id": "7394", "name": "Mnt - Mutuelle Nationale Territoriale"}, {"id": "7395", "name": "BNP Paribas WAI"}, {"id": "7396", "name": "Atos Uk"}, {"id": "7397", "name": "Bnp Paribas Fortis"}, {"id": "7398", "name": "Renault Fleet International"}, {"id": "7399", "name": "Capgemini Nl"}, {"id": "7400", "name": "Cr\u00e9dit agricole Centre Ouest"}], "page": 74, "has_more": true, "count": 8677}