{"results": [{"id": "7901", "name": "DANONE"}, {"id": "7902", "name": "Voyage Priv\u00e9 Vpg"}, {"id": "7903", "name": "RELAIS & CHATEAUX"}, {"id": "7904", "name": "GROUPE RICHEMONT"}, {"id": "7905", "name": "Cleor"}, {"id": "7906", "name": "LA REDOUTE"}, {"id": "7907", "name": "ORANGE"}, {"id": "7908", "name": "GROUPE BERNARD"}, {"id": "7909", "name": "Groupe Lucien Barriere Sas (Glb)"}, {"id": "7910", "name": "INTERSPORT"}, {"id": "7911", "name": "CAPGEMINI TECHNOLOGY SERVICES"}, {"id": "7912", "name": "GROUPE L'EXPRESS"}, {"id": "7913", "name": "ACCENTURE"}, {"id": "7914", "name": "H10 HOTELS"}, {"id": "7915", "name": "FABERNOVEL"}, {"id": "7916", "name": "SAINT GOBAIN"}, {"id": "7917", "name": "MUTUA MADRILENA"}, {"id": "7918", "name": "TARKETT"}, {"id": "7919", "name": "TICKETAC"}, {"id": "7920", "name": "Cgi Business Consulting"}, {"id": "7921", "name": "Darty"}, {"id": "7922", "name": "BAZARCHIC"}, {"id": "7923", "name": "BNP Paribas Personal Finance (Cetelem)"}, {"id": "7924", "name": "Oui.sncf"}, {"id": "7925", "name": "Macif Assurances Niort"}, {"id": "7926", "name": "CROIX-ROUGE FRAN\u00c7AISE"}, {"id": "7927", "name": "Undiz"}, {"id": "7928", "name": "L\u2019OREAL LUXE France"}, {"id": "7929", "name": "Parrot"}, {"id": "7930", "name": "L'Etudiant"}, {"id": "7931", "name": "Sncf"}, {"id": "7932", "name": "Movistar Spain"}, {"id": "7933", "name": "SHOWROOMPRIVE.COM"}, {"id": "7934", "name": "BNP Paribas - BDDF (ma Banque)"}, {"id": "7935", "name": "VVF VILLAGE"}, {"id": "7936", "name": "SPLIO SPAIN"}, {"id": "7937", "name": "Homeserve"}, {"id": "7938", "name": "DARTY"}, {"id": "7939", "name": "ORANGE"}, {"id": "7940", "name": "Amundi"}, {"id": "7941", "name": "Babilou"}, {"id": "7942", "name": "Iberostar"}, {"id": "7943", "name": "ALLIANZ FRANCE"}, {"id": "7944", "name": "La Redoute"}, {"id": "7945", "name": "H&M FRANCE"}, {"id": "7946", "name": "L'Oreal ES"}, {"id": "7947", "name": "BNP Paribas - BDDF (ma Banque)"}, {"id": "7948", "name": "Groupe Retif"}, {"id": "7949", "name": "LA MUTUELLE G\u00c9N\u00c9RALE"}, {"id": "7950", "name": "HAPPYCHIC"}, {"id": "7951", "name": "FONDATION D'AUTEUIL"}, {"id": "7952", "name": "Dayuse.Com"}, {"id": "7953", "name": "GROUPE CARREFOUR"}, {"id": "7954", "name": "Castorama France"}, {"id": "7955", "name": "L'Etudiant"}, {"id": "7956", "name": "Macif Assurances Niort"}, {"id": "7957", "name": "LEVI STRAUSS"}, {"id": "7958", "name": "Gdf Suez"}, {"id": "7959", "name": "BNP PARIBAS"}, {"id": "7960", "name": "Sacem"}, {"id": "7961", "name": "BNP Paribas Wealth Management"}, {"id": "7962", "name": "ADAGIO"}, {"id": "7963", "name": "Printemps"}, {"id": "7964", "name": "ENGIE"}, {"id": "7965", "name": "Sfr Groupe"}, {"id": "7966", "name": "Pmu"}, {"id": "7967", "name": "RUE DU COMMERCE"}, {"id": "7968", "name": "AG2R LA MONDIALE"}, {"id": "7969", "name": "AENA"}, {"id": "7970", "name": "L'OR\u00c9AL"}, {"id": "7971", "name": "Maaf"}, {"id": "7972", "name": "BNP Paribas - BDDF (ma Banque)"}, {"id": "7973", "name": "ACCENTURE"}, {"id": "7974", "name": "SOMFY"}, {"id": "7975", "name": "Groupe Beaumanoir"}, {"id": "7976", "name": "GROUPE CARREFOUR"}, {"id": "7977", "name": "Pernod Ricard"}, {"id": "7978", "name": "Veolia"}, {"id": "7979", "name": "SALESFORCE.COM FRANCE"}, {"id": "7980", "name": "ACCORHOTELS"}, {"id": "7981", "name": "AG2R LA MONDIALE"}, {"id": "7982", "name": "Webedia Group"}, {"id": "7983", "name": "Smcp - Sandro Maje Claudie Pierlot"}, {"id": "7984", "name": "Carr\u00e9 Blanc"}, {"id": "7985", "name": "BHV"}, {"id": "7986", "name": "Orange"}, {"id": "7987", "name": "GOOGLE FRANCE"}, {"id": "7988", "name": "Groupe Accor Sa - Accor Hotels"}, {"id": "7989", "name": "LEBONCOIN"}, {"id": "7990", "name": "VENTADIS"}, {"id": "7991", "name": "FRANPRIX-LEADER PRICE"}, {"id": "7992", "name": "SAINT GOBAIN"}, {"id": "7993", "name": "GROUPE GENERALI"}, {"id": "7994", "name": "T-Systems International"}, {"id": "7995", "name": "Sanofi Groupe"}, {"id": "7996", "name": "MILLESIMA"}, {"id": "7997", "name": "MOET HENNESSY CHAMPAGNE SERVICES"}, {"id": "7998", "name": "L'OR\u00c9AL"}, {"id": "7999", "name": "Diptyque"}, {"id": "8000", "name": "TOTAL"}], "page": 80, "has_more": true, "count": 8677}