{"results": [{"id": "6301", "name": "HEYRAUD (groupe ERAM)"}, {"id": "6302", "name": "mobilosoft"}, {"id": "6303", "name": "SINEQUANONE"}, {"id": "6304", "name": "SQLI"}, {"id": "6305", "name": "INTERIOR'S"}, {"id": "6306", "name": "FRED"}, {"id": "6307", "name": "SAP"}, {"id": "6308", "name": "Google"}, {"id": "6309", "name": "ZILLI"}, {"id": "6310", "name": "DECATHLON"}, {"id": "6311", "name": "CELIO"}, {"id": "6312", "name": "Beaba"}, {"id": "6313", "name": "GROSFILLEX"}, {"id": "6314", "name": "MICROMANIA / DOCK GAMES"}, {"id": "6315", "name": "ESTHEDERM"}, {"id": "6316", "name": "Jardiland"}, {"id": "6317", "name": "SISLEY"}, {"id": "6318", "name": "HAPPY CHIC GROUP"}, {"id": "6319", "name": "BESSON CHAUSSURES"}, {"id": "6320", "name": "CHAUSPORT"}, {"id": "6321", "name": "L'Or\u00e9al"}, {"id": "6322", "name": "groupe Sodiaal"}, {"id": "6323", "name": "PICARD SURGELES"}, {"id": "6324", "name": "OBJECTIF COIFFURE - BLEU LIBELLULE"}, {"id": "6325", "name": "MINELLI (groupe VIVARTE)"}, {"id": "6326", "name": "LE PALAIS DES THES"}, {"id": "6327", "name": "SIMONE PERELE"}, {"id": "6328", "name": "DYSON France"}, {"id": "6329", "name": "L'OCCITANE EN PROVENCE"}, {"id": "6330", "name": "VEJA"}, {"id": "6331", "name": "CASINO"}, {"id": "6332", "name": "Converteo"}, {"id": "6333", "name": "SMCP"}, {"id": "6334", "name": "SAMSUNG ELECTRONICS FRANCE SAS"}, {"id": "6335", "name": "DU BRUIT DANS LA CUISINE"}, {"id": "6336", "name": "CULTURA"}, {"id": "6337", "name": "Soloptical"}, {"id": "6338", "name": "ZADIG ET VOLTAIRE"}, {"id": "6339", "name": "ANTOINE ET LILI"}, {"id": "6340", "name": "CASA"}, {"id": "6341", "name": "TAPE A L'OEIL"}, {"id": "6342", "name": "SAINT-GOBAIN"}, {"id": "6343", "name": "GEMO (groupe ERAM)"}, {"id": "6344", "name": "GO SPORT"}, {"id": "6345", "name": "Cartier"}, {"id": "6346", "name": "Maison 123 (groupe ETAM)"}, {"id": "6347", "name": "SWAROVSKI"}, {"id": "6348", "name": "ALICE DELICE"}, {"id": "6349", "name": "La Poste"}, {"id": "6350", "name": "L'OREAL"}, {"id": "6351", "name": "BOULANGER"}, {"id": "6352", "name": "AGNES B"}, {"id": "6353", "name": "MICROSOFT"}, {"id": "6354", "name": "PIZZA HUT"}, {"id": "6355", "name": "DARTY"}, {"id": "6356", "name": "Vestiaire Collective"}, {"id": "6357", "name": "Eug\u00e8ne Perma"}, {"id": "6358", "name": "RENAULT RETAIL GROUP"}, {"id": "6359", "name": "DEVERNOIS"}, {"id": "6360", "name": "APRIL GROUP"}, {"id": "6361", "name": "LOEWE France"}, {"id": "6362", "name": "groupedidierguerin.com"}, {"id": "6363", "name": "Soul ecommerce"}, {"id": "6364", "name": "ORANGE BUSINESS SERVICES"}, {"id": "6365", "name": "Provadys"}, {"id": "6366", "name": "Louyetu"}, {"id": "6367", "name": "EASYPARAPHARMACIE"}, {"id": "6368", "name": "CHANEL MODE"}, {"id": "6369", "name": "Christian Lacroix"}, {"id": "6370", "name": "PLANET PARFUM"}, {"id": "6371", "name": "BoConcept"}, {"id": "6372", "name": "IKEA"}, {"id": "6373", "name": "MATY"}, {"id": "6374", "name": "Fortnum & Mason"}, {"id": "6375", "name": "ALES GROUPE"}, {"id": "6376", "name": "ReachFive"}, {"id": "6377", "name": "INTERMARCHE"}, {"id": "6378", "name": "Brico"}, {"id": "6379", "name": "ARCHOS"}, {"id": "6380", "name": "CDA (UK)"}, {"id": "6381", "name": "MMA ASSURANCES"}, {"id": "6382", "name": "CHOPARD"}, {"id": "6383", "name": "MATELSOM"}, {"id": "6384", "name": "Agnelle"}, {"id": "6385", "name": "Reiss"}, {"id": "6386", "name": "Coty Inc."}, {"id": "6387", "name": "LAPEYRE"}, {"id": "6388", "name": "Loyalty Company"}, {"id": "6389", "name": "WAX Interactive"}, {"id": "6390", "name": "CACHE CACHE (Groupe BEAUMANOIR)"}, {"id": "6391", "name": "POINT P"}, {"id": "6392", "name": "Yves Salomon SAS"}, {"id": "6393", "name": "Dior"}, {"id": "6394", "name": "Advisa"}, {"id": "6395", "name": "Bayer"}, {"id": "6396", "name": "OVH LTD"}, {"id": "6397", "name": "LA COMPAGNIE DES PETITS"}, {"id": "6398", "name": "ELAN EDELMAN"}, {"id": "6399", "name": "BIOMONDE"}, {"id": "6400", "name": "Lagard\u00e8re Active"}], "page": 64, "has_more": true, "count": 8677}