{"results": [{"id": "2501", "name": "Centreon"}, {"id": "2502", "name": "Boticinal"}, {"id": "2503", "name": "Canonical Ltd."}, {"id": "2504", "name": "Pernod Ricard"}, {"id": "2505", "name": "The Adecco Group"}, {"id": "2506", "name": "M&G Investments"}, {"id": "2507", "name": "Cr\u00e9dit Agricole Brie Picardie"}, {"id": "2508", "name": "France terre d'asile"}, {"id": "2509", "name": "Inmac wstore"}, {"id": "2510", "name": "Grand H\u00f4pital de Charleroi"}, {"id": "2511", "name": "Harver"}, {"id": "2512", "name": "VIAREPORT"}, {"id": "2513", "name": "PAUL"}, {"id": "2514", "name": "Ambassade De Grande-Bretagne"}, {"id": "2515", "name": "scapnor.fr"}, {"id": "2516", "name": "Blue Latitude Health"}, {"id": "2517", "name": "France Volontaires"}, {"id": "2518", "name": "LOUIS VUITTON"}, {"id": "2519", "name": "Monechelle.com"}, {"id": "2520", "name": "JPMorgan Chase & Co."}, {"id": "2521", "name": "MACSF"}, {"id": "2522", "name": "SFR"}, {"id": "2523", "name": "Mindbody"}, {"id": "2524", "name": "OREXAD"}, {"id": "2525", "name": "Lynx RH"}, {"id": "2526", "name": "Critizr"}, {"id": "2527", "name": "SMEREP"}, {"id": "2528", "name": "Easyrecrue"}, {"id": "2529", "name": "BNP Paribas Personal Finance"}, {"id": "2530", "name": "GLOBALFOUNDRIES"}, {"id": "2531", "name": "Vetoquinol"}, {"id": "2532", "name": "Flowserve Corporation"}, {"id": "2533", "name": "Winoa"}, {"id": "2534", "name": "sofresid.com"}, {"id": "2535", "name": "EPSAGROUPE"}, {"id": "2536", "name": "Animalis"}, {"id": "2537", "name": "THE PLACE TO COACH"}, {"id": "2538", "name": "Marriott International, Inc."}, {"id": "2539", "name": "Croix-Rouge de Belgique"}, {"id": "2540", "name": "SCC"}, {"id": "2541", "name": "Inzejob"}, {"id": "2542", "name": "Start People"}, {"id": "2543", "name": "retif"}, {"id": "2544", "name": "St Michel"}, {"id": "2545", "name": "Saint-Gobain"}, {"id": "2546", "name": "BUSINESS FRANCE"}, {"id": "2547", "name": "SCT TELECOM"}, {"id": "2548", "name": "Groupe SCUTUM"}, {"id": "2549", "name": "Havas Media"}, {"id": "2550", "name": "Compass Group France"}, {"id": "2551", "name": "Tecnatom"}, {"id": "2552", "name": "editions Larousse"}, {"id": "2553", "name": "NOVAE AEROSPACE"}, {"id": "2554", "name": "Bombardier"}, {"id": "2555", "name": "L\u2019Ecole_Sup_Banque"}, {"id": "2556", "name": "Cmc Markets France"}, {"id": "2557", "name": "Artifakt.io"}, {"id": "2558", "name": "Sbe France"}, {"id": "2559", "name": "KPMG Belgium"}, {"id": "2560", "name": "Toys R Us France"}, {"id": "2561", "name": "Groupe Coop\u00e9ratif Maisadour"}, {"id": "2562", "name": "GROUPE INFODIS"}, {"id": "2563", "name": "AccorHotels"}, {"id": "2564", "name": "Heineken Espa\u00c3\u00b1a"}, {"id": "2565", "name": "PILOT CORPORATION OF EUROPE"}, {"id": "2566", "name": "StaffPoint Oy"}, {"id": "2567", "name": "Shropshire Council"}, {"id": "2568", "name": "Cambria Conseil"}, {"id": "2569", "name": "CREAgile"}, {"id": "2570", "name": "sdpconsulting.fr"}, {"id": "2571", "name": "Payfit"}, {"id": "2572", "name": "Laboratoires Anios"}, {"id": "2573", "name": "Pelican Rouge"}, {"id": "2574", "name": "OXAND"}, {"id": "2575", "name": "Nomura"}, {"id": "2576", "name": "Procoplast - A Methode Electronics Company"}, {"id": "2577", "name": "GYS"}, {"id": "2578", "name": "Keneos S.A."}, {"id": "2579", "name": "LIDL"}, {"id": "2580", "name": "Prime Global"}, {"id": "2581", "name": "Higher Colleges of Technology"}, {"id": "2582", "name": "Office Depot, Inc."}, {"id": "2583", "name": "GUERLAIN"}, {"id": "2584", "name": "Lunchr"}, {"id": "2585", "name": "MEDIAS FRANCE"}, {"id": "2586", "name": "CIS"}, {"id": "2587", "name": "Givenchy"}, {"id": "2588", "name": "Cr\u00e9dit Agricole PCA"}, {"id": "2589", "name": "Arysta LifeScience Corporation"}, {"id": "2590", "name": "Decision Performance Conseil"}, {"id": "2591", "name": "SOPREMA France"}, {"id": "2592", "name": "Scede.io"}, {"id": "2593", "name": "Mid Cheshire Hospitals NHS Foundation Trust"}, {"id": "2594", "name": "CityMeo"}, {"id": "2595", "name": "Orange Communications SA"}, {"id": "2596", "name": "Quizvoice"}, {"id": "2597", "name": "betc"}, {"id": "2598", "name": "Energy Aspects"}, {"id": "2599", "name": "Guerlain"}, {"id": "2600", "name": "Credipar"}], "page": 26, "has_more": true, "count": 8677}