{"results": [{"id": "6201", "name": "CHANEL PARFUMS BEAUTE"}, {"id": "6202", "name": "NESPRESSO"}, {"id": "6203", "name": "Lectra"}, {"id": "6204", "name": "Ralph Lauren Media LLC"}, {"id": "6205", "name": "MATCH"}, {"id": "6206", "name": "ARKOPHARMA"}, {"id": "6207", "name": "VGM - MULTICHAUSS - CHAUSSEA"}, {"id": "6208", "name": "BIRCHBOX"}, {"id": "6209", "name": "Sciences Po"}, {"id": "6210", "name": "THE BODY SHOP"}, {"id": "6211", "name": "SEZANE"}, {"id": "6212", "name": "CAROLL (groupe VIVARTE)"}, {"id": "6213", "name": "Anne de Solene"}, {"id": "6214", "name": "Redsen Consulting"}, {"id": "6215", "name": "alexander mcqueen"}, {"id": "6216", "name": "DIM"}, {"id": "6217", "name": "Space NK"}, {"id": "6218", "name": "ERIC BOMPARD"}, {"id": "6219", "name": "Acad\u00e9mie de Nantes"}, {"id": "6220", "name": "Le Jacquard Fran\u00e7ais"}, {"id": "6221", "name": "Banque Casino"}, {"id": "6222", "name": "MAUBOUSSIN"}, {"id": "6223", "name": "MORGAN (Groupe BEAUMANOIR)"}, {"id": "6224", "name": "NEW YORKER"}, {"id": "6225", "name": "CEGID"}, {"id": "6226", "name": "CARREFOUR"}, {"id": "6227", "name": "Swaven"}, {"id": "6228", "name": "GUY DEGRENNE"}, {"id": "6229", "name": "The Hut Group"}, {"id": "6230", "name": "ATOL OPTICIENS"}, {"id": "6231", "name": "DEVIALET"}, {"id": "6232", "name": "GIVENCHY PARFUMS"}, {"id": "6233", "name": "SMILE"}, {"id": "6234", "name": "ARMOR LUX"}, {"id": "6235", "name": "GIBERT JOSEPH"}, {"id": "6236", "name": "GRAIN DE MALICE"}, {"id": "6237", "name": "PIERRE FREY"}, {"id": "6238", "name": "Harvey Nichols"}, {"id": "6239", "name": "MIDAS"}, {"id": "6240", "name": "LES MOUSQUETAIRES"}, {"id": "6241", "name": "KENZO MODE"}, {"id": "6242", "name": "ALLTRICKS"}, {"id": "6243", "name": "FOSSIL"}, {"id": "6244", "name": "OVH LTD"}, {"id": "6245", "name": "JACQUELINE RIU"}, {"id": "6246", "name": "OPTICAL DISCOUNT"}, {"id": "6247", "name": "GROUPE BEAUMANOIR"}, {"id": "6248", "name": "Bulgari"}, {"id": "6249", "name": "ESPRIT"}, {"id": "6250", "name": "UNDIZ (groupe ETAM)"}, {"id": "6251", "name": "Bio c' Bon"}, {"id": "6252", "name": "ESSILOR"}, {"id": "6253", "name": "NOCIBE"}, {"id": "6254", "name": "OMEGA"}, {"id": "6255", "name": "CHRISTIAN LOUBOUTIN"}, {"id": "6256", "name": "Audi Shop"}, {"id": "6257", "name": "WANIMO"}, {"id": "6258", "name": "BLANCHE PORTE"}, {"id": "6259", "name": "G-Star"}, {"id": "6260", "name": "COMPTOIR DES COTONNIERS"}, {"id": "6261", "name": "MOBALPA (FOURNIER SA)"}, {"id": "6262", "name": "Suncoo"}, {"id": "6263", "name": "TARTINE ET CHOCOLAT"}, {"id": "6264", "name": "QUIKSILVER (NA PALI SA)"}, {"id": "6265", "name": "GRAND FRAIS"}, {"id": "6266", "name": "CHAUSSURES BESSEC"}, {"id": "6267", "name": "WAVESTONE"}, {"id": "6268", "name": "Soprasteria"}, {"id": "6269", "name": "YVES SALOMON"}, {"id": "6270", "name": "FILORGA"}, {"id": "6271", "name": "kohler"}, {"id": "6272", "name": "OVH LTD"}, {"id": "6273", "name": "AMEFA France"}, {"id": "6274", "name": "SOCIETE GENERALE"}, {"id": "6275", "name": "AB TASTY"}, {"id": "6276", "name": "JONAK"}, {"id": "6277", "name": "4 PIEDS - GROUPE CONFORT DECOR"}, {"id": "6278", "name": "BECQUET"}, {"id": "6279", "name": "TISSOT"}, {"id": "6280", "name": "LENOTRE"}, {"id": "6281", "name": "Salesforce"}, {"id": "6282", "name": "MOA"}, {"id": "6283", "name": "MADURA"}, {"id": "6284", "name": "Confiserie Leonidas"}, {"id": "6285", "name": "LAVINIA"}, {"id": "6286", "name": "DEVERNOIS"}, {"id": "6287", "name": "BOARDRIDERS (quicksilver)"}, {"id": "6288", "name": "HERMES INTERNATIONAL"}, {"id": "6289", "name": "BSH ELECTROMENAGER France"}, {"id": "6290", "name": "rcbt.fr"}, {"id": "6291", "name": "NAF NAF"}, {"id": "6292", "name": "LEGO SAS"}, {"id": "6293", "name": "LABORATOIRES CINQ MONDES"}, {"id": "6294", "name": "COURIR"}, {"id": "6295", "name": "Brantano"}, {"id": "6296", "name": "Monoprix"}, {"id": "6297", "name": "El Corte Ingl\u00e9s S.A."}, {"id": "6298", "name": "BEAUTY SUCCESS"}, {"id": "6299", "name": "Quechua"}, {"id": "6300", "name": "PUIG"}], "page": 63, "has_more": true, "count": 8677}