{"results": [{"id": "1601", "name": "Ultima Displays"}, {"id": "1602", "name": "Carrefour"}, {"id": "1603", "name": "Fnac Darty SA"}, {"id": "1604", "name": "alaji.fr"}, {"id": "1605", "name": "Colruyt Group"}, {"id": "1606", "name": "JCW"}, {"id": "1607", "name": "Century 21 France"}, {"id": "1608", "name": "Spir Communication SA"}, {"id": "1609", "name": "RH Partners"}, {"id": "1610", "name": "Suomen Kuulosuojaus Oy / Cotral Lab Suomi"}, {"id": "1611", "name": "Bitly Inc."}, {"id": "1612", "name": "Skechers"}, {"id": "1613", "name": "Alcuin"}, {"id": "1614", "name": "Alchimie"}, {"id": "1615", "name": "Deloitte Real Estate"}, {"id": "1616", "name": "Groupe Segex"}, {"id": "1617", "name": "Taylor Root"}, {"id": "1618", "name": "Otis Elevator Company"}, {"id": "1619", "name": "DIMO SOFTWARE"}, {"id": "1620", "name": "Souscritoo"}, {"id": "1621", "name": "Mondel\u0113z International"}, {"id": "1622", "name": "Rethink Group"}, {"id": "1623", "name": "Intent Media Inc."}, {"id": "1624", "name": "Delanchy Transports"}, {"id": "1625", "name": "IPCN International Programme Content Network"}, {"id": "1626", "name": "IZBERG"}, {"id": "1627", "name": "Protec Fire Detection Plc"}, {"id": "1628", "name": "Dairy Crest"}, {"id": "1629", "name": "GO Sport France"}, {"id": "1630", "name": "Cytori Therapeutics Inc"}, {"id": "1631", "name": "Aluit"}, {"id": "1632", "name": "GoCardless"}, {"id": "1633", "name": "Jones and Palmer"}, {"id": "1634", "name": "ETANDEX"}, {"id": "1635", "name": "UCANSS"}, {"id": "1636", "name": "P\u00e9n\u00e9lope Groupe"}, {"id": "1637", "name": "Henderson Scott"}, {"id": "1638", "name": "Fintro"}, {"id": "1639", "name": "VINCI Airports"}, {"id": "1640", "name": "Saint Jean"}, {"id": "1641", "name": "Universit\u00e9 catholique de Louvain"}, {"id": "1642", "name": "PREMIUMPEERS"}, {"id": "1643", "name": "Paul Smith Ltd"}, {"id": "1644", "name": "Messer France"}, {"id": "1645", "name": "LinkedIn"}, {"id": "1646", "name": "CV-Library Ltd"}, {"id": "1647", "name": "Lyreco"}, {"id": "1648", "name": "Shangri-La International Hotel Management Ltd."}, {"id": "1649", "name": "Apollo Fire Detectors"}, {"id": "1650", "name": "TabMo"}, {"id": "1651", "name": "Excelya"}, {"id": "1652", "name": "Aprolis"}, {"id": "1653", "name": "Talan"}, {"id": "1654", "name": "Fed Supply"}, {"id": "1655", "name": "Norsys"}, {"id": "1656", "name": "b-ressource"}, {"id": "1657", "name": "Innate Pharma"}, {"id": "1658", "name": "Drieux-Combaluzier"}, {"id": "1659", "name": "Cristalco"}, {"id": "1660", "name": "Netflix"}, {"id": "1661", "name": "AID Add Intelligence to Data"}, {"id": "1662", "name": "Jacobs Douwe Egberts"}, {"id": "1663", "name": "POLARYS"}, {"id": "1664", "name": "viennagglo.fr"}, {"id": "1665", "name": "Medical Protection Society"}, {"id": "1666", "name": "Essor"}, {"id": "1667", "name": "Banque Populaire"}, {"id": "1668", "name": "PAPREC"}, {"id": "1669", "name": "Zimmer Biomet"}, {"id": "1670", "name": "Rosewood Hotels & Resorts"}, {"id": "1671", "name": "BPCE"}, {"id": "1672", "name": "BNP Paribas Real Estate"}, {"id": "1673", "name": "OnTruck"}, {"id": "1674", "name": "ISG - Institut Sup\u00e9rieur de Gestion"}, {"id": "1675", "name": "MARCO VASCO"}, {"id": "1676", "name": "Chill Factore"}, {"id": "1677", "name": "YGL CONSULTING"}, {"id": "1678", "name": "McCain Foods"}, {"id": "1679", "name": "Manutan"}, {"id": "1680", "name": "Ville de Dijon"}, {"id": "1681", "name": "Ubisoft Paris Mobile"}, {"id": "1682", "name": "Lectra"}, {"id": "1683", "name": "Boucheron"}, {"id": "1684", "name": "IHG"}, {"id": "1685", "name": "Groupe AMETRA"}, {"id": "1686", "name": "MENARINI Group"}, {"id": "1687", "name": "AUTO1.com"}, {"id": "1688", "name": "Universcience"}, {"id": "1689", "name": "Le Mans Universit\u00e9"}, {"id": "1690", "name": "Christian Dior Couture"}, {"id": "1691", "name": "APCMA"}, {"id": "1692", "name": "Cr\u00e9dit Agricole"}, {"id": "1693", "name": "natur\u00e9O"}, {"id": "1694", "name": "ADP"}, {"id": "1695", "name": "Legal Suite"}, {"id": "1696", "name": "MELTY GROUP"}, {"id": "1697", "name": "Le Wagon"}, {"id": "1698", "name": "DAHER"}, {"id": "1699", "name": "ATTAX"}, {"id": "1700", "name": "AUDIKA"}], "page": 17, "has_more": true, "count": 8677}