{"results": [{"id": "4901", "name": "Royal Bank of Scotland"}, {"id": "4902", "name": "Dormakaba"}, {"id": "4903", "name": "SALOMON"}, {"id": "4904", "name": "Palais de Justice Historique"}, {"id": "4905", "name": "Intercomp Global Services"}, {"id": "4906", "name": "Sarelem"}, {"id": "4907", "name": "Barri\u00e8re"}, {"id": "4908", "name": "STAUBLI"}, {"id": "4909", "name": "EXCATITUDE"}, {"id": "4910", "name": "MUNDIPHARMA RESEARCH"}, {"id": "4911", "name": "Schneider Electric"}, {"id": "4912", "name": "Hitachi Solutions"}, {"id": "4913", "name": "Veolia Eau"}, {"id": "4914", "name": "Schneider Electric- USA"}, {"id": "4915", "name": "Gresham Technologies plc"}, {"id": "4916", "name": "WEBHELP CONSEIL"}, {"id": "4917", "name": "TRIBALLAT NOYAL"}, {"id": "4918", "name": "ManpowerGroup"}, {"id": "4919", "name": "AMC Networks Inc."}, {"id": "4920", "name": "Hubbard"}, {"id": "4921", "name": "Apec"}, {"id": "4922", "name": "Seeqle"}, {"id": "4923", "name": "J.P. Morgan"}, {"id": "4924", "name": "CDA"}, {"id": "4925", "name": "KPMG"}, {"id": "4926", "name": "SDL"}, {"id": "4927", "name": "EDOUARD FRANKLIN"}, {"id": "4928", "name": "INEAT"}, {"id": "4929", "name": "Valfleuri"}, {"id": "4930", "name": "Addo Food Group"}, {"id": "4931", "name": "CleverShuttle"}, {"id": "4932", "name": "Ebiznext"}, {"id": "4933", "name": "Transport for London"}, {"id": "4934", "name": "FITEC SA"}, {"id": "4935", "name": "We Design Services"}, {"id": "4936", "name": "Cr\u00e9dit Agricole de Lorraine"}, {"id": "4937", "name": "Cats Protection"}, {"id": "4938", "name": "AFFINITY PETCARE FRANCE"}, {"id": "4939", "name": "DIOR COUTURE"}, {"id": "4940", "name": "Alpro"}, {"id": "4941", "name": "A.B.C. INDUSTRIE"}, {"id": "4942", "name": "Lewisham College"}, {"id": "4943", "name": "Cansimag France"}, {"id": "4944", "name": "The Ritz London"}, {"id": "4945", "name": "Transdev -"}, {"id": "4946", "name": "Icam"}, {"id": "4947", "name": "CHL"}, {"id": "4948", "name": "Hammond Clarke"}, {"id": "4949", "name": "WilsonHCG"}, {"id": "4950", "name": "ORTEC SERVICES"}, {"id": "4951", "name": "OVH LTD"}, {"id": "4952", "name": "Cromology"}, {"id": "4953", "name": "Agence de l'eau RM"}, {"id": "4954", "name": "HAYS EXECUTIVE"}, {"id": "4955", "name": "Serge Ferrari"}, {"id": "4956", "name": "Fever Labs, Inc."}, {"id": "4957", "name": "Alstom"}, {"id": "4958", "name": "munchkin"}, {"id": "4959", "name": "SpotMe"}, {"id": "4960", "name": "OVH LTD"}, {"id": "4961", "name": "neoplayground.com"}, {"id": "4962", "name": "RAK PROPERTIES"}, {"id": "4963", "name": "Banque Populaire"}, {"id": "4964", "name": "BBA Aviation plc"}, {"id": "4965", "name": "ARGEDIS"}, {"id": "4966", "name": "Cr\u00e9dit Agricole Charente-P\u00e9rigord"}, {"id": "4967", "name": "CSF"}, {"id": "4968", "name": "HM Revenue & Customs"}, {"id": "4969", "name": "CAISSE D'EPARGNE"}, {"id": "4970", "name": "LABEILLE CONSEIL"}, {"id": "4971", "name": "Webb Fontaine"}, {"id": "4972", "name": "Groupe SYNERLAB"}, {"id": "4973", "name": "OCTO TECHNOLOGY"}, {"id": "4974", "name": "Britvic PLC"}, {"id": "4975", "name": "CITEC ENVIRONNEMENT"}, {"id": "4976", "name": "SterWen"}, {"id": "4977", "name": "Leboncoin.fr"}, {"id": "4978", "name": "ADH CONSEIL"}, {"id": "4979", "name": "EVIAN"}, {"id": "4980", "name": "IHS Markit"}, {"id": "4981", "name": "Communaut\u00e9 d'Agglom\u00e9ration de Saint Quentin en Yvelines"}, {"id": "4982", "name": "Lewisham Homes"}, {"id": "4983", "name": "EIGHT ADVISORY"}, {"id": "4984", "name": "SVP"}, {"id": "4985", "name": "OVH LTD"}, {"id": "4986", "name": "altair"}, {"id": "4987", "name": "psgdover"}, {"id": "4988", "name": "M\u00e9diam\u00e9trie"}, {"id": "4989", "name": "Groupe Valeor"}, {"id": "4990", "name": "NBC UNIVERSAL MEDIA, LLC"}, {"id": "4991", "name": "NGA Human Resources"}, {"id": "4992", "name": "Evans Cycles Limited"}, {"id": "4993", "name": "Waycom"}, {"id": "4994", "name": "Online"}, {"id": "4995", "name": "Wargaming.net"}, {"id": "4996", "name": "BDO Belgium"}, {"id": "4997", "name": "Ecole Centrale de Lyon"}, {"id": "4998", "name": "Veeam"}, {"id": "4999", "name": "Royal Bank of Scotland"}, {"id": "5000", "name": "BFG Capital"}], "page": 50, "has_more": true, "count": 8677}