{"results": [{"id": "1701", "name": "GEFCO Version Fran\u00e7aise"}, {"id": "1702", "name": "CLH Pipeline System (CLH-PS) Ltd"}, {"id": "1703", "name": "Jean Lain Automobiles SA"}, {"id": "1704", "name": "Scunthorpe United Football Club"}, {"id": "1705", "name": "randstad"}, {"id": "1706", "name": "SMARTSIDE"}, {"id": "1707", "name": "SMACL Assurances"}, {"id": "1708", "name": "BIGMAT GIRARDON"}, {"id": "1709", "name": "Legrand France"}, {"id": "1710", "name": "PubMatic"}, {"id": "1711", "name": "Merlin Entertainments plc"}, {"id": "1712", "name": "AREVA"}, {"id": "1713", "name": "VMware"}, {"id": "1714", "name": "MANAGING"}, {"id": "1715", "name": "adidas Group"}, {"id": "1716", "name": "Cr\u00e9dit Agricole"}, {"id": "1717", "name": "Les Compagnons Du Devoir"}, {"id": "1718", "name": "Immediate Media Co"}, {"id": "1719", "name": "Grand Union Housing Group"}, {"id": "1720", "name": "Caisse des depots"}, {"id": "1721", "name": "Confluent"}, {"id": "1722", "name": "Efficiens"}, {"id": "1723", "name": "Districom Sales and Marketing"}, {"id": "1724", "name": "Tigerspike"}, {"id": "1725", "name": "Marriott International Inc."}, {"id": "1726", "name": "Sun Chemical"}, {"id": "1727", "name": "Mundipharma International Limited"}, {"id": "1728", "name": "blanchon.com"}, {"id": "1729", "name": "Matis SA"}, {"id": "1730", "name": "cityjet"}, {"id": "1731", "name": "MGS Sales & Marketing"}, {"id": "1732", "name": "Associations"}, {"id": "1733", "name": "Proximus SpearIT \u2318"}, {"id": "1734", "name": "Altitude Infrastructure"}, {"id": "1735", "name": "Moynat"}, {"id": "1736", "name": "Logteam"}, {"id": "1737", "name": "Groupe KEY CONSULTING"}, {"id": "1738", "name": "ICE"}, {"id": "1739", "name": "HRC Recruitment"}, {"id": "1740", "name": "Oman Insurance Company"}, {"id": "1741", "name": "Apec"}, {"id": "1742", "name": "L'Or\u00e9al"}, {"id": "1743", "name": "InfoVista"}, {"id": "1744", "name": "3X Consultants"}, {"id": "1745", "name": "Gameloft"}, {"id": "1746", "name": "DNCA Finance"}, {"id": "1747", "name": "Camfil Oy"}, {"id": "1748", "name": "Bureau Veritas"}, {"id": "1749", "name": "Procopi"}, {"id": "1750", "name": "Lincoln Electric"}, {"id": "1751", "name": "Alphabet"}, {"id": "1752", "name": "Omerin"}, {"id": "1753", "name": "BGL BNP Paribas"}, {"id": "1754", "name": "Phoenix Contact France"}, {"id": "1755", "name": "Expertime"}, {"id": "1756", "name": "FYTE"}, {"id": "1757", "name": "Bishopsgate Financial"}, {"id": "1758", "name": "La Petite Merveille"}, {"id": "1759", "name": "Box"}, {"id": "1760", "name": "DDB Paris"}, {"id": "1761", "name": "lafourchette"}, {"id": "1762", "name": "Jalios"}, {"id": "1763", "name": "Biscuits Bouvard"}, {"id": "1764", "name": "UPM"}, {"id": "1765", "name": "Groupe Armonia"}, {"id": "1766", "name": "HARIBO"}, {"id": "1767", "name": "Highways England"}, {"id": "1768", "name": "rouaixgroupe.fr"}, {"id": "1769", "name": "Clintec"}, {"id": "1770", "name": "POSSIBLE"}, {"id": "1771", "name": "Hayward Industries"}, {"id": "1772", "name": "Maison du Monde"}, {"id": "1773", "name": "LE PAIN QUOTIDIEN"}, {"id": "1774", "name": "Astek"}, {"id": "1775", "name": "Voyageurs du Monde"}, {"id": "1776", "name": "Ataraxis Services"}, {"id": "1777", "name": "Cuisines AvivA"}, {"id": "1778", "name": "SETEC"}, {"id": "1779", "name": "Cylad Consulting"}, {"id": "1780", "name": "froidgoupil.com"}, {"id": "1781", "name": "Reed Expositions France"}, {"id": "1782", "name": "TENDAM"}, {"id": "1783", "name": "ManpowerGrpSolutions"}, {"id": "1784", "name": "Laboratoire BIOMNIS"}, {"id": "1785", "name": "Kier Group"}, {"id": "1786", "name": "Shapr"}, {"id": "1787", "name": "OVH LTD"}, {"id": "1788", "name": "i-Particuliers"}, {"id": "1789", "name": "NXP Software"}, {"id": "1790", "name": "Val d'Oise"}, {"id": "1791", "name": "KPMG Sweden"}, {"id": "1792", "name": "havre-port.fr"}, {"id": "1793", "name": "TRIGO"}, {"id": "1794", "name": "Nikon Corporation"}, {"id": "1795", "name": "Keycoopt"}, {"id": "1796", "name": "acttif.com"}, {"id": "1797", "name": "Clugston Construction Limited"}, {"id": "1798", "name": "Class'croute"}, {"id": "1799", "name": "l acoustics"}, {"id": "1800", "name": "Bannerman Security"}], "page": 18, "has_more": true, "count": 8677}