{"results": [{"id": "6401", "name": "Amazon Pay"}, {"id": "6402", "name": "Wishibam"}, {"id": "6403", "name": "Aubade Paris"}, {"id": "6404", "name": "Mondadori France"}, {"id": "6405", "name": "SaleCycle"}, {"id": "6406", "name": "Gowento"}, {"id": "6407", "name": "Czech & Speake"}, {"id": "6408", "name": "Dyson"}, {"id": "6409", "name": "Acquia Inc."}, {"id": "6410", "name": "Zeb"}, {"id": "6411", "name": "PACKARD BELL"}, {"id": "6412", "name": "CCI Bourgogne"}, {"id": "6413", "name": "Groupe SMA"}, {"id": "6414", "name": "Questel"}, {"id": "6415", "name": "Ekinops"}, {"id": "6416", "name": "Interxion France"}, {"id": "6417", "name": "Spring Technologies"}, {"id": "6418", "name": "EKOSPORT"}, {"id": "6419", "name": "MIELE FRANCE"}, {"id": "6420", "name": "Ventadis"}, {"id": "6421", "name": "Back Market"}, {"id": "6422", "name": "Planet Sushi"}, {"id": "6423", "name": "Fresh Burritos"}, {"id": "6424", "name": "Big Fernand"}, {"id": "6425", "name": "Matsuri"}, {"id": "6426", "name": "Bagelstein"}, {"id": "6427", "name": "Sodexo"}, {"id": "6428", "name": "Crescendo Restauration"}, {"id": "6429", "name": "La Foir'Fouille"}, {"id": "6430", "name": "Le paradis du fruit"}, {"id": "6431", "name": "Poulaillon"}, {"id": "6432", "name": "Boulangerie Ange"}, {"id": "6433", "name": "Ideal Groupe"}, {"id": "6434", "name": "FuturMaster"}, {"id": "6435", "name": "Flixbus"}, {"id": "6436", "name": "Poujoulat SA"}, {"id": "6437", "name": "ReachFive"}, {"id": "6438", "name": "Childrensalon"}, {"id": "6439", "name": "Irdeto"}, {"id": "6440", "name": "ReachFive"}, {"id": "6441", "name": "Hulu"}, {"id": "6442", "name": "Cloudera"}, {"id": "6443", "name": "NGDATA"}, {"id": "6444", "name": "Axys Consultants"}, {"id": "6445", "name": "2-30 Media"}, {"id": "6446", "name": "AXERIA IARD"}, {"id": "6447", "name": "OVH LTD"}, {"id": "6448", "name": "JumpWork"}, {"id": "6449", "name": "Talan"}, {"id": "6450", "name": "QUICKSIGN"}, {"id": "6451", "name": "AGH CONSULTING"}, {"id": "6452", "name": "Cerise et Potiron"}, {"id": "6453", "name": "Green Alternative"}, {"id": "6454", "name": "BEG Ing\u00e9nierie"}, {"id": "6455", "name": "Cooraceaura"}, {"id": "6456", "name": "MUTEST"}, {"id": "6457", "name": "Agence Publique pour l'Immobilier de la Justice"}, {"id": "6458", "name": "EXOLYS Search & HR Consulting"}, {"id": "6459", "name": "Cristal Union"}, {"id": "6460", "name": "SanteVet"}, {"id": "6461", "name": "Aareon France"}, {"id": "6462", "name": "IMA Technologies"}, {"id": "6463", "name": "VALLIANCE INVESTISSEMENT"}, {"id": "6464", "name": "Danone"}, {"id": "6465", "name": "Homair Vacances"}, {"id": "6466", "name": "Neoness"}, {"id": "6467", "name": "Aereco SA"}, {"id": "6468", "name": "Media Transports"}, {"id": "6469", "name": "Doras"}, {"id": "6470", "name": "DMF"}, {"id": "6471", "name": "Groupe IGS"}, {"id": "6472", "name": "iD Systemes"}, {"id": "6473", "name": "ADWEB CORPORATE"}, {"id": "6474", "name": "Lincoln"}, {"id": "6475", "name": "Groupe Bernard"}, {"id": "6476", "name": "Resah"}, {"id": "6477", "name": "Evolis"}, {"id": "6478", "name": "Elivie"}, {"id": "6479", "name": "Le Pain Quotidien"}, {"id": "6480", "name": "GreenYellow"}, {"id": "6481", "name": "BPD Marignan Immobilier SAS"}, {"id": "6482", "name": "LPA-CGR avocats"}, {"id": "6483", "name": "Logirep"}, {"id": "6484", "name": "peugeot"}, {"id": "6485", "name": "GIRAPHES"}, {"id": "6486", "name": "Acta"}, {"id": "6487", "name": "Groupe Legendre"}, {"id": "6488", "name": "Electrogeloz"}, {"id": "6489", "name": "Orapi GROUP"}, {"id": "6490", "name": "DigitRE group"}, {"id": "6491", "name": "My expat"}, {"id": "6492", "name": "cvo europe"}, {"id": "6493", "name": "Yousign"}, {"id": "6494", "name": "Clever Age"}, {"id": "6495", "name": "Saagie"}, {"id": "6496", "name": "Artelia"}, {"id": "6497", "name": "OOGarden"}, {"id": "6498", "name": "Synergie"}, {"id": "6499", "name": "Teksial"}, {"id": "6500", "name": "L'atelier des Chefs"}], "page": 65, "has_more": true, "count": 8677}