{"results": [{"id": "101", "name": "Berliner"}, {"id": "102", "name": "Amorino Paris 5"}, {"id": "103", "name": "FLAMS SIEGE"}, {"id": "104", "name": "BISTROT DES CAMPAGNES"}, {"id": "105", "name": "Oncle Jack"}, {"id": "106", "name": "HOTEL CFH"}, {"id": "107", "name": "Mozzato"}, {"id": "108", "name": "Gosselin"}, {"id": "109", "name": "Bagelstein Poitiers"}, {"id": "110", "name": "L'estrapade"}, {"id": "111", "name": "Caf\u00e9 Moco"}, {"id": "112", "name": "Shirvan"}, {"id": "113", "name": "KE\u00cfLI"}, {"id": "114", "name": "LES PERES POPULAIRES"}, {"id": "115", "name": "COLCHIDE"}, {"id": "116", "name": "Ti Sable"}, {"id": "117", "name": "Bureau Vall\u00e9e"}, {"id": "118", "name": "CAFE DE L INDUSTRIE"}, {"id": "119", "name": "Fresh burritos Lyon"}, {"id": "120", "name": "MERSEA"}, {"id": "121", "name": "Cousbox"}, {"id": "122", "name": "Air Liquide / AL IT"}, {"id": "123", "name": "Dataiku"}, {"id": "124", "name": "AROLLA"}, {"id": "125", "name": "Le Phare"}, {"id": "126", "name": "Arcad Software"}, {"id": "127", "name": "Mint Conseil"}, {"id": "128", "name": "Ubeeqo"}, {"id": "129", "name": "UpSlide"}, {"id": "130", "name": "Digital No Limit"}, {"id": "131", "name": "SMARTHYS"}, {"id": "132", "name": "HorseCom"}, {"id": "133", "name": "TableOnline"}, {"id": "134", "name": "KTM Advance"}, {"id": "135", "name": "BMI SYSTEM"}, {"id": "136", "name": "Kea & Partners"}, {"id": "137", "name": "MULTIVAC Sepp Haggenm\u00fcller SE & Co. KG"}, {"id": "138", "name": "Legal Suite"}, {"id": "139", "name": "Thalys"}, {"id": "140", "name": "BRIGHTEN"}, {"id": "141", "name": "Planeum - Certifi\u00e9e GPTW 2017"}, {"id": "142", "name": "eBusiness Information"}, {"id": "143", "name": "Uside"}, {"id": "144", "name": "MyndBlue"}, {"id": "145", "name": "D2SI"}, {"id": "146", "name": "Centre de Formation et de Perfectionnement des Journalistes"}, {"id": "147", "name": "SNCF"}, {"id": "148", "name": "Urban Place"}, {"id": "149", "name": "CARIZY"}, {"id": "150", "name": "ELAN"}, {"id": "151", "name": "Maison Kitsun\u00e9"}, {"id": "152", "name": "Zero Games Studios"}, {"id": "153", "name": "Synolia"}, {"id": "154", "name": "Esokia Web Agency"}, {"id": "155", "name": "Jalios"}, {"id": "156", "name": "Artdesk"}, {"id": "157", "name": "Yelloz components"}, {"id": "158", "name": "spgestion.fr"}, {"id": "159", "name": "Capgemini"}, {"id": "160", "name": "Mon-avocat.fr"}, {"id": "161", "name": "Novethic"}, {"id": "162", "name": "AB Tasty"}, {"id": "163", "name": "Agence Clark"}, {"id": "164", "name": "Interim Management LLC"}, {"id": "165", "name": "Aircall"}, {"id": "166", "name": "CMG Conseil"}, {"id": "167", "name": "InterCloud"}, {"id": "168", "name": "Netfective Technology"}, {"id": "169", "name": "SCORE DDB"}, {"id": "170", "name": "Flatchr"}, {"id": "171", "name": "Alcimed"}, {"id": "172", "name": "Primobox"}, {"id": "173", "name": "TYPY"}, {"id": "174", "name": "Agile4Me"}, {"id": "175", "name": "Equinox-Cognizant"}, {"id": "176", "name": "Techni-Contact / Md2i"}, {"id": "177", "name": "Bell & Ross, Inc."}, {"id": "178", "name": "Allo-Media"}, {"id": "179", "name": "dioki technologies"}, {"id": "180", "name": "Amabis France"}, {"id": "181", "name": "THEMIIS"}, {"id": "182", "name": "Sept Lieues"}, {"id": "183", "name": "OpenDigitalEducation"}, {"id": "184", "name": "big boss studio"}, {"id": "185", "name": "FircoSoft"}, {"id": "186", "name": "EDF"}, {"id": "187", "name": "Sutunam"}, {"id": "188", "name": "La Fonci\u00e8reNum\u00e9rique"}, {"id": "189", "name": "365Talents"}, {"id": "190", "name": "MELTY GROUP"}, {"id": "191", "name": "Elenbi - EBG"}, {"id": "192", "name": "RMC"}, {"id": "193", "name": "Ligue de Football Professionnel"}, {"id": "194", "name": "Weenect"}, {"id": "195", "name": "Ouihelp.fr"}, {"id": "196", "name": "Albus"}, {"id": "197", "name": "Sogedev"}, {"id": "198", "name": "UpGraduate"}, {"id": "199", "name": "accengage"}, {"id": "200", "name": "bengs lab"}], "page": 2, "has_more": true, "count": 8677}