{"results": [{"id": "2301", "name": "Cetim"}, {"id": "2302", "name": "Natixis"}, {"id": "2303", "name": "Belgacom Skynet SA"}, {"id": "2304", "name": "BoConcept A/S"}, {"id": "2305", "name": "ADventori"}, {"id": "2306", "name": "CTN FRANCE"}, {"id": "2307", "name": "FORSTAFF"}, {"id": "2308", "name": "Corsair Memory"}, {"id": "2309", "name": "Scrapinghub"}, {"id": "2310", "name": "ForgeRock"}, {"id": "2311", "name": "Groupe NICOLLIN"}, {"id": "2312", "name": "Jardine Motors Group trading as Lancaster"}, {"id": "2313", "name": "Vossloh Cogifer"}, {"id": "2314", "name": "Marmiton"}, {"id": "2315", "name": "SoftFluent"}, {"id": "2316", "name": "Bollor\u00e9"}, {"id": "2317", "name": "Christies Inc."}, {"id": "2318", "name": "MCS Groupe"}, {"id": "2319", "name": "Karavel"}, {"id": "2320", "name": "Beckers Group"}, {"id": "2321", "name": "DIMOTRANS Group"}, {"id": "2322", "name": "GB&SMITH"}, {"id": "2323", "name": "GROUPE STUDIEL"}, {"id": "2324", "name": "NXP Semiconductors"}, {"id": "2325", "name": "Veolia Propret\u00e9 SA"}, {"id": "2326", "name": "KPMG Finland"}, {"id": "2327", "name": "Hotel Lancaster - Paris Champs Elysees"}, {"id": "2328", "name": "France Diplomacy"}, {"id": "2329", "name": "EFINOR"}, {"id": "2330", "name": "Racing 92"}, {"id": "2331", "name": "O2 Lille Centre"}, {"id": "2332", "name": "Hasbro"}, {"id": "2333", "name": "Banyan Tree Tamouda Bay Morocco"}, {"id": "2334", "name": "CNPP"}, {"id": "2335", "name": "DEVRED 1902"}, {"id": "2336", "name": "NellArmonia"}, {"id": "2337", "name": "Figaro Medias"}, {"id": "2338", "name": "Bureau Vallee"}, {"id": "2339", "name": "Asiance"}, {"id": "2340", "name": "Pr\u00e9contact"}, {"id": "2341", "name": "Saint Maclou"}, {"id": "2342", "name": "Eiffage"}, {"id": "2343", "name": "De Gra\u00ebt Consulting Inc."}, {"id": "2344", "name": "Eilakaisla"}, {"id": "2345", "name": "Magellan Consulting"}, {"id": "2346", "name": "ATECNA"}, {"id": "2347", "name": "Scania"}, {"id": "2348", "name": "GreenFlex"}, {"id": "2349", "name": "Manuvo"}, {"id": "2350", "name": "OVH LTD"}, {"id": "2351", "name": "Global Student Accommodation UK Ltd"}, {"id": "2352", "name": "SPIE ICS"}, {"id": "2353", "name": "Pivotal, Inc."}, {"id": "2354", "name": "GMP ATIM Technologies"}, {"id": "2355", "name": "Agence Vitae Conseil"}, {"id": "2356", "name": "Theodo UK"}, {"id": "2357", "name": "TWIN SOLUTIONS"}, {"id": "2358", "name": "VitalAire"}, {"id": "2359", "name": "Axys Consultants"}, {"id": "2360", "name": "euralis.com"}, {"id": "2361", "name": "DYNACITE"}, {"id": "2362", "name": "KPConsulting"}, {"id": "2363", "name": "YVON MAU"}, {"id": "2364", "name": "CNP Assurances"}, {"id": "2365", "name": "ISOR"}, {"id": "2366", "name": "Groupe Pizzorno Environnement SA"}, {"id": "2367", "name": "CREDIT SUISSE GROUP"}, {"id": "2368", "name": "AppLearn"}, {"id": "2369", "name": "Stephenson Harwood"}, {"id": "2370", "name": "FUJITSU"}, {"id": "2371", "name": "BDC"}, {"id": "2372", "name": "Connective"}, {"id": "2373", "name": "Porsche"}, {"id": "2374", "name": "Sculpteo"}, {"id": "2375", "name": "GRUEL FAYER"}, {"id": "2376", "name": "DIAGEO NORTH AMERICA , INC."}, {"id": "2377", "name": "Shiseido"}, {"id": "2378", "name": "Toys R Us"}, {"id": "2379", "name": "CEETRUS"}, {"id": "2380", "name": "Bilendi SA"}, {"id": "2381", "name": "Groupe Moving"}, {"id": "2382", "name": "MC2I"}, {"id": "2383", "name": "YKK"}, {"id": "2384", "name": "CarBoat Media"}, {"id": "2385", "name": "La Vie Claire"}, {"id": "2386", "name": "Lacroix Signalisation"}, {"id": "2387", "name": "MOZAIK RH"}, {"id": "2388", "name": "SCOR Investment Partners SE"}, {"id": "2389", "name": "Althays (Groupe)"}, {"id": "2390", "name": "Groupe Moniteur S.A."}, {"id": "2391", "name": "nielsen"}, {"id": "2392", "name": "EuroWin Consulting Group"}, {"id": "2393", "name": "Sudpresse"}, {"id": "2394", "name": "CPME Paris"}, {"id": "2395", "name": "Cr\u00e9dit Mutuel Nord Europe"}, {"id": "2396", "name": "ManoMano"}, {"id": "2397", "name": "SOGEC Groupe"}, {"id": "2398", "name": "Westcon Group"}, {"id": "2399", "name": "Kbane"}, {"id": "2400", "name": "Bredin Prat"}], "page": 24, "has_more": true, "count": 8677}