{"results": [{"id": "7501", "name": "Carrefour"}, {"id": "7502", "name": "T Systems"}, {"id": "7503", "name": "Carrefour Italia"}, {"id": "7504", "name": "Conforama"}, {"id": "7505", "name": "Cdc Habitat"}, {"id": "7506", "name": "XEFI"}, {"id": "7507", "name": "Ibis Styles Rennes Centre Gare"}, {"id": "7508", "name": "ENACO, First Online Business School"}, {"id": "7509", "name": "FUJITSU"}, {"id": "7510", "name": "Genesys"}, {"id": "7511", "name": "Colgate-Palmolive Co"}, {"id": "7512", "name": "RB"}, {"id": "7513", "name": "Royal Philips"}, {"id": "7514", "name": "Libert\u00e9 Living-Lab"}, {"id": "7515", "name": "Cr Toulouse31"}, {"id": "7516", "name": "Accenture PL"}, {"id": "7517", "name": "Opinion Way"}, {"id": "7518", "name": "Theodo"}, {"id": "7519", "name": "Natixis Wealth Management"}, {"id": "7520", "name": "Alphalyr"}, {"id": "7521", "name": "Banque De France"}, {"id": "7522", "name": "Engie"}, {"id": "7523", "name": "La Poste"}, {"id": "7524", "name": "La Banque Postale"}, {"id": "7525", "name": "BNP Paribas Personal Finance"}, {"id": "7526", "name": "Cr\u00e9dit Agricole Nord De France"}, {"id": "7527", "name": "Total"}, {"id": "7528", "name": "Sncf Immobilier"}, {"id": "7529", "name": "Veepee"}, {"id": "7530", "name": "Olympique Lyonnais"}, {"id": "7531", "name": "Puig"}, {"id": "7532", "name": "Cma Cgm"}, {"id": "7533", "name": "Cap Digital"}, {"id": "7534", "name": "Core-Techs"}, {"id": "7535", "name": "Verteego"}, {"id": "7536", "name": "Carmila - Groupe Carrefour"}, {"id": "7537", "name": "Ids Media"}, {"id": "7538", "name": "Altima-Agency"}, {"id": "7539", "name": "Axa Spain"}, {"id": "7540", "name": "Aurexia"}, {"id": "7541", "name": "Van Cleef & Arpels Us"}, {"id": "7542", "name": "DDB"}, {"id": "7543", "name": "Beeline Group"}, {"id": "7544", "name": "Leetchi"}, {"id": "7545", "name": "Sharework"}, {"id": "7546", "name": "Cilub Med Tp"}, {"id": "7547", "name": "Airbus Helicopters"}, {"id": "7548", "name": "Saint Gobain Usa"}, {"id": "7549", "name": "Airbus Operations (division Airbus)"}, {"id": "7550", "name": "Systeme U"}, {"id": "7551", "name": "CCH Tagetik"}, {"id": "7552", "name": "Mon Banquet"}, {"id": "7553", "name": "Dnv Gl"}, {"id": "7554", "name": "Kiabi"}, {"id": "7555", "name": "Wizbii"}, {"id": "7556", "name": "Areva"}, {"id": "7557", "name": "Outscale"}, {"id": "7558", "name": "Lescomptoirs"}, {"id": "7559", "name": "BNP Paribas Wealth Management - Dubai"}, {"id": "7560", "name": "Grandvision Nv"}, {"id": "7561", "name": "Ca-Cib"}, {"id": "7562", "name": "Capgemini Application Services"}, {"id": "7563", "name": "Aigle International"}, {"id": "7564", "name": "Kia Motors America"}, {"id": "7565", "name": "Saint-Gobain Distribution B\u00e2timent France S.a.s."}, {"id": "7566", "name": "Smcp North America"}, {"id": "7567", "name": "Digital Virgo"}, {"id": "7568", "name": "5\u00e8me Gauche"}, {"id": "7569", "name": "Kitsune"}, {"id": "7570", "name": "Renault Retail Group"}, {"id": "7571", "name": "Burton"}, {"id": "7572", "name": "Bureau Veritas"}, {"id": "7573", "name": "ADM"}, {"id": "7574", "name": "Intent-Technologies"}, {"id": "7575", "name": "Mercialys"}, {"id": "7576", "name": "Wearesocial"}, {"id": "7577", "name": "Ekimetrics"}, {"id": "7578", "name": "Mappy"}, {"id": "7579", "name": "Ca-Toulouse31"}, {"id": "7580", "name": "Miist\u00e8re De La Defense"}, {"id": "7581", "name": "Raja"}, {"id": "7582", "name": "Aveda Estee Lauder"}, {"id": "7583", "name": "Sacem"}, {"id": "7584", "name": "Macif"}, {"id": "7585", "name": "Carrefour Banque & Assurance"}, {"id": "7586", "name": "Euler Hermes Italia"}, {"id": "7587", "name": "One Point"}, {"id": "7588", "name": "Fifty-Five"}, {"id": "7589", "name": "Oxybul"}, {"id": "7590", "name": "Digitas Lbi"}, {"id": "7591", "name": "Fretlink"}, {"id": "7592", "name": "E. Leclerc"}, {"id": "7593", "name": "Dentsu Aegis France"}, {"id": "7594", "name": "Siderlog"}, {"id": "7595", "name": "Healsy"}, {"id": "7596", "name": "Ca-Norddefrance"}, {"id": "7597", "name": "Lemonway"}, {"id": "7598", "name": "Telelangue"}, {"id": "7599", "name": "Isai"}, {"id": "7600", "name": "Experian Marketing Services"}], "page": 76, "has_more": true, "count": 8677}