{"results": [{"id": "7001", "name": "CA SAVOIE"}, {"id": "7002", "name": "CANAL +"}, {"id": "7003", "name": "POINT P"}, {"id": "7004", "name": "SILLIKER MERIEUX NUTRISCIENCES"}, {"id": "7005", "name": "FOREST STYLE GROUP"}, {"id": "7006", "name": "FENDI"}, {"id": "7007", "name": "OUI.SNCF"}, {"id": "7008", "name": "GROUPE SMA"}, {"id": "7009", "name": "COMPAGNIE DU VENT"}, {"id": "7010", "name": "ACAD\u00c9MIE BY ELIOR"}, {"id": "7011", "name": "LVMH - FRAGRANCE BRANDS"}, {"id": "7012", "name": "GROUPE SAMSE"}, {"id": "7013", "name": "INRS"}, {"id": "7014", "name": "DALKIA SUD OUEST"}, {"id": "7015", "name": "BNP PARIBAS ASSET MANAGEMENT"}, {"id": "7016", "name": "BPIFRANCE INVESTISSEMENT"}, {"id": "7017", "name": "GROUPAMA"}, {"id": "7018", "name": "PARFUMS CHRISTIAN DIOR"}, {"id": "7019", "name": "LE FIGARO"}, {"id": "7020", "name": "INMAC"}, {"id": "7021", "name": "MARKEN IMAJE"}, {"id": "7022", "name": "NEXITY"}, {"id": "7023", "name": "PERKINELMER"}, {"id": "7024", "name": "MGEFI"}, {"id": "7025", "name": "SYST\u00c8ME U"}, {"id": "7026", "name": "THUASNE"}, {"id": "7027", "name": "STANLEY BLACK & DECKER"}, {"id": "7028", "name": "VINCI CONSTRUCTION FRANCE GRAND EST"}, {"id": "7029", "name": "GROUPAMA"}, {"id": "7030", "name": "SAINT-GOBAIN"}, {"id": "7031", "name": "LABORATOIRES PIERRE FABRE"}, {"id": "7032", "name": "NEXTRADIOTV"}, {"id": "7033", "name": "GRUPA-ZYWIEC"}, {"id": "7034", "name": "SOPRA STERIA NUMERIC"}, {"id": "7035", "name": "DESIGUAL"}, {"id": "7036", "name": "Odgers Berndtson"}, {"id": "7037", "name": "Danone Waters"}, {"id": "7038", "name": "DERICHEBOURG Multiservices"}, {"id": "7039", "name": "Yuco"}, {"id": "7040", "name": "Northgate plc"}, {"id": "7041", "name": "BNP Paribas Wealth Management"}, {"id": "7042", "name": "GE Energy Connections"}, {"id": "7043", "name": "DSRL"}, {"id": "7044", "name": "SOUCHIER-BOULLET"}, {"id": "7045", "name": "Urban Outfitters Europe"}, {"id": "7046", "name": "Companies House"}, {"id": "7047", "name": "Caravan and Motorhome Club"}, {"id": "7048", "name": "Trinity Mirror"}, {"id": "7049", "name": "Groupe ETAM"}, {"id": "7050", "name": "Wright Hassall LLP"}, {"id": "7051", "name": "Cambridge City Council"}, {"id": "7052", "name": "FRECHE Location"}, {"id": "7053", "name": "Square One Resources"}, {"id": "7054", "name": "Develop'Invest"}, {"id": "7055", "name": "Idverde"}, {"id": "7056", "name": "Franprix"}, {"id": "7057", "name": "Club Identicar"}, {"id": "7058", "name": "Apuissance3"}, {"id": "7059", "name": "Delabie"}, {"id": "7060", "name": "Cr\u00e9dit Agricole"}, {"id": "7061", "name": "Le froid Pecomark"}, {"id": "7062", "name": "SPB"}, {"id": "7063", "name": "Riem Becker"}, {"id": "7064", "name": "Cci Vendee"}, {"id": "7065", "name": "Eversheds Sutherland"}, {"id": "7066", "name": "Gestion Et Transactions De France Gtf"}, {"id": "7067", "name": "Groupe RDT"}, {"id": "7068", "name": "Codase"}, {"id": "7069", "name": "Kohler-Soreel"}, {"id": "7070", "name": "Adidas"}, {"id": "7071", "name": "Loxam"}, {"id": "7072", "name": "MGEFI"}, {"id": "7073", "name": "Nike"}, {"id": "7074", "name": "Cadeau maestro"}, {"id": "7075", "name": "Cr\u00e9dit Mutuel Arkea"}, {"id": "7076", "name": "Sodexo"}, {"id": "7077", "name": "Ajstage"}, {"id": "7078", "name": "COFIDIS"}, {"id": "7079", "name": "L'Or\u00e9al"}, {"id": "7080", "name": "Conforama"}, {"id": "7081", "name": "Est\u00e9e Lauder"}, {"id": "7082", "name": "Banque Populaire-Caisse d'Epargne"}, {"id": "7083", "name": "LA POSTE Group"}, {"id": "7084", "name": "Nature & D\u00e9couvertes"}, {"id": "7085", "name": "Lesfurets.com"}, {"id": "7086", "name": "STUDYRAMA"}, {"id": "7087", "name": "Essilor"}, {"id": "7088", "name": "Zalando"}, {"id": "7089", "name": "Loding"}, {"id": "7090", "name": "Coty"}, {"id": "7091", "name": "Francis Lefebvre Formation"}, {"id": "7092", "name": "Dalkia"}, {"id": "7093", "name": "Allopneus"}, {"id": "7094", "name": "Banque BCP"}, {"id": "7095", "name": "Aigle"}, {"id": "7096", "name": "Unilend"}, {"id": "7097", "name": "Balzac Paris"}, {"id": "7098", "name": "Fevad"}, {"id": "7099", "name": "Fioulmarket"}, {"id": "7100", "name": "Ipsos"}], "page": 71, "has_more": true, "count": 8677}